<?xml version="1.0" standalone="no"?>

<svg 
     version="1.1"
     baseProfile="full"
     xmlns="http://www.w3.org/2000/svg"
     xmlns:xlink="http://www.w3.org/1999/xlink"
     xmlns:ev="http://www.w3.org/2001/xml-events"
     x="0px"
     y="0px"
     width="491px"
     height="435px"
     viewBox="0 0 491 435"
     >
<title></title>
<desc>Creator: FreeHEP Graphics2D Driver Producer: geogebra.export.SVGExtensions Revision: 12753  Source:  Date: Friday, March 20, 2020 at 9:23:25 PM Eastern Daylight Time</desc>
<g stroke-dashoffset="0" stroke-linejoin="miter" stroke-dasharray="none" stroke-width="1" stroke-linecap="square" stroke-miterlimit="10">
<g transform="matrix(0.566929133858268, 0, 0, 0.566929133858268, 0, 0)">
<g fill="#ffffff" fill-rule="nonzero" fill-opacity="1" stroke="none">
  <path d="M 0 0 L 867 0 L 867 769 L 0 769 L 0 0 z"/>
</g> <!-- drawing style -->
</g> <!-- transform -->
<g id="misc">
</g><!-- misc -->
<g id="layer0">
<g transform="matrix(0.566929133858268, 0, 0, 0.566929133858268, 0, 0)">
<g stroke-opacity="1" stroke-linejoin="round" stroke-width="2.5" fill="none" stroke="#000000" stroke-linecap="round">
  <path d="M 65 415 L 65 165"/>
</g> <!-- drawing style -->
</g> <!-- transform -->
<g transform="matrix(0.566929133858268, 0, 0, 0.566929133858268, 0, 0)">
<g stroke-opacity="1" stroke-linejoin="round" stroke-width="2.5" fill="none" stroke="#000000" stroke-linecap="round">
  <path d="M 65 415 L 264.9999999999999 415"/>
</g> <!-- drawing style -->
</g> <!-- transform -->
<g transform="matrix(0.566929133858268, 0, 0, 0.566929133858268, 0, 0)">
<g stroke-opacity="1" stroke-linejoin="round" stroke-width="2.5" fill="none" stroke="#000000" stroke-linecap="round">
  <path d="M 464.9999999999998 415 L 464.9999999999998 165"/>
</g> <!-- drawing style -->
</g> <!-- transform -->
<g transform="matrix(0.566929133858268, 0, 0, 0.566929133858268, 0, 0)">
<g stroke-opacity="1" stroke-linejoin="round" stroke-width="2.5" fill="none" stroke="#000000" stroke-linecap="round">
  <path d="M 464.9999999999998 415 L 664.9999999999997 415"/>
</g> <!-- drawing style -->
</g> <!-- transform -->
<g transform="matrix(0.566929133858268, 0, 0, 0.566929133858268, 0, 0)">
<g stroke-opacity="1" stroke-linejoin="round" fill="none" stroke="#000000" stroke-linecap="round">
  <path d="M 225.99999999999991 319 L 451.049982923467 299.93195751380665"/>
</g> <!-- drawing style -->
</g> <!-- transform -->
<g transform="matrix(0.566929133858268, 0, 0, 0.566929133858268, 0, 0)">
<g fill="#000000" fill-rule="nonzero" fill-opacity="1" stroke="none">
  <path d="M 465 298.75 L 451.345458984375 303.4194641113281 L 450.7544860839844 296.4444580078125 z"/>
</g> <!-- drawing style -->
</g> <!-- transform -->
<g transform="matrix(0.265322839258224, 0, 0, 0.265322839258224, 155.90550910769494, 336.7445385549953)">
<g fill="#000000" fill-rule="nonzero" fill-opacity="1" stroke="none">
  <path d="M 48.59375 -38.09375 L 39 0.09375 Q 36.59375 9.90625 28.296875 16 Q 22.203125 20.5 15.59375 20.5 Q 8.90625 20.5 6.09375 15.90625 Q 5 14 5 11.796875 Q 5 6.703125 9.09375 5.5 Q 9.90625 5.296875 10.59375 5.296875 Q 13.796875 5.296875 14.203125 8.09375 Q 14.296875 8.40625 14.296875 8.796875 Q 14.296875 11.09375 12.296875 12.90625 Q 10.90625 14.09375 8 14.09375 Q 9.796875 18.296875 15.59375 18.296875 Q 21.796875 18.296875 26.59375 12 Q 30.5 6.796875 32.796875 -2.09375 Q 32.90625 -2.5 33.09375 -3.40625 Q 28.59375 1.09375 23 1.09375 Q 15 1.09375 12.09375 -4.796875 Q 10.796875 -7.40625 10.796875 -10.796875 Q 10.796875 -16.296875 16.09375 -30.5 Q 16.296875 -31.09375 16.59375 -31.796875 Q 18.296875 -36.40625 18.296875 -38.796875 Q 18.296875 -42 15.796875 -42 Q 10.296875 -42 6.796875 -32.90625 L 6.796875 -32.796875 Q 6.203125 -31.296875 5.703125 -29.59375 Q 4.59375 -27.90625 4.09375 -27.796875 Q 2.90625 -27.796875 2.90625 -28.796875 Q 2.90625 -30.59375 5 -35.09375 Q 9.40625 -44.203125 16.09375 -44.203125 Q 21.40625 -44.203125 23.5 -39.703125 Q 24.296875 -38 24.296875 -36 Q 24.296875 -33.90625 22.296875 -28.796875 Q 17.203125 -15.59375 17.203125 -9.203125 Q 17.203125 -1.09375 23.40625 -1.09375 Q 29.203125 -1.09375 33.5 -7.296875 Q 34.5 -8.796875 34.703125 -9.59375 L 39.203125 -27.59375 Q 39.90625 -30.90625 41.203125 -35.59375 Q 42.203125 -39.90625 42.59375 -41 Q 43.90625 -43.09375 46.09375 -43.09375 Q 48.59375 -42.59375 49 -40.40625 Q 49 -39.5 48.59375 -38.09375 z"/>
</g> <!-- drawing style -->
</g> <!-- transform -->
<g transform="matrix(0.265322839258224, 0, 0, 0.265322839258224, 177.2358643860189, 336.7445385549953)">
<g fill="#000000" fill-rule="nonzero" fill-opacity="1" stroke="none">
  <path d="M 68.703125 -32.703125 L 9 -32.703125 Q 5.796875 -32.703125 5.59375 -34.703125 Q 5.59375 -36.703125 8.90625 -36.703125 L 68.796875 -36.703125 Q 72 -36.703125 72.09375 -34.703125 Q 72.09375 -32.703125 68.703125 -32.703125 z M 68.796875 -13.296875 L 8.90625 -13.296875 Q 5.703125 -13.296875 5.59375 -15.296875 Q 5.59375 -17.296875 9 -17.296875 L 68.703125 -17.296875 Q 71.90625 -17.296875 72.09375 -15.296875 Q 72.09375 -13.296875 68.796875 -13.296875 z"/>
</g> <!-- drawing style -->
</g> <!-- transform -->
<g transform="matrix(0.265322839258224, 0, 0, 0.265322839258224, 205.2422713713286, 336.7445385549953)">
<g fill="#000000" fill-rule="nonzero" fill-opacity="1" stroke="none">
  <path d="M 17.90625 -11.5 L 52.703125 -69.90625 Q 53.703125 -71.5 55.296875 -71.59375 Q 56.796875 -71.59375 57 -70.59375 Q 57.09375 -70.296875 57.203125 -69.203125 L 63.296875 -6.703125 Q 63.59375 -4.203125 64.5 -3.703125 L 64.59375 -3.703125 L 64.59375 -3.703125 L 64.59375 -3.703125 L 64.59375 -3.703125 L 64.59375 -3.59375 Q 65.796875 -3.09375 69.796875 -3.09375 Q 72 -3.09375 72.09375 -2 Q 72.09375 -0 70.296875 -0 L 59.09375 -0.296875 L 59 -0.296875 L 46.59375 -0 L 46.5 -0 Q 45.09375 -0 45.09375 -1.09375 Q 45.90625 -3 47.5 -3.09375 Q 54.703125 -3.09375 54.703125 -6.40625 Q 54.703125 -6.296875 53.09375 -23.09375 L 28 -23.09375 L 20.40625 -10.296875 Q 19 -7.796875 19 -6.59375 Q 19 -3.5 23.703125 -3.09375 Q 25.296875 -3.09375 25.296875 -1.90625 Q 25.296875 -0 23.40625 -0 L 13.796875 -0.296875 L 13.40625 -0.296875 L 5 -0 L 4.796875 -0 Q 3.5 -0 3.5 -1.09375 Q 3.5 -2.90625 5 -3 L 5 -3.09375 L 5.59375 -3.09375 Q 11.90625 -3.5 15.90625 -8.5 Q 16.90625 -9.796875 17.90625 -11.5 z M 29.90625 -26.203125 L 52.796875 -26.203125 L 49.59375 -59.203125 L 29.90625 -26.203125 z"/>
</g> <!-- drawing style -->
</g> <!-- transform -->
<g transform="matrix(0.13929447768717756, 0, 0, 0.13929447768717756, 225.14154169258364, 340.7243813909698)">
<g fill="#000000" fill-rule="nonzero" fill-opacity="1" stroke="none">
  <path d="M 92.59375 -60.59375 L 79.296875 -7.296875 Q 78.796875 -5.5 78.796875 -4.90625 Q 78.796875 -3.203125 83.5 -3.09375 L 83.59375 -3.09375 L 85.296875 -3.09375 Q 87.90625 -3.09375 88.09375 -2 Q 88.09375 -0 86.203125 -0 L 73.796875 -0.296875 L 73.703125 -0.296875 L 61.40625 -0 L 61.296875 -0 Q 59.796875 -0 59.796875 -1.203125 Q 59.796875 -2.90625 61.40625 -3.09375 L 62.59375 -3.09375 Q 69.09375 -3.09375 70.40625 -4.5 Q 71 -5.203125 71.59375 -7.296875 Q 71.59375 -7.40625 71.703125 -7.796875 L 86 -65.09375 L 85.90625 -65.09375 L 45.5 -1.796875 Q 44.296875 -0.09375 43.296875 -0 Q 42.203125 -0 41.796875 -2.296875 L 33.203125 -64.296875 L 33.09375 -64.296875 L 19.5 -9.796875 Q 19.09375 -8.296875 19.09375 -7.5 Q 19.09375 -3.796875 23.90625 -3.203125 Q 24.796875 -3.09375 25.90625 -3.09375 Q 27.703125 -3.09375 27.703125 -2 Q 27.703125 -0 25.90625 -0 L 15.90625 -0.296875 L 15.59375 -0.296875 L 5.703125 -0 L 5.59375 -0 Q 4.203125 -0 4.203125 -1.203125 Q 4.203125 -3.09375 6 -3.09375 Q 13.90625 -3.40625 16 -8.09375 Q 16.40625 -9.09375 16.796875 -10.59375 L 29.5 -61.5 Q 29.90625 -63.09375 29.90625 -63.40625 Q 29.90625 -64.59375 28.296875 -64.90625 L 28.203125 -64.90625 L 28.203125 -64.90625 Q 28 -65 27.703125 -65 Q 25.296875 -65.203125 23.40625 -65.203125 Q 20.796875 -65.203125 20.59375 -66 Q 20.5 -66.203125 20.5 -66.40625 Q 20.5 -68.09375 22.203125 -68.296875 L 22.203125 -68.296875 L 23.5 -68.296875 L 37.203125 -68.296875 Q 39.5 -68.296875 39.90625 -67.796875 L 39.90625 -67.703125 Q 40.09375 -67.296875 40.296875 -66 L 48.09375 -9.40625 L 84.59375 -66.40625 Q 85.703125 -68.09375 86.59375 -68.203125 Q 87 -68.296875 88.5 -68.296875 L 101.703125 -68.296875 Q 104.203125 -68.296875 104.40625 -67.203125 Q 104.40625 -65.5 103 -65.296875 Q 102.5 -65.203125 101.203125 -65.203125 Q 94.90625 -65.203125 93.703125 -63.59375 L 93.59375 -63.5 L 93.59375 -63.40625 Q 93.09375 -62.703125 92.59375 -60.59375 z"/>
</g> <!-- drawing style -->
</g> <!-- transform -->
<g transform="matrix(0.13929447768717756, 0, 0, 0.13929447768717756, 240.17374199415647, 340.7243813909698)">
<g fill="#000000" fill-rule="nonzero" fill-opacity="1" stroke="none">
  <path d="M 41.796875 -25 L 61.703125 -5 Q 63 -3.703125 63 -2.90625 Q 63 -1.203125 61 -0.90625 Q 60.09375 -0.90625 58.796875 -2.203125 L 38.796875 -22.203125 L 18.796875 -2.203125 Q 17.5 -0.90625 16.703125 -0.90625 Q 15.203125 -0.90625 14.796875 -2.40625 Q 14.703125 -2.703125 14.703125 -2.90625 Q 14.703125 -3.796875 16 -5.09375 L 35.90625 -25 L 16 -45 Q 14.703125 -46.296875 14.703125 -47.09375 Q 14.703125 -48.59375 16.296875 -49 Q 16.5 -49.09375 16.703125 -49.09375 Q 17.5 -49.09375 18.796875 -47.796875 L 38.90625 -27.796875 L 58.90625 -47.796875 Q 60.203125 -49.09375 61 -49.09375 Q 62.59375 -49.09375 62.90625 -47.59375 Q 63 -47.296875 63 -47.09375 Q 63 -46.296875 61.703125 -45 L 41.796875 -25 z"/>
</g> <!-- drawing style -->
</g> <!-- transform -->
<g transform="matrix(0.13929447768717756, 0, 0, 0.13929447768717756, 251.00780233021507, 340.7243813909698)">
<g fill="#000000" fill-rule="nonzero" fill-opacity="1" stroke="none">
  <path d="M 75.59375 -57.796875 L 61.59375 -2.09375 Q 61.09375 -0.203125 60.59375 -0.09375 L 60.5 -0 L 60 -0 Q 59 -0 58.40625 -1.203125 Q 58.296875 -1.5 58.09375 -1.90625 L 33.203125 -60.796875 L 32.296875 -62.59375 L 19.09375 -9.796875 Q 18.703125 -8.296875 18.703125 -7.5 Q 18.703125 -4.09375 23 -3.296875 Q 24 -3.09375 25.296875 -3.09375 Q 27.296875 -3.09375 27.296875 -2 Q 27.296875 -0 25.5 -0 L 15.5 -0.296875 L 15.203125 -0.296875 L 5.296875 -0 L 5.203125 -0 Q 3.90625 -0 3.90625 -1.09375 Q 3.90625 -3.09375 5.59375 -3.09375 Q 13.5 -3.40625 15.59375 -8.09375 Q 16 -9.09375 16.40625 -10.59375 L 29.796875 -64.296875 Q 29.796875 -65.203125 23 -65.203125 Q 20.40625 -65.203125 20.203125 -66.296875 Q 20.203125 -68.09375 21.703125 -68.296875 L 23.09375 -68.296875 L 36.5 -68.296875 Q 38.59375 -68.296875 39.09375 -67.59375 Q 39.296875 -67.296875 39.703125 -66.40625 L 61.796875 -14.203125 L 73 -58.703125 Q 73.296875 -59.59375 73.296875 -60.796875 Q 73.296875 -65.09375 66.5 -65.203125 Q 64.703125 -65.203125 64.703125 -66.296875 Q 64.703125 -68.296875 66.5 -68.296875 L 76.59375 -68 L 76.703125 -68 L 86.703125 -68.296875 L 86.796875 -68.296875 Q 88.09375 -68.296875 88.09375 -67.203125 Q 88.09375 -65.203125 86.40625 -65.203125 Q 78.59375 -64.90625 76.40625 -60.296875 L 76.40625 -60.296875 Q 76 -59.296875 75.59375 -57.796875 z"/>
</g> <!-- drawing style -->
</g> <!-- transform -->
<g transform="matrix(0.265322839258224, 0, 0, 0.265322839258224, 272.56253225754625, 336.7445385549953)">
<g fill="#000000" fill-rule="nonzero" fill-opacity="1" stroke="none">
  <path d="M 33.40625 -30.203125 L 30 -16.5 Q 28.296875 -9.703125 28.296875 -7.703125 Q 28.296875 -2.5 32 -1.40625 Q 32.796875 -1.09375 33.796875 -1.09375 Q 38.796875 -1.09375 42.90625 -6.09375 Q 45.59375 -9.296875 47.09375 -14.203125 Q 47.40625 -15.296875 48.40625 -15.296875 Q 49.59375 -15.296875 49.59375 -14.296875 Q 49.59375 -11.796875 46.5 -7.09375 Q 41.09375 1.09375 33.59375 1.09375 Q 26.796875 1.09375 23.703125 -4.59375 Q 23.09375 -5.5 22.796875 -6.5 Q 20.40625 -1.703125 16.203125 0.203125 Q 14.296875 1.09375 12.296875 1.09375 Q 6.296875 1.09375 3.90625 -2.40625 Q 2.90625 -3.703125 2.90625 -5.5 Q 2.90625 -9.203125 6.09375 -10.703125 Q 7.203125 -11.296875 8.40625 -11.296875 Q 11.40625 -11.296875 12 -8.796875 Q 12.09375 -8.296875 12.09375 -7.796875 Q 12.09375 -4.40625 8.703125 -2.796875 Q 8.09375 -2.5 7.40625 -2.40625 Q 9.5 -1.09375 12.40625 -1.09375 Q 17.703125 -1.09375 20.796875 -8.203125 Q 21.40625 -9.703125 21.90625 -11.5 Q 27.296875 -31.90625 27.296875 -35.296875 Q 26.703125 -41.5 21.90625 -42 Q 16.703125 -42 12.40625 -36.703125 L 12.40625 -36.59375 Q 12.40625 -36.5 12.296875 -36.5 Q 10.796875 -34.5 9.59375 -31.90625 Q 9.09375 -30.703125 8.703125 -29.5 L 8.5 -28.90625 Q 8.296875 -27.796875 7.203125 -27.796875 Q 6 -27.796875 6 -28.796875 Q 6 -31.296875 9.203125 -36 Q 14.59375 -44.203125 22.09375 -44.203125 Q 29.796875 -44.203125 32.90625 -36.59375 Q 36.09375 -42.796875 41.40625 -44 Q 42.40625 -44.203125 43.40625 -44.203125 Q 49.296875 -44.203125 51.703125 -40.90625 Q 52.703125 -39.5 52.703125 -37.59375 Q 52.703125 -33.5 49 -32.09375 Q 48.09375 -31.796875 47.296875 -31.796875 Q 44.203125 -31.796875 43.59375 -34.5 Q 43.5 -34.90625 43.5 -35.296875 Q 43.5 -38.296875 46.40625 -40 Q 47.296875 -40.5 48.296875 -40.703125 Q 46.203125 -42 43.296875 -42 Q 36.5 -42 33.703125 -31.40625 Q 33.5 -30.796875 33.40625 -30.203125 z"/>
</g> <!-- drawing style -->
</g> <!-- transform -->
<g transform="matrix(0.265322839258224, 0, 0, 0.265322839258224, 14.740157919605895, 340.40938459982107)">
<g fill="#990000" fill-rule="nonzero" fill-opacity="1" stroke="none">
  <path d="M 16.296875 -6.703125 L 30.59375 -63.703125 Q 26.40625 -63.90625 24.5 -63.90625 Q 22.703125 -63.90625 22 -63.953125 Q 21.296875 -64 20.796875 -64.390625 Q 20.296875 -64.796875 20.296875 -65.703125 Q 20.296875 -67.09375 20.890625 -67.75 Q 21.5 -68.40625 22.09375 -68.5 Q 22.703125 -68.59375 24 -68.59375 L 63.90625 -68.59375 Q 75.90625 -68.59375 83.703125 -62.390625 Q 91.5 -56.203125 91.5 -43.90625 Q 91.5 -36.09375 88.5 -28.4375 Q 85.5 -20.796875 80 -14.390625 Q 74.5 -8 65.796875 -4 Q 57.09375 -0 46.796875 -0 L 7.703125 -0 Q 4.296875 -0 4.296875 -1.796875 Q 4.296875 -3.796875 5.5 -4.5 Q 5.90625 -4.703125 8.703125 -4.703125 Q 12.296875 -4.703125 14 -4.796875 Q 15.296875 -4.90625 15.640625 -5.203125 Q 16 -5.5 16.296875 -6.703125 z M 43.59375 -62.09375 L 29.296875 -4.796875 Q 30 -4.703125 31.703125 -4.703125 L 44.09375 -4.703125 Q 63.703125 -4.703125 71.796875 -21 Q 73.90625 -25.5 76.046875 -33.953125 Q 78.203125 -42.40625 78.203125 -47.40625 Q 78.203125 -55.59375 73.203125 -59.796875 Q 68 -63.90625 58.796875 -63.90625 L 47.40625 -63.90625 Q 45.59375 -63.90625 44.703125 -63.796875 Q 44 -63.703125 43.59375 -62.09375 z"/>
</g> <!-- drawing style -->
</g> <!-- transform -->
<g transform="matrix(0.265322839258224, 0, 0, 0.265322839258224, 40.478198439659124, 340.40938459982107)">
<g fill="#990000" fill-rule="nonzero" fill-opacity="1" stroke="none">
  <path d="M 56.90625 -27.90625 Q 56.90625 -23 54.84375 -18.046875 Q 52.796875 -13.09375 49 -8.84375 Q 45.203125 -4.59375 39.046875 -1.890625 Q 32.90625 0.796875 25.40625 0.796875 Q 15.59375 0.796875 10.09375 -3.796875 Q 4.59375 -8.40625 4.59375 -16.5 Q 4.59375 -21.40625 6.640625 -26.34375 Q 8.703125 -31.296875 12.5 -35.546875 Q 16.296875 -39.796875 22.4375 -42.5 Q 28.59375 -45.203125 36.09375 -45.203125 Q 45.90625 -45.203125 51.40625 -40.59375 Q 56.90625 -36 56.90625 -27.90625 z M 18.890625 -4.890625 Q 21.703125 -2.796875 25.59375 -2.796875 Q 29.5 -2.796875 33.34375 -4.890625 Q 37.203125 -7 39.796875 -11.5 Q 41.90625 -15.203125 43.65625 -22.25 Q 45.40625 -29.296875 45.40625 -32.296875 Q 45.40625 -37.40625 42.59375 -39.5 Q 39.796875 -41.59375 35.890625 -41.59375 Q 32 -41.59375 28.140625 -39.5 Q 24.296875 -37.40625 21.703125 -32.90625 Q 19.59375 -29.203125 17.84375 -22.140625 Q 16.09375 -15.09375 16.09375 -12.09375 Q 16.09375 -7 18.890625 -4.890625 z"/>
</g> <!-- drawing style -->
</g> <!-- transform -->
<g transform="matrix(0.265322839258224, 0, 0, 0.265322839258224, 55.99213095230708, 340.40938459982107)">
<g fill="#990000" fill-rule="nonzero" fill-opacity="1" stroke="none">
  <path d="M 43.09375 -11 L 47.59375 -29 Q 48.703125 -33.09375 48.703125 -35.703125 Q 48.703125 -41.59375 43.703125 -41.59375 Q 38.40625 -41.59375 33.40625 -37.703125 Q 31.203125 -35.90625 29.25 -33.25 Q 27.296875 -30.59375 27.203125 -29.90625 Q 27.09375 -29.703125 25.6875 -24.09375 Q 24.296875 -18.5 24.09375 -18 Q 22.703125 -12 21.296875 -6.796875 Q 20.90625 -5.296875 20.546875 -4.296875 Q 20.203125 -3.296875 19.453125 -1.9375 Q 18.703125 -0.59375 17.34375 0.09375 Q 16 0.796875 14.203125 0.796875 Q 12 0.796875 10.75 -0.546875 Q 9.5 -1.90625 9.5 -3.59375 Q 9.5 -3.90625 10.296875 -7.59375 L 13.90625 -21.59375 Q 14.40625 -23.796875 16.09375 -30.59375 Q 17.5 -36.203125 17.5 -37.90625 Q 17.5 -41.59375 15.203125 -41.59375 Q 11 -41.59375 8.40625 -31.59375 Q 7.703125 -28.796875 7.59375 -28.703125 Q 7.09375 -28.203125 5.59375 -28.203125 Q 3.203125 -28.203125 3.203125 -29.59375 Q 3.203125 -30.40625 4.296875 -33.65625 Q 5.40625 -36.90625 7 -39.5 Q 10.5 -45.203125 15.703125 -45.203125 Q 20 -45.203125 23.5 -43.203125 Q 27 -41.203125 28 -37.59375 Q 35.09375 -45.203125 44.5 -45.203125 Q 50.59375 -45.203125 54.203125 -43.09375 Q 58 -41 59 -36.59375 Q 66.5 -45.203125 76.40625 -45.203125 Q 82.796875 -45.203125 87.046875 -42.546875 Q 91.296875 -39.90625 91.296875 -33.59375 Q 91.296875 -28.09375 85.09375 -12.203125 Q 83.09375 -7.203125 83.09375 -4.90625 Q 83.09375 -3.90625 83.390625 -3.40625 Q 83.703125 -2.90625 84 -2.84375 Q 84.296875 -2.796875 84.796875 -2.796875 Q 85.703125 -2.796875 86.703125 -3.1875 Q 87.703125 -3.59375 89.25 -4.640625 Q 90.796875 -5.703125 92.34375 -8.34375 Q 93.90625 -11 95.09375 -14.90625 Q 95.5 -16.203125 97.40625 -16.203125 Q 99.796875 -16.203125 99.796875 -14.796875 Q 99.796875 -13.796875 98.796875 -11.4375 Q 97.796875 -9.09375 96 -6.25 Q 94.203125 -3.40625 91.046875 -1.296875 Q 87.90625 0.796875 84.203125 0.796875 Q 79.703125 0.796875 76.296875 -1.640625 Q 72.90625 -4.09375 72.90625 -8.203125 Q 72.90625 -9.90625 74.296875 -13.296875 Q 80.59375 -29.90625 80.59375 -35.703125 Q 80.59375 -41.59375 75.59375 -41.59375 Q 67.59375 -41.59375 61.296875 -33.40625 Q 59.09375 -30.40625 58.703125 -28.59375 Q 52.90625 -4.796875 52.40625 -3.5 Q 50.5 0.796875 46.09375 0.796875 Q 43.90625 0.796875 42.65625 -0.546875 Q 41.40625 -1.90625 41.40625 -3.59375 Q 41.40625 -3.90625 43.09375 -11 z"/>
</g> <!-- drawing style -->
</g> <!-- transform -->
<g transform="matrix(0.265322839258224, 0, 0, 0.265322839258224, 83.38416618393127, 340.40938459982107)">
<g fill="#990000" fill-rule="nonzero" fill-opacity="1" stroke="none">
  <path d="M 51.5 -31.703125 L 49.203125 -22.796875 Q 48.703125 -20.59375 47 -13.796875 Q 45.59375 -8.203125 45.59375 -6.5 Q 45.59375 -2.796875 47.90625 -2.796875 Q 52.203125 -2.796875 54.703125 -12.796875 Q 55.40625 -15.59375 55.5 -15.703125 Q 56 -16.203125 57.5 -16.203125 Q 59.90625 -16.203125 59.90625 -14.796875 Q 59.90625 -14 58.796875 -10.75 Q 57.703125 -7.5 56.09375 -4.90625 Q 52.796875 0.796875 47.40625 0.796875 Q 39.703125 0.796875 35.90625 -4.59375 Q 30.09375 0.796875 22 0.796875 Q 14.796875 0.796875 9.640625 -3.203125 Q 4.5 -7.203125 4.5 -15.703125 Q 4.5 -26.796875 12.453125 -36 Q 20.40625 -45.203125 32.703125 -45.203125 Q 39.40625 -45.203125 43.296875 -41 Q 45.296875 -43.5 48.40625 -43.5 Q 50.203125 -43.5 51.640625 -42.390625 Q 53.09375 -41.296875 53.09375 -39.09375 Q 53.09375 -38.40625 51.5 -31.703125 z M 34.90625 -9.296875 L 41 -34.40625 L 41.203125 -35.796875 Q 41.203125 -37.203125 38.953125 -39.390625 Q 36.703125 -41.59375 32.90625 -41.59375 Q 25 -41.59375 20.796875 -31.796875 Q 19.40625 -28.40625 17.59375 -21.203125 Q 15.796875 -14 15.796875 -10.40625 Q 15.796875 -2.796875 22.5 -2.796875 Q 25.90625 -2.796875 29.203125 -4.640625 Q 32.5 -6.5 34.90625 -9.296875 z"/>
</g> <!-- drawing style -->
</g> <!-- transform -->
<g transform="matrix(0.265322839258224, 0, 0, 0.265322839258224, 100.17560138999669, 340.40938459982107)">
<g fill="#990000" fill-rule="nonzero" fill-opacity="1" stroke="none">
  <path d="M 33.40625 -64.59375 Q 33.40625 -62 31.203125 -59.84375 Q 29 -57.703125 26.296875 -57.703125 Q 24.203125 -57.703125 22.796875 -59.046875 Q 21.40625 -60.40625 21.40625 -62.5 Q 21.40625 -65.09375 23.546875 -67.25 Q 25.703125 -69.40625 28.5 -69.40625 Q 30.59375 -69.40625 32 -68 Q 33.40625 -66.59375 33.40625 -64.59375 z M 35.90625 -14.796875 Q 35.90625 -13.203125 34.296875 -9.75 Q 32.703125 -6.296875 28.890625 -2.75 Q 25.09375 0.796875 20.390625 0.796875 Q 15.703125 0.796875 12.34375 -1.75 Q 9 -4.296875 9 -8.203125 Q 9 -9.5 9.796875 -11.59375 L 16.5 -28.90625 Q 19.796875 -37.203125 19.796875 -39.390625 Q 19.796875 -41.59375 18.203125 -41.59375 Q 16.796875 -41.59375 15.25 -40.84375 Q 13.703125 -40.09375 11.5 -37.1875 Q 9.296875 -34.296875 7.90625 -29.5 Q 7.5 -28.203125 5.59375 -28.203125 Q 3.203125 -28.203125 3.203125 -29.59375 Q 3.203125 -31.203125 4.796875 -34.640625 Q 6.40625 -38.09375 10.203125 -41.640625 Q 14 -45.203125 18.703125 -45.203125 Q 23.40625 -45.203125 26.75 -42.640625 Q 30.09375 -40.09375 30.09375 -36.203125 Q 30.09375 -34.90625 29.296875 -32.796875 L 22.59375 -15.5 Q 19.296875 -7.203125 19.296875 -5 Q 19.296875 -2.796875 20.90625 -2.796875 Q 22.296875 -2.796875 23.84375 -3.546875 Q 25.40625 -4.296875 27.59375 -7.1875 Q 29.796875 -10.09375 31.203125 -14.90625 Q 31.59375 -16.203125 33.5 -16.203125 Q 35.90625 -16.203125 35.90625 -14.796875 z"/>
</g> <!-- drawing style -->
</g> <!-- transform -->
<g transform="matrix(0.265322839258224, 0, 0, 0.265322839258224, 110.91576731095543, 340.40938459982107)">
<g fill="#990000" fill-rule="nonzero" fill-opacity="1" stroke="none">
  <path d="M 28 -37.59375 Q 35.09375 -45.203125 44.5 -45.203125 Q 50.90625 -45.203125 55.15625 -42.546875 Q 59.40625 -39.90625 59.40625 -33.59375 Q 59.40625 -28.09375 53.203125 -12.203125 Q 51.203125 -7.203125 51.203125 -4.90625 Q 51.203125 -3.90625 51.5 -3.40625 Q 51.796875 -2.90625 52.09375 -2.84375 Q 52.40625 -2.796875 52.90625 -2.796875 Q 53.796875 -2.796875 54.796875 -3.1875 Q 55.796875 -3.59375 57.34375 -4.640625 Q 58.90625 -5.703125 60.453125 -8.34375 Q 62 -11 63.203125 -14.90625 Q 63.59375 -16.203125 65.5 -16.203125 Q 67.90625 -16.203125 67.90625 -14.796875 Q 67.90625 -13.796875 66.90625 -11.4375 Q 65.90625 -9.09375 64.09375 -6.25 Q 62.296875 -3.40625 59.140625 -1.296875 Q 56 0.796875 52.296875 0.796875 Q 47.796875 0.796875 44.390625 -1.640625 Q 41 -4.09375 41 -8.203125 Q 41 -9.90625 42.40625 -13.296875 Q 48.703125 -29.90625 48.703125 -35.703125 Q 48.703125 -41.59375 43.703125 -41.59375 Q 38.40625 -41.59375 33.40625 -37.703125 Q 31.203125 -35.90625 29.25 -33.25 Q 27.296875 -30.59375 27.203125 -29.90625 Q 27.09375 -29.703125 25.6875 -24.09375 Q 24.296875 -18.5 24.09375 -18 Q 22.703125 -12 21.296875 -6.796875 Q 20.90625 -5.296875 20.546875 -4.296875 Q 20.203125 -3.296875 19.453125 -1.9375 Q 18.703125 -0.59375 17.34375 0.09375 Q 16 0.796875 14.203125 0.796875 Q 12 0.796875 10.75 -0.546875 Q 9.5 -1.90625 9.5 -3.59375 Q 9.5 -3.90625 10.296875 -7.59375 L 13.90625 -21.59375 Q 14.40625 -23.796875 16.09375 -30.59375 Q 17.5 -36.203125 17.5 -37.90625 Q 17.5 -41.59375 15.203125 -41.59375 Q 11 -41.59375 8.40625 -31.59375 Q 7.703125 -28.796875 7.59375 -28.703125 Q 7.09375 -28.203125 5.59375 -28.203125 Q 3.203125 -28.203125 3.203125 -29.59375 Q 3.203125 -30.40625 4.296875 -33.65625 Q 5.40625 -36.90625 7 -39.5 Q 10.5 -45.203125 15.703125 -45.203125 Q 20 -45.203125 23.5 -43.203125 Q 27 -41.203125 28 -37.59375 z"/>
</g> <!-- drawing style -->
</g> <!-- transform -->
<g transform="matrix(0.265322839258224, 0, 0, 0.265322839258224, 311.8110182153899, 340.4409502885475)">
<g fill="#990000" fill-rule="nonzero" fill-opacity="1" stroke="none">
  <path d="M 85.203125 -67.296875 L 79.5 -44.796875 Q 79.09375 -43.203125 78.6875 -42.890625 Q 78.296875 -42.59375 76.703125 -42.59375 Q 74 -42.59375 74 -44.09375 Q 74 -44.59375 74.140625 -45.796875 Q 74.296875 -47 74.296875 -47.59375 Q 74.296875 -55 69.890625 -60.296875 Q 65.5 -65.59375 57 -65.59375 Q 49 -65.59375 42.046875 -62.5 Q 35.09375 -59.40625 30.90625 -54.40625 Q 26.40625 -49.203125 23.59375 -41.25 Q 20.796875 -33.296875 20.09375 -28.546875 Q 19.40625 -23.796875 19.40625 -21.203125 Q 19.40625 -12 25.203125 -7.59375 Q 31.09375 -3 40.796875 -3 Q 49.796875 -3 58.09375 -8.390625 Q 66.40625 -13.796875 69.296875 -22.90625 Q 69.703125 -24.203125 70.046875 -24.5 Q 70.40625 -24.796875 71.796875 -24.796875 Q 74.09375 -24.796875 74.09375 -23.40625 Q 74.09375 -22.59375 73.390625 -20.390625 Q 72.703125 -18.203125 69.796875 -13.953125 Q 66.90625 -9.703125 62.59375 -6.5 Q 51.5 1.703125 38.09375 1.703125 Q 24 1.703125 14.75 -5.09375 Q 5.5 -11.90625 5.5 -25.296875 Q 5.5 -31.5 7.546875 -37.84375 Q 9.59375 -44.203125 13.84375 -50 Q 18.09375 -55.796875 23.890625 -60.34375 Q 29.703125 -64.90625 37.890625 -67.59375 Q 46.09375 -70.296875 55.40625 -70.296875 Q 67.203125 -70.296875 73.703125 -63.09375 L 83 -70.296875 Q 85.5 -70.296875 85.5 -68.90625 Q 85.5 -68.796875 85.203125 -67.296875 z"/>
</g> <!-- drawing style -->
</g> <!-- transform -->
<g transform="matrix(0.265322839258224, 0, 0, 0.265322839258224, 335.33804345992377, 340.4409502885475)">
<g fill="#990000" fill-rule="nonzero" fill-opacity="1" stroke="none">
  <path d="M 56.90625 -27.90625 Q 56.90625 -23 54.84375 -18.046875 Q 52.796875 -13.09375 49 -8.84375 Q 45.203125 -4.59375 39.046875 -1.890625 Q 32.90625 0.796875 25.40625 0.796875 Q 15.59375 0.796875 10.09375 -3.796875 Q 4.59375 -8.40625 4.59375 -16.5 Q 4.59375 -21.40625 6.640625 -26.34375 Q 8.703125 -31.296875 12.5 -35.546875 Q 16.296875 -39.796875 22.4375 -42.5 Q 28.59375 -45.203125 36.09375 -45.203125 Q 45.90625 -45.203125 51.40625 -40.59375 Q 56.90625 -36 56.90625 -27.90625 z M 18.890625 -4.890625 Q 21.703125 -2.796875 25.59375 -2.796875 Q 29.5 -2.796875 33.34375 -4.890625 Q 37.203125 -7 39.796875 -11.5 Q 41.90625 -15.203125 43.65625 -22.25 Q 45.40625 -29.296875 45.40625 -32.296875 Q 45.40625 -37.40625 42.59375 -39.5 Q 39.796875 -41.59375 35.890625 -41.59375 Q 32 -41.59375 28.140625 -39.5 Q 24.296875 -37.40625 21.703125 -32.90625 Q 19.59375 -29.203125 17.84375 -22.140625 Q 16.09375 -15.09375 16.09375 -12.09375 Q 16.09375 -7 18.890625 -4.890625 z"/>
</g> <!-- drawing style -->
</g> <!-- transform -->
<g transform="matrix(0.265322839258224, 0, 0, 0.265322839258224, 350.8519759725717, 340.4409502885475)">
<g fill="#990000" fill-rule="nonzero" fill-opacity="1" stroke="none">
  <path d="M 60 -65.90625 L 46.203125 -10.796875 Q 45.59375 -8.703125 45.59375 -6.5 Q 45.59375 -2.796875 47.90625 -2.796875 Q 52.203125 -2.796875 54.703125 -12.796875 Q 55.40625 -15.59375 55.5 -15.703125 Q 56 -16.203125 57.5 -16.203125 Q 59.90625 -16.203125 59.90625 -14.796875 Q 59.90625 -14 58.796875 -10.75 Q 57.703125 -7.5 56.09375 -4.90625 Q 52.796875 0.796875 47.40625 0.796875 Q 39.703125 0.796875 35.90625 -4.59375 Q 30.09375 0.796875 22 0.796875 Q 14.796875 0.796875 9.640625 -3.203125 Q 4.5 -7.203125 4.5 -15.703125 Q 4.5 -26.796875 12.453125 -36 Q 20.40625 -45.203125 32.703125 -45.203125 Q 38.90625 -45.203125 42.796875 -41.59375 L 48.203125 -63.703125 Q 46.90625 -63.90625 44 -63.90625 Q 41.40625 -63.90625 41.40625 -65.703125 Q 41.40625 -67 42 -67.703125 Q 42.59375 -68.40625 43.09375 -68.5 Q 43.59375 -68.59375 44.59375 -68.703125 L 57.5 -69.296875 Q 57.703125 -69.40625 58.203125 -69.40625 Q 60.40625 -69.40625 60.40625 -67.59375 Q 60.40625 -67.296875 60 -65.90625 z M 34.90625 -9.296875 L 41 -34.40625 L 41.203125 -35.796875 Q 41.203125 -37.203125 38.953125 -39.390625 Q 36.703125 -41.59375 32.90625 -41.59375 Q 25 -41.59375 20.796875 -31.796875 Q 19.40625 -28.40625 17.59375 -21.203125 Q 15.796875 -14 15.796875 -10.40625 Q 15.796875 -2.796875 22.5 -2.796875 Q 25.90625 -2.796875 29.203125 -4.640625 Q 32.5 -6.5 34.90625 -9.296875 z"/>
</g> <!-- drawing style -->
</g> <!-- transform -->
<g transform="matrix(0.265322839258224, 0, 0, 0.265322839258224, 367.02924026877065, 340.4409502885475)">
<g fill="#990000" fill-rule="nonzero" fill-opacity="1" stroke="none">
  <path d="M 56.90625 -27.90625 Q 56.90625 -23 54.84375 -18.046875 Q 52.796875 -13.09375 49 -8.84375 Q 45.203125 -4.59375 39.046875 -1.890625 Q 32.90625 0.796875 25.40625 0.796875 Q 15.59375 0.796875 10.09375 -3.796875 Q 4.59375 -8.40625 4.59375 -16.5 Q 4.59375 -21.40625 6.640625 -26.34375 Q 8.703125 -31.296875 12.5 -35.546875 Q 16.296875 -39.796875 22.4375 -42.5 Q 28.59375 -45.203125 36.09375 -45.203125 Q 45.90625 -45.203125 51.40625 -40.59375 Q 56.90625 -36 56.90625 -27.90625 z M 18.890625 -4.890625 Q 21.703125 -2.796875 25.59375 -2.796875 Q 29.5 -2.796875 33.34375 -4.890625 Q 37.203125 -7 39.796875 -11.5 Q 41.90625 -15.203125 43.65625 -22.25 Q 45.40625 -29.296875 45.40625 -32.296875 Q 45.40625 -37.40625 42.59375 -39.5 Q 39.796875 -41.59375 35.890625 -41.59375 Q 32 -41.59375 28.140625 -39.5 Q 24.296875 -37.40625 21.703125 -32.90625 Q 19.59375 -29.203125 17.84375 -22.140625 Q 16.09375 -15.09375 16.09375 -12.09375 Q 16.09375 -7 18.890625 -4.890625 z"/>
</g> <!-- drawing style -->
</g> <!-- transform -->
<g transform="matrix(0.265322839258224, 0, 0, 0.265322839258224, 382.54316961852385, 340.4409502885475)">
<g fill="#990000" fill-rule="nonzero" fill-opacity="1" stroke="none">
  <path d="M 43.09375 -11 L 47.59375 -29 Q 48.703125 -33.09375 48.703125 -35.703125 Q 48.703125 -41.59375 43.703125 -41.59375 Q 38.40625 -41.59375 33.40625 -37.703125 Q 31.203125 -35.90625 29.25 -33.25 Q 27.296875 -30.59375 27.203125 -29.90625 Q 27.09375 -29.703125 25.6875 -24.09375 Q 24.296875 -18.5 24.09375 -18 Q 22.703125 -12 21.296875 -6.796875 Q 20.90625 -5.296875 20.546875 -4.296875 Q 20.203125 -3.296875 19.453125 -1.9375 Q 18.703125 -0.59375 17.34375 0.09375 Q 16 0.796875 14.203125 0.796875 Q 12 0.796875 10.75 -0.546875 Q 9.5 -1.90625 9.5 -3.59375 Q 9.5 -3.90625 10.296875 -7.59375 L 13.90625 -21.59375 Q 14.40625 -23.796875 16.09375 -30.59375 Q 17.5 -36.203125 17.5 -37.90625 Q 17.5 -41.59375 15.203125 -41.59375 Q 11 -41.59375 8.40625 -31.59375 Q 7.703125 -28.796875 7.59375 -28.703125 Q 7.09375 -28.203125 5.59375 -28.203125 Q 3.203125 -28.203125 3.203125 -29.59375 Q 3.203125 -30.40625 4.296875 -33.65625 Q 5.40625 -36.90625 7 -39.5 Q 10.5 -45.203125 15.703125 -45.203125 Q 20 -45.203125 23.5 -43.203125 Q 27 -41.203125 28 -37.59375 Q 35.09375 -45.203125 44.5 -45.203125 Q 50.59375 -45.203125 54.203125 -43.09375 Q 58 -41 59 -36.59375 Q 66.5 -45.203125 76.40625 -45.203125 Q 82.796875 -45.203125 87.046875 -42.546875 Q 91.296875 -39.90625 91.296875 -33.59375 Q 91.296875 -28.09375 85.09375 -12.203125 Q 83.09375 -7.203125 83.09375 -4.90625 Q 83.09375 -3.90625 83.390625 -3.40625 Q 83.703125 -2.90625 84 -2.84375 Q 84.296875 -2.796875 84.796875 -2.796875 Q 85.703125 -2.796875 86.703125 -3.1875 Q 87.703125 -3.59375 89.25 -4.640625 Q 90.796875 -5.703125 92.34375 -8.34375 Q 93.90625 -11 95.09375 -14.90625 Q 95.5 -16.203125 97.40625 -16.203125 Q 99.796875 -16.203125 99.796875 -14.796875 Q 99.796875 -13.796875 98.796875 -11.4375 Q 97.796875 -9.09375 96 -6.25 Q 94.203125 -3.40625 91.046875 -1.296875 Q 87.90625 0.796875 84.203125 0.796875 Q 79.703125 0.796875 76.296875 -1.640625 Q 72.90625 -4.09375 72.90625 -8.203125 Q 72.90625 -9.90625 74.296875 -13.296875 Q 80.59375 -29.90625 80.59375 -35.703125 Q 80.59375 -41.59375 75.59375 -41.59375 Q 67.59375 -41.59375 61.296875 -33.40625 Q 59.09375 -30.40625 58.703125 -28.59375 Q 52.90625 -4.796875 52.40625 -3.5 Q 50.5 0.796875 46.09375 0.796875 Q 43.90625 0.796875 42.65625 -0.546875 Q 41.40625 -1.90625 41.40625 -3.59375 Q 41.40625 -3.90625 43.09375 -11 z"/>
</g> <!-- drawing style -->
</g> <!-- transform -->
<g transform="matrix(0.265322839258224, 0, 0, 0.265322839258224, 409.935204850148, 340.4409502885475)">
<g fill="#990000" fill-rule="nonzero" fill-opacity="1" stroke="none">
  <path d="M 51.5 -31.703125 L 49.203125 -22.796875 Q 48.703125 -20.59375 47 -13.796875 Q 45.59375 -8.203125 45.59375 -6.5 Q 45.59375 -2.796875 47.90625 -2.796875 Q 52.203125 -2.796875 54.703125 -12.796875 Q 55.40625 -15.59375 55.5 -15.703125 Q 56 -16.203125 57.5 -16.203125 Q 59.90625 -16.203125 59.90625 -14.796875 Q 59.90625 -14 58.796875 -10.75 Q 57.703125 -7.5 56.09375 -4.90625 Q 52.796875 0.796875 47.40625 0.796875 Q 39.703125 0.796875 35.90625 -4.59375 Q 30.09375 0.796875 22 0.796875 Q 14.796875 0.796875 9.640625 -3.203125 Q 4.5 -7.203125 4.5 -15.703125 Q 4.5 -26.796875 12.453125 -36 Q 20.40625 -45.203125 32.703125 -45.203125 Q 39.40625 -45.203125 43.296875 -41 Q 45.296875 -43.5 48.40625 -43.5 Q 50.203125 -43.5 51.640625 -42.390625 Q 53.09375 -41.296875 53.09375 -39.09375 Q 53.09375 -38.40625 51.5 -31.703125 z M 34.90625 -9.296875 L 41 -34.40625 L 41.203125 -35.796875 Q 41.203125 -37.203125 38.953125 -39.390625 Q 36.703125 -41.59375 32.90625 -41.59375 Q 25 -41.59375 20.796875 -31.796875 Q 19.40625 -28.40625 17.59375 -21.203125 Q 15.796875 -14 15.796875 -10.40625 Q 15.796875 -2.796875 22.5 -2.796875 Q 25.90625 -2.796875 29.203125 -4.640625 Q 32.5 -6.5 34.90625 -9.296875 z"/>
</g> <!-- drawing style -->
</g> <!-- transform -->
<g transform="matrix(0.265322839258224, 0, 0, 0.265322839258224, 426.72664005621345, 340.4409502885475)">
<g fill="#990000" fill-rule="nonzero" fill-opacity="1" stroke="none">
  <path d="M 33.40625 -64.59375 Q 33.40625 -62 31.203125 -59.84375 Q 29 -57.703125 26.296875 -57.703125 Q 24.203125 -57.703125 22.796875 -59.046875 Q 21.40625 -60.40625 21.40625 -62.5 Q 21.40625 -65.09375 23.546875 -67.25 Q 25.703125 -69.40625 28.5 -69.40625 Q 30.59375 -69.40625 32 -68 Q 33.40625 -66.59375 33.40625 -64.59375 z M 35.90625 -14.796875 Q 35.90625 -13.203125 34.296875 -9.75 Q 32.703125 -6.296875 28.890625 -2.75 Q 25.09375 0.796875 20.390625 0.796875 Q 15.703125 0.796875 12.34375 -1.75 Q 9 -4.296875 9 -8.203125 Q 9 -9.5 9.796875 -11.59375 L 16.5 -28.90625 Q 19.796875 -37.203125 19.796875 -39.390625 Q 19.796875 -41.59375 18.203125 -41.59375 Q 16.796875 -41.59375 15.25 -40.84375 Q 13.703125 -40.09375 11.5 -37.1875 Q 9.296875 -34.296875 7.90625 -29.5 Q 7.5 -28.203125 5.59375 -28.203125 Q 3.203125 -28.203125 3.203125 -29.59375 Q 3.203125 -31.203125 4.796875 -34.640625 Q 6.40625 -38.09375 10.203125 -41.640625 Q 14 -45.203125 18.703125 -45.203125 Q 23.40625 -45.203125 26.75 -42.640625 Q 30.09375 -40.09375 30.09375 -36.203125 Q 30.09375 -34.90625 29.296875 -32.796875 L 22.59375 -15.5 Q 19.296875 -7.203125 19.296875 -5 Q 19.296875 -2.796875 20.90625 -2.796875 Q 22.296875 -2.796875 23.84375 -3.546875 Q 25.40625 -4.296875 27.59375 -7.1875 Q 29.796875 -10.09375 31.203125 -14.90625 Q 31.59375 -16.203125 33.5 -16.203125 Q 35.90625 -16.203125 35.90625 -14.796875 z"/>
</g> <!-- drawing style -->
</g> <!-- transform -->
<g transform="matrix(0.265322839258224, 0, 0, 0.265322839258224, 437.4668059771722, 340.4409502885475)">
<g fill="#990000" fill-rule="nonzero" fill-opacity="1" stroke="none">
  <path d="M 28 -37.59375 Q 35.09375 -45.203125 44.5 -45.203125 Q 50.90625 -45.203125 55.15625 -42.546875 Q 59.40625 -39.90625 59.40625 -33.59375 Q 59.40625 -28.09375 53.203125 -12.203125 Q 51.203125 -7.203125 51.203125 -4.90625 Q 51.203125 -3.90625 51.5 -3.40625 Q 51.796875 -2.90625 52.09375 -2.84375 Q 52.40625 -2.796875 52.90625 -2.796875 Q 53.796875 -2.796875 54.796875 -3.1875 Q 55.796875 -3.59375 57.34375 -4.640625 Q 58.90625 -5.703125 60.453125 -8.34375 Q 62 -11 63.203125 -14.90625 Q 63.59375 -16.203125 65.5 -16.203125 Q 67.90625 -16.203125 67.90625 -14.796875 Q 67.90625 -13.796875 66.90625 -11.4375 Q 65.90625 -9.09375 64.09375 -6.25 Q 62.296875 -3.40625 59.140625 -1.296875 Q 56 0.796875 52.296875 0.796875 Q 47.796875 0.796875 44.390625 -1.640625 Q 41 -4.09375 41 -8.203125 Q 41 -9.90625 42.40625 -13.296875 Q 48.703125 -29.90625 48.703125 -35.703125 Q 48.703125 -41.59375 43.703125 -41.59375 Q 38.40625 -41.59375 33.40625 -37.703125 Q 31.203125 -35.90625 29.25 -33.25 Q 27.296875 -30.59375 27.203125 -29.90625 Q 27.09375 -29.703125 25.6875 -24.09375 Q 24.296875 -18.5 24.09375 -18 Q 22.703125 -12 21.296875 -6.796875 Q 20.90625 -5.296875 20.546875 -4.296875 Q 20.203125 -3.296875 19.453125 -1.9375 Q 18.703125 -0.59375 17.34375 0.09375 Q 16 0.796875 14.203125 0.796875 Q 12 0.796875 10.75 -0.546875 Q 9.5 -1.90625 9.5 -3.59375 Q 9.5 -3.90625 10.296875 -7.59375 L 13.90625 -21.59375 Q 14.40625 -23.796875 16.09375 -30.59375 Q 17.5 -36.203125 17.5 -37.90625 Q 17.5 -41.59375 15.203125 -41.59375 Q 11 -41.59375 8.40625 -31.59375 Q 7.703125 -28.796875 7.59375 -28.703125 Q 7.09375 -28.203125 5.59375 -28.203125 Q 3.203125 -28.203125 3.203125 -29.59375 Q 3.203125 -30.40625 4.296875 -33.65625 Q 5.40625 -36.90625 7 -39.5 Q 10.5 -45.203125 15.703125 -45.203125 Q 20 -45.203125 23.5 -43.203125 Q 27 -41.203125 28 -37.59375 z"/>
</g> <!-- drawing style -->
</g> <!-- transform -->
<g transform="matrix(0.265322839258224, 0, 0, 0.265322839258224, 54.42519887789032, 187.64053921436712)">
<g fill="#000000" fill-rule="nonzero" fill-opacity="1" stroke="none">
  <path d="M 33.40625 -30.203125 L 30 -16.5 Q 28.296875 -9.703125 28.296875 -7.703125 Q 28.296875 -2.5 32 -1.40625 Q 32.796875 -1.09375 33.796875 -1.09375 Q 38.796875 -1.09375 42.90625 -6.09375 Q 45.59375 -9.296875 47.09375 -14.203125 Q 47.40625 -15.296875 48.40625 -15.296875 Q 49.59375 -15.296875 49.59375 -14.296875 Q 49.59375 -11.796875 46.5 -7.09375 Q 41.09375 1.09375 33.59375 1.09375 Q 26.796875 1.09375 23.703125 -4.59375 Q 23.09375 -5.5 22.796875 -6.5 Q 20.40625 -1.703125 16.203125 0.203125 Q 14.296875 1.09375 12.296875 1.09375 Q 6.296875 1.09375 3.90625 -2.40625 Q 2.90625 -3.703125 2.90625 -5.5 Q 2.90625 -9.203125 6.09375 -10.703125 Q 7.203125 -11.296875 8.40625 -11.296875 Q 11.40625 -11.296875 12 -8.796875 Q 12.09375 -8.296875 12.09375 -7.796875 Q 12.09375 -4.40625 8.703125 -2.796875 Q 8.09375 -2.5 7.40625 -2.40625 Q 9.5 -1.09375 12.40625 -1.09375 Q 17.703125 -1.09375 20.796875 -8.203125 Q 21.40625 -9.703125 21.90625 -11.5 Q 27.296875 -31.90625 27.296875 -35.296875 Q 26.703125 -41.5 21.90625 -42 Q 16.703125 -42 12.40625 -36.703125 L 12.40625 -36.59375 Q 12.40625 -36.5 12.296875 -36.5 Q 10.796875 -34.5 9.59375 -31.90625 Q 9.09375 -30.703125 8.703125 -29.5 L 8.5 -28.90625 Q 8.296875 -27.796875 7.203125 -27.796875 Q 6 -27.796875 6 -28.796875 Q 6 -31.296875 9.203125 -36 Q 14.59375 -44.203125 22.09375 -44.203125 Q 29.796875 -44.203125 32.90625 -36.59375 Q 36.09375 -42.796875 41.40625 -44 Q 42.40625 -44.203125 43.40625 -44.203125 Q 49.296875 -44.203125 51.703125 -40.90625 Q 52.703125 -39.5 52.703125 -37.59375 Q 52.703125 -33.5 49 -32.09375 Q 48.09375 -31.796875 47.296875 -31.796875 Q 44.203125 -31.796875 43.59375 -34.5 Q 43.5 -34.90625 43.5 -35.296875 Q 43.5 -38.296875 46.40625 -40 Q 47.296875 -40.5 48.296875 -40.703125 Q 46.203125 -42 43.296875 -42 Q 36.5 -42 33.703125 -31.40625 Q 33.5 -30.796875 33.40625 -30.203125 z"/>
</g> <!-- drawing style -->
</g> <!-- transform -->
<g transform="matrix(0.265322839258224, 0, 0, 0.265322839258224, 76.95924437397228, 187.64053921436712)">
<g fill="#000000" fill-rule="nonzero" fill-opacity="1" stroke="none">
  <path d="M 55 -23 L 55 -23 L 12.40625 -23 Q 13.40625 -11.796875 22.59375 -5.203125 Q 29.703125 -0 39.09375 -0 L 55 -0 Q 58.203125 -0 58.296875 2 Q 58.296875 4 55 4 L 38.796875 4 Q 26.203125 4 17.296875 -4.40625 Q 8.296875 -12.90625 8.296875 -25 Q 8.296875 -37.703125 17.90625 -46.203125 Q 26.796875 -54 38.703125 -54 L 55 -54 Q 58.203125 -54 58.296875 -52 Q 58.296875 -50 55 -50 L 39 -50 Q 27.296875 -50 19.5 -42.203125 Q 13.203125 -35.90625 12.40625 -27 L 55 -27 Q 58.203125 -27 58.296875 -25 Q 58.296875 -23 55 -23 z"/>
</g> <!-- drawing style -->
</g> <!-- transform -->
<g transform="matrix(0.265322839258224, 0, 0, 0.265322839258224, 102.01759936297498, 187.64053921436712)">
<g fill="#000000" fill-rule="nonzero" fill-opacity="1" stroke="none">
  <path d="M 26.796875 -31.40625 L 26.796875 -31.40625 L 26.796875 -9.203125 Q 26.796875 -5.09375 28 -4.296875 Q 29.09375 -3.5 32.90625 -3.5 Q 35.703125 -3.5 35.703125 -1.796875 Q 34.796875 -0.09375 32.40625 -0 L 5 -0 Q 2 -0 1.703125 -1.203125 Q 1.59375 -1.5 1.59375 -1.796875 Q 1.59375 -3.5 4.296875 -3.5 Q 9 -3.5 9.90625 -4.90625 Q 10.40625 -5.703125 10.5 -7.703125 L 10.5 -9.203125 L 10.5 -59.296875 Q 10.5 -63.5 9.203125 -64.296875 Q 8.09375 -65 4.296875 -65 Q 1.59375 -65 1.59375 -66.703125 Q 2.40625 -68.40625 5 -68.5 L 36.40625 -68.5 Q 49.40625 -68.5 56.90625 -62.5 L 57 -62.40625 Q 61.09375 -59 62.40625 -54.09375 Q 62.90625 -52.09375 62.90625 -49.796875 Q 62.90625 -36.90625 48.90625 -33.296875 Q 47.296875 -32.796875 45.40625 -32.5 Q 49.5 -25.90625 57.796875 -14.09375 Q 65.203125 -4.296875 68.796875 -3.5 Q 70.296875 -3.203125 70.296875 -1.796875 Q 69.40625 -0.09375 67 -0 L 53.203125 -0 Q 50.796875 -0 50.296875 -0.703125 Q 50.09375 -0.90625 49.90625 -1.203125 L 45.40625 -8.203125 L 30.40625 -31.40625 L 26.796875 -31.40625 z M 46.09375 -36.296875 L 46.09375 -36.296875 Q 58.296875 -38.5 59.296875 -47.796875 Q 59.40625 -48.796875 59.40625 -49.796875 Q 59.40625 -59.5 48.203125 -63.09375 Q 46.796875 -63.59375 45.40625 -63.90625 Q 49.203125 -59 49.203125 -49.703125 Q 49.203125 -40.40625 46.09375 -36.296875 z M 26.796875 -59.59375 L 26.796875 -34.90625 Q 38.5 -34.90625 42 -37.296875 Q 42.90625 -38 43.59375 -39 Q 45.703125 -41.90625 45.703125 -49.703125 Q 45.703125 -61.296875 39.5 -63.90625 Q 37 -65 33 -65 Q 27.09375 -65 26.796875 -60.703125 L 26.796875 -59.59375 z M 13.203125 -3.5 L 24.09375 -3.5 Q 23.296875 -5.296875 23.296875 -9 L 23.296875 -59.90625 Q 23.296875 -63.40625 24.59375 -65 L 13.203125 -65 Q 14 -63.203125 14 -59.5 L 14 -9 Q 14 -5.296875 13.203125 -3.5 z M 34.5 -31.40625 L 52.5 -3.5 L 62.203125 -3.5 Q 54.796875 -10.90625 41.59375 -32 Q 38.59375 -31.59375 36.40625 -31.59375 Q 35.90625 -31.59375 34.5 -31.40625 z"/>
</g> <!-- drawing style -->
</g> <!-- transform -->
<g transform="matrix(0.18572598500974521, 0, 0, 0.18572598500974521, 121.17985194081112, 176.53376848436108)">
<g fill="#000000" fill-rule="nonzero" fill-opacity="1" stroke="none">
  <path d="M 75.59375 -57.796875 L 61.59375 -2.09375 Q 61.09375 -0.203125 60.59375 -0.09375 L 60.5 -0 L 60 -0 Q 59 -0 58.40625 -1.203125 Q 58.296875 -1.5 58.09375 -1.90625 L 33.203125 -60.796875 L 32.296875 -62.59375 L 19.09375 -9.796875 Q 18.703125 -8.296875 18.703125 -7.5 Q 18.703125 -4.09375 23 -3.296875 Q 24 -3.09375 25.296875 -3.09375 Q 27.296875 -3.09375 27.296875 -2 Q 27.296875 -0 25.5 -0 L 15.5 -0.296875 L 15.203125 -0.296875 L 5.296875 -0 L 5.203125 -0 Q 3.90625 -0 3.90625 -1.09375 Q 3.90625 -3.09375 5.59375 -3.09375 Q 13.5 -3.40625 15.59375 -8.09375 Q 16 -9.09375 16.40625 -10.59375 L 29.796875 -64.296875 Q 29.796875 -65.203125 23 -65.203125 Q 20.40625 -65.203125 20.203125 -66.296875 Q 20.203125 -68.09375 21.703125 -68.296875 L 23.09375 -68.296875 L 36.5 -68.296875 Q 38.59375 -68.296875 39.09375 -67.59375 Q 39.296875 -67.296875 39.703125 -66.40625 L 61.796875 -14.203125 L 73 -58.703125 Q 73.296875 -59.59375 73.296875 -60.796875 Q 73.296875 -65.09375 66.5 -65.203125 Q 64.703125 -65.203125 64.703125 -66.296875 Q 64.703125 -68.296875 66.5 -68.296875 L 76.59375 -68 L 76.703125 -68 L 86.703125 -68.296875 L 86.796875 -68.296875 Q 88.09375 -68.296875 88.09375 -67.203125 Q 88.09375 -65.203125 86.40625 -65.203125 Q 78.59375 -64.90625 76.40625 -60.296875 L 76.40625 -60.296875 Q 76 -59.296875 75.59375 -57.796875 z"/>
</g> <!-- drawing style -->
</g> <!-- transform -->
<g transform="matrix(0.265322839258224, 0, 0, 0.265322839258224, 293.66928701325685, 183.67203419602774)">
<g fill="#000000" fill-rule="nonzero" fill-opacity="1" stroke="none">
  <path d="M 48.59375 -38.09375 L 39 0.09375 Q 36.59375 9.90625 28.296875 16 Q 22.203125 20.5 15.59375 20.5 Q 8.90625 20.5 6.09375 15.90625 Q 5 14 5 11.796875 Q 5 6.703125 9.09375 5.5 Q 9.90625 5.296875 10.59375 5.296875 Q 13.796875 5.296875 14.203125 8.09375 Q 14.296875 8.40625 14.296875 8.796875 Q 14.296875 11.09375 12.296875 12.90625 Q 10.90625 14.09375 8 14.09375 Q 9.796875 18.296875 15.59375 18.296875 Q 21.796875 18.296875 26.59375 12 Q 30.5 6.796875 32.796875 -2.09375 Q 32.90625 -2.5 33.09375 -3.40625 Q 28.59375 1.09375 23 1.09375 Q 15 1.09375 12.09375 -4.796875 Q 10.796875 -7.40625 10.796875 -10.796875 Q 10.796875 -16.296875 16.09375 -30.5 Q 16.296875 -31.09375 16.59375 -31.796875 Q 18.296875 -36.40625 18.296875 -38.796875 Q 18.296875 -42 15.796875 -42 Q 10.296875 -42 6.796875 -32.90625 L 6.796875 -32.796875 Q 6.203125 -31.296875 5.703125 -29.59375 Q 4.59375 -27.90625 4.09375 -27.796875 Q 2.90625 -27.796875 2.90625 -28.796875 Q 2.90625 -30.59375 5 -35.09375 Q 9.40625 -44.203125 16.09375 -44.203125 Q 21.40625 -44.203125 23.5 -39.703125 Q 24.296875 -38 24.296875 -36 Q 24.296875 -33.90625 22.296875 -28.796875 Q 17.203125 -15.59375 17.203125 -9.203125 Q 17.203125 -1.09375 23.40625 -1.09375 Q 29.203125 -1.09375 33.5 -7.296875 Q 34.5 -8.796875 34.703125 -9.59375 L 39.203125 -27.59375 Q 39.90625 -30.90625 41.203125 -35.59375 Q 42.203125 -39.90625 42.59375 -41 Q 43.90625 -43.09375 46.09375 -43.09375 Q 48.59375 -42.59375 49 -40.40625 Q 49 -39.5 48.59375 -38.09375 z"/>
</g> <!-- drawing style -->
</g> <!-- transform -->
<g transform="matrix(0.265322839258224, 0, 0, 0.265322839258224, 314.9996422915808, 183.67203419602774)">
<g fill="#000000" fill-rule="nonzero" fill-opacity="1" stroke="none">
  <path d="M 55 -23 L 55 -23 L 12.40625 -23 Q 13.40625 -11.796875 22.59375 -5.203125 Q 29.703125 -0 39.09375 -0 L 55 -0 Q 58.203125 -0 58.296875 2 Q 58.296875 4 55 4 L 38.796875 4 Q 26.203125 4 17.296875 -4.40625 Q 8.296875 -12.90625 8.296875 -25 Q 8.296875 -37.703125 17.90625 -46.203125 Q 26.796875 -54 38.703125 -54 L 55 -54 Q 58.203125 -54 58.296875 -52 Q 58.296875 -50 55 -50 L 39 -50 Q 27.296875 -50 19.5 -42.203125 Q 13.203125 -35.90625 12.40625 -27 L 55 -27 Q 58.203125 -27 58.296875 -25 Q 58.296875 -23 55 -23 z"/>
</g> <!-- drawing style -->
</g> <!-- transform -->
<g transform="matrix(0.265322839258224, 0, 0, 0.265322839258224, 340.05799728058355, 183.67203419602774)">
<g fill="#000000" fill-rule="nonzero" fill-opacity="1" stroke="none">
  <path d="M 26.796875 -31.40625 L 26.796875 -31.40625 L 26.796875 -9.203125 Q 26.796875 -5.09375 28 -4.296875 Q 29.09375 -3.5 32.90625 -3.5 Q 35.703125 -3.5 35.703125 -1.796875 Q 34.796875 -0.09375 32.40625 -0 L 5 -0 Q 2 -0 1.703125 -1.203125 Q 1.59375 -1.5 1.59375 -1.796875 Q 1.59375 -3.5 4.296875 -3.5 Q 9 -3.5 9.90625 -4.90625 Q 10.40625 -5.703125 10.5 -7.703125 L 10.5 -9.203125 L 10.5 -59.296875 Q 10.5 -63.5 9.203125 -64.296875 Q 8.09375 -65 4.296875 -65 Q 1.59375 -65 1.59375 -66.703125 Q 2.40625 -68.40625 5 -68.5 L 36.40625 -68.5 Q 49.40625 -68.5 56.90625 -62.5 L 57 -62.40625 Q 61.09375 -59 62.40625 -54.09375 Q 62.90625 -52.09375 62.90625 -49.796875 Q 62.90625 -36.90625 48.90625 -33.296875 Q 47.296875 -32.796875 45.40625 -32.5 Q 49.5 -25.90625 57.796875 -14.09375 Q 65.203125 -4.296875 68.796875 -3.5 Q 70.296875 -3.203125 70.296875 -1.796875 Q 69.40625 -0.09375 67 -0 L 53.203125 -0 Q 50.796875 -0 50.296875 -0.703125 Q 50.09375 -0.90625 49.90625 -1.203125 L 45.40625 -8.203125 L 30.40625 -31.40625 L 26.796875 -31.40625 z M 46.09375 -36.296875 L 46.09375 -36.296875 Q 58.296875 -38.5 59.296875 -47.796875 Q 59.40625 -48.796875 59.40625 -49.796875 Q 59.40625 -59.5 48.203125 -63.09375 Q 46.796875 -63.59375 45.40625 -63.90625 Q 49.203125 -59 49.203125 -49.703125 Q 49.203125 -40.40625 46.09375 -36.296875 z M 26.796875 -59.59375 L 26.796875 -34.90625 Q 38.5 -34.90625 42 -37.296875 Q 42.90625 -38 43.59375 -39 Q 45.703125 -41.90625 45.703125 -49.703125 Q 45.703125 -61.296875 39.5 -63.90625 Q 37 -65 33 -65 Q 27.09375 -65 26.796875 -60.703125 L 26.796875 -59.59375 z M 13.203125 -3.5 L 24.09375 -3.5 Q 23.296875 -5.296875 23.296875 -9 L 23.296875 -59.90625 Q 23.296875 -63.40625 24.59375 -65 L 13.203125 -65 Q 14 -63.203125 14 -59.5 L 14 -9 Q 14 -5.296875 13.203125 -3.5 z M 34.5 -31.40625 L 52.5 -3.5 L 62.203125 -3.5 Q 54.796875 -10.90625 41.59375 -32 Q 38.59375 -31.59375 36.40625 -31.59375 Q 35.90625 -31.59375 34.5 -31.40625 z"/>
</g> <!-- drawing style -->
</g> <!-- transform -->
<g transform="matrix(0.18572598500974521, 0, 0, 0.18572598500974521, 359.22024985841966, 172.5652634660217)">
<g fill="#000000" fill-rule="nonzero" fill-opacity="1" stroke="none">
  <path d="M 92.59375 -60.59375 L 79.296875 -7.296875 Q 78.796875 -5.5 78.796875 -4.90625 Q 78.796875 -3.203125 83.5 -3.09375 L 83.59375 -3.09375 L 85.296875 -3.09375 Q 87.90625 -3.09375 88.09375 -2 Q 88.09375 -0 86.203125 -0 L 73.796875 -0.296875 L 73.703125 -0.296875 L 61.40625 -0 L 61.296875 -0 Q 59.796875 -0 59.796875 -1.203125 Q 59.796875 -2.90625 61.40625 -3.09375 L 62.59375 -3.09375 Q 69.09375 -3.09375 70.40625 -4.5 Q 71 -5.203125 71.59375 -7.296875 Q 71.59375 -7.40625 71.703125 -7.796875 L 86 -65.09375 L 85.90625 -65.09375 L 45.5 -1.796875 Q 44.296875 -0.09375 43.296875 -0 Q 42.203125 -0 41.796875 -2.296875 L 33.203125 -64.296875 L 33.09375 -64.296875 L 19.5 -9.796875 Q 19.09375 -8.296875 19.09375 -7.5 Q 19.09375 -3.796875 23.90625 -3.203125 Q 24.796875 -3.09375 25.90625 -3.09375 Q 27.703125 -3.09375 27.703125 -2 Q 27.703125 -0 25.90625 -0 L 15.90625 -0.296875 L 15.59375 -0.296875 L 5.703125 -0 L 5.59375 -0 Q 4.203125 -0 4.203125 -1.203125 Q 4.203125 -3.09375 6 -3.09375 Q 13.90625 -3.40625 16 -8.09375 Q 16.40625 -9.09375 16.796875 -10.59375 L 29.5 -61.5 Q 29.90625 -63.09375 29.90625 -63.40625 Q 29.90625 -64.59375 28.296875 -64.90625 L 28.203125 -64.90625 L 28.203125 -64.90625 Q 28 -65 27.703125 -65 Q 25.296875 -65.203125 23.40625 -65.203125 Q 20.796875 -65.203125 20.59375 -66 Q 20.5 -66.203125 20.5 -66.40625 Q 20.5 -68.09375 22.203125 -68.296875 L 22.203125 -68.296875 L 23.5 -68.296875 L 37.203125 -68.296875 Q 39.5 -68.296875 39.90625 -67.796875 L 39.90625 -67.703125 Q 40.09375 -67.296875 40.296875 -66 L 48.09375 -9.40625 L 84.59375 -66.40625 Q 85.703125 -68.09375 86.59375 -68.203125 Q 87 -68.296875 88.5 -68.296875 L 101.703125 -68.296875 Q 104.203125 -68.296875 104.40625 -67.203125 Q 104.40625 -65.5 103 -65.296875 Q 102.5 -65.203125 101.203125 -65.203125 Q 94.90625 -65.203125 93.703125 -63.59375 L 93.59375 -63.5 L 93.59375 -63.40625 Q 93.09375 -62.703125 92.59375 -60.59375 z"/>
</g> <!-- drawing style -->
</g> <!-- transform -->
<g transform="matrix(0.265322839258224, 0, 0, 0.265322839258224, 12.472441519339261, 77.72598554956636)">
<g fill="#000000" fill-rule="nonzero" fill-opacity="1" stroke="none">
  <path d="M 61.203125 -36.5 Q 63.703125 -36.5 65.703125 -35.5 Q 67.59375 -36.203125 69.59375 -37.296875 Q 75.40625 -40.296875 79.5 -46 Q 83.5 -51.703125 83.5 -56.59375 Q 83.5 -60.5 81.09375 -63.203125 Q 70.09375 -54.703125 58.90625 -36.5 L 61.203125 -36.5 z M 49.40625 -34.296875 Q 49.40625 -34.703125 49.90625 -35.5 Q 50.203125 -35.796875 50.59375 -35.796875 Q 64.90625 -54.796875 79.09375 -65 Q 73.09375 -69.40625 60.796875 -69.40625 Q 49.90625 -69.40625 38.5 -63.40625 Q 27 -57.40625 20.703125 -48.5 Q 15.203125 -40.59375 15.203125 -35.40625 L 15.296875 -34.203125 Q 16 -28.796875 22.59375 -28.796875 Q 25.5 -28.796875 29.203125 -31.703125 Q 32.203125 -34 35.703125 -39 Q 36.40625 -40 39.546875 -43.75 Q 42.703125 -47.5 44.59375 -50.390625 Q 46.5 -53.296875 46.5 -55.203125 L 46.5 -55.796875 Q 46.5 -56.296875 47 -56.5 L 48.59375 -57.09375 Q 49.296875 -57.09375 49.5 -56.40625 L 49.59375 -55.296875 Q 49.59375 -52.90625 48.046875 -49.5 Q 46.5 -46.09375 45.203125 -44.09375 Q 43.90625 -42.09375 41 -38 Q 37.59375 -33.203125 32.203125 -30 Q 26.703125 -26.59375 22.203125 -26.59375 Q 18.203125 -26.59375 15.703125 -28.5 Q 13.203125 -30.40625 12.703125 -33.703125 Q 12.59375 -34.296875 12.59375 -35.40625 Q 12.59375 -41.703125 18.203125 -49.5 Q 24.703125 -58.59375 37.296875 -65.203125 Q 49.90625 -71.703125 61.203125 -71.703125 Q 74.5 -71.703125 81.90625 -67 Q 82.796875 -67.59375 84.4375 -68.59375 Q 86.09375 -69.59375 86.59375 -69.90625 Q 86.703125 -70 86.90625 -70 Q 87.59375 -70 87.796875 -69.40625 L 88 -68.296875 Q 88 -68 87.59375 -67.703125 L 84 -65.40625 L 85.40625 -64 Q 88.703125 -60.40625 88.703125 -55.703125 Q 88.703125 -50.59375 84.703125 -45 Q 80.703125 -39.5 72.40625 -35.40625 Q 71.203125 -34.90625 68 -33.703125 Q 68.59375 -32.90625 69 -31.5 Q 69.203125 -30.90625 69.203125 -29.59375 Q 69.203125 -25.296875 65.796875 -20.5 L 58.296875 -10 Q 55.59375 -6 55.59375 -3.296875 Q 55.59375 -3.09375 55.640625 -2.890625 Q 55.703125 -2.703125 55.703125 -2.59375 Q 55.796875 -1.59375 56.59375 -0.796875 Q 57.59375 -0.59375 59.6875 -0.59375 Q 61.796875 -0.59375 64.40625 -2.09375 Q 66.203125 -3.296875 67.203125 -4.203125 Q 72.40625 -8.40625 76.59375 -14.5 Q 76.90625 -14.796875 77.296875 -14.796875 L 78.40625 -14.796875 Q 78.796875 -14.796875 78.90625 -14.703125 Q 79.296875 -14.296875 79.296875 -14 Q 79.296875 -13.90625 79.09375 -13.5 Q 74.703125 -7.5 69.09375 -3.203125 Q 67.203125 -1.703125 65.296875 -0.59375 Q 61.796875 1.703125 59.296875 1.703125 Q 57.5 1.703125 55.90625 0.796875 Q 52 -0 50.203125 -2.296875 Q 48.203125 -4.5 48.203125 -6.796875 Q 48.203125 -9 49.703125 -11 L 57.796875 -22.296875 Q 62.40625 -28.59375 62.90625 -31.09375 Q 63 -31.5 63 -32.203125 Q 59.59375 -31.5 56.203125 -31.5 L 48.796875 -20.5 Q 42.59375 -11.703125 32.390625 -5.296875 Q 22.203125 1.09375 13.703125 1.09375 Q 7.796875 1.09375 3.796875 -0.84375 Q -0.203125 -2.796875 -0.203125 -6.40625 Q -0.203125 -9 2.203125 -12.40625 Q 4.203125 -15.296875 8 -15.296875 Q 11.296875 -15.296875 11.296875 -11.90625 Q 11.296875 -10.5 9.546875 -9.296875 Q 7.796875 -8.09375 5.796875 -8.09375 Q 4.203125 -8.09375 3.296875 -8.90625 Q 2.796875 -7.59375 2.796875 -6.703125 Q 2.796875 -4 5.890625 -2.546875 Q 9 -1.09375 14.09375 -1.09375 Q 20 -1.09375 27.09375 -7.046875 Q 34.203125 -13 40.296875 -21.5 L 49.40625 -34.296875 z M 60.796875 -34.203125 L 57.5 -34.203125 Q 57.40625 -34.09375 57.203125 -33.703125 Q 59.59375 -33.90625 61.09375 -34.203125 L 60.796875 -34.203125 z"/>
</g> <!-- drawing style -->
</g> <!-- transform -->
<g transform="matrix(0.265322839258224, 0, 0, 0.265322839258224, 35.024963065323305, 77.72598554956636)">
<g fill="#000000" fill-rule="nonzero" fill-opacity="1" stroke="none">
  <path d="M 37.90625 22.5 L 38 22.796875 Q 38.203125 23.203125 38.203125 23.5 Q 38.203125 24.90625 36.40625 24.90625 Q 34.5 24.90625 28.84375 19.65625 Q 23.203125 14.40625 18.796875 6.703125 Q 10.796875 -7.40625 10.796875 -25.09375 Q 10.796875 -51.796875 28.703125 -69.59375 Q 34.40625 -75 36.40625 -75 Q 38.203125 -75 38.203125 -73.59375 Q 38.203125 -73.09375 36.59375 -71.5 Q 20.5 -55.296875 20.5 -25 Q 20.5 -10.59375 24.296875 0.90625 Q 28.5 13.796875 37.90625 22.5 z"/>
</g> <!-- drawing style -->
</g> <!-- transform -->
<g transform="matrix(0.265322839258224, 0, 0, 0.265322839258224, 46.89073049462769, 77.72598554956636)">
<g fill="#000000" fill-rule="nonzero" fill-opacity="1" stroke="none">
  <path d="M 64.5 -68.203125 L 73.90625 -6.703125 Q 74.09375 -5.40625 74.34375 -5.15625 Q 74.59375 -4.90625 75.5 -4.796875 Q 76.90625 -4.703125 79.40625 -4.703125 Q 81 -4.703125 81.640625 -4.640625 Q 82.296875 -4.59375 82.84375 -4.1875 Q 83.40625 -3.796875 83.40625 -2.90625 Q 83.40625 -1.59375 82.796875 -0.890625 Q 82.203125 -0.203125 81.75 -0.09375 Q 81.296875 -0 80.59375 -0 Q 79.40625 -0 77.09375 -0.09375 Q 74.796875 -0.203125 73.59375 -0.203125 Q 72.40625 -0.203125 70.09375 -0.25 Q 67.796875 -0.296875 66.703125 -0.296875 Q 65 -0.296875 59.203125 -0.140625 Q 53.40625 -0 51.796875 -0 Q 49.59375 -0 49.59375 -1.796875 Q 49.59375 -3.203125 50.1875 -3.84375 Q 50.796875 -4.5 51.390625 -4.59375 Q 52 -4.703125 53.296875 -4.703125 Q 57.40625 -4.703125 59.796875 -5.203125 L 57.5 -19.796875 L 30.5 -19.796875 L 21.296875 -5.796875 Q 23.5 -4.703125 27.09375 -4.703125 Q 29.703125 -4.703125 29.703125 -2.90625 Q 29.703125 -0 27 -0 Q 25.203125 -0 21.5 -0.140625 Q 17.796875 -0.296875 15.90625 -0.296875 Q 14.296875 -0.296875 11.09375 -0.140625 Q 7.90625 -0 6.40625 -0 Q 5.59375 -0 5.046875 -0.546875 Q 4.5 -1.09375 4.5 -1.796875 Q 4.5 -3.09375 5.09375 -3.796875 Q 5.703125 -4.5 6.203125 -4.59375 Q 6.703125 -4.703125 7.703125 -4.703125 Q 11.09375 -4.703125 13.1875 -5.34375 Q 15.296875 -6 15.9375 -6.640625 Q 16.59375 -7.296875 17.40625 -8.5 L 56.703125 -68.59375 Q 57.703125 -70.203125 58.546875 -70.640625 Q 59.40625 -71.09375 61.09375 -71.09375 Q 63 -71.09375 63.59375 -70.59375 Q 64.203125 -70.09375 64.5 -68.203125 z M 52.40625 -53.296875 L 33.59375 -24.5 L 56.796875 -24.5 L 52.40625 -53.296875 z"/>
</g> <!-- drawing style -->
</g> <!-- transform -->
<g transform="matrix(0.265322839258224, 0, 0, 0.265322839258224, 69.95895887284378, 77.72598554956636)">
<g fill="#000000" fill-rule="nonzero" fill-opacity="1" stroke="none">
  <path d="M 33.796875 -25 Q 33.796875 1.703125 15.90625 19.5 Q 10.203125 24.90625 8.203125 24.90625 Q 6.40625 24.90625 6.40625 23.5 Q 6.40625 23 8 21.40625 Q 24.09375 5.203125 24.09375 -25.09375 Q 24.09375 -55 8.09375 -71.296875 Q 6.40625 -72.90625 6.40625 -73.59375 Q 6.40625 -75 8.203125 -75 Q 10.09375 -75 15.75 -69.75 Q 21.40625 -64.5 25.796875 -56.796875 Q 33.796875 -42.703125 33.796875 -25 z"/>
</g> <!-- drawing style -->
</g> <!-- transform -->
<g transform="matrix(0.265322839258224, 0, 0, 0.265322839258224, 237.54329951729378, 78.29291333176025)">
<g fill="#000000" fill-rule="nonzero" fill-opacity="1" stroke="none">
  <path d="M 34.5 -8.796875 Q 34.796875 -8.5 34.796875 -8.09375 Q 34.796875 -8 34.59375 -7.59375 L 34.296875 -7.296875 L 33.59375 -7.09375 Q 33.5 -7 33.203125 -7 Q 33 -7 32.90625 -7.09375 Q 30.40625 -8.59375 30.40625 -11.6875 Q 30.40625 -14.796875 33.09375 -18.796875 Q 35.90625 -22.90625 40.5 -26.09375 Q 44.90625 -29.09375 48.296875 -29.09375 Q 56.09375 -29.09375 57.59375 -23.296875 Q 57.90625 -22.203125 57.90625 -21.09375 Q 57.90625 -16.203125 53.59375 -10 Q 50.203125 -5.09375 43.703125 -1.59375 Q 37.296875 1.90625 31.703125 1.90625 Q 25.40625 1.90625 21.65625 -1.09375 Q 17.90625 -4.09375 17.40625 -9.40625 Q 17.296875 -10.09375 17.296875 -11.59375 Q 17.296875 -21.90625 26.59375 -35 L 24.5 -35 Q 10.796875 -35 5.203125 -41.203125 Q 2.59375 -44.09375 2.59375 -48 Q 2.59375 -52.09375 5.703125 -56.5 Q 8.90625 -61.09375 16 -64.40625 Q 23 -67.59375 29.796875 -67.59375 Q 30.59375 -67.59375 30.59375 -66.796875 Q 30.59375 -66.703125 30.09375 -65.703125 Q 29.796875 -65.40625 29.40625 -65.40625 Q 24.09375 -65.40625 18.796875 -62.59375 Q 14 -59.90625 10.90625 -55.5 Q 7.703125 -50.796875 7.703125 -46.90625 Q 7.703125 -44.203125 9 -42.59375 Q 13 -37.203125 24.90625 -37.203125 Q 27.09375 -37.203125 28.203125 -37.296875 Q 38.203125 -50.90625 51.09375 -60.796875 Q 64.90625 -71.40625 74 -71.40625 Q 80.203125 -71.40625 81.09375 -66.40625 Q 81.203125 -66 81.203125 -65.09375 Q 81.203125 -60.796875 77.40625 -55.59375 Q 71.40625 -47 55.90625 -41 Q 46.40625 -37.296875 36.40625 -35.796875 Q 24.203125 -18.796875 23.5 -9.703125 L 23.5 -8.59375 Q 23.5 -4.796875 25.640625 -2.546875 Q 27.796875 -0.296875 32.09375 -0.296875 Q 36.203125 -0.296875 40.796875 -3.296875 Q 44.796875 -5.90625 48.40625 -11 Q 53.40625 -18 53.40625 -22.296875 L 53.40625 -22.703125 Q 53.203125 -26.90625 47.90625 -26.90625 Q 45.40625 -26.90625 41.90625 -24.40625 Q 38.40625 -21.90625 35.59375 -17.90625 Q 33.203125 -14.5 33.203125 -11.796875 Q 33.203125 -9.90625 34.5 -8.796875 z M 34.59375 -7.59375 L 34.703125 -8.5 L 34.703125 -8.40625 Q 34.796875 -8.296875 34.796875 -8.09375 Q 34.796875 -7.796875 34.59375 -7.59375 z M 73.59375 -69.203125 Q 67.40625 -69.203125 56.203125 -59.203125 Q 47.796875 -51.703125 38.09375 -38.296875 Q 46.09375 -39.5 54.796875 -42.796875 Q 69.296875 -48.40625 75 -56.5 Q 78.59375 -61.703125 78.59375 -64.90625 L 78.5 -65.796875 Q 78 -69.203125 73.59375 -69.203125 z"/>
</g> <!-- drawing style -->
</g> <!-- transform -->
<g transform="matrix(0.265322839258224, 0, 0, 0.265322839258224, 255.21878911966652, 78.29291333176025)">
<g fill="#000000" fill-rule="nonzero" fill-opacity="1" stroke="none">
  <path d="M 37.90625 22.5 L 38 22.796875 Q 38.203125 23.203125 38.203125 23.5 Q 38.203125 24.90625 36.40625 24.90625 Q 34.5 24.90625 28.84375 19.65625 Q 23.203125 14.40625 18.796875 6.703125 Q 10.796875 -7.40625 10.796875 -25.09375 Q 10.796875 -51.796875 28.703125 -69.59375 Q 34.40625 -75 36.40625 -75 Q 38.203125 -75 38.203125 -73.59375 Q 38.203125 -73.09375 36.59375 -71.5 Q 20.5 -55.296875 20.5 -25 Q 20.5 -10.59375 24.296875 0.90625 Q 28.5 13.796875 37.90625 22.5 z"/>
</g> <!-- drawing style -->
</g> <!-- transform -->
<g transform="matrix(0.265322839258224, 0, 0, 0.265322839258224, 267.0845565489709, 78.29291333176025)">
<g fill="#000000" fill-rule="nonzero" fill-opacity="1" stroke="none">
  <path d="M 64.5 -68.203125 L 73.90625 -6.703125 Q 74.09375 -5.40625 74.34375 -5.15625 Q 74.59375 -4.90625 75.5 -4.796875 Q 76.90625 -4.703125 79.40625 -4.703125 Q 81 -4.703125 81.640625 -4.640625 Q 82.296875 -4.59375 82.84375 -4.1875 Q 83.40625 -3.796875 83.40625 -2.90625 Q 83.40625 -1.59375 82.796875 -0.890625 Q 82.203125 -0.203125 81.75 -0.09375 Q 81.296875 -0 80.59375 -0 Q 79.40625 -0 77.09375 -0.09375 Q 74.796875 -0.203125 73.59375 -0.203125 Q 72.40625 -0.203125 70.09375 -0.25 Q 67.796875 -0.296875 66.703125 -0.296875 Q 65 -0.296875 59.203125 -0.140625 Q 53.40625 -0 51.796875 -0 Q 49.59375 -0 49.59375 -1.796875 Q 49.59375 -3.203125 50.1875 -3.84375 Q 50.796875 -4.5 51.390625 -4.59375 Q 52 -4.703125 53.296875 -4.703125 Q 57.40625 -4.703125 59.796875 -5.203125 L 57.5 -19.796875 L 30.5 -19.796875 L 21.296875 -5.796875 Q 23.5 -4.703125 27.09375 -4.703125 Q 29.703125 -4.703125 29.703125 -2.90625 Q 29.703125 -0 27 -0 Q 25.203125 -0 21.5 -0.140625 Q 17.796875 -0.296875 15.90625 -0.296875 Q 14.296875 -0.296875 11.09375 -0.140625 Q 7.90625 -0 6.40625 -0 Q 5.59375 -0 5.046875 -0.546875 Q 4.5 -1.09375 4.5 -1.796875 Q 4.5 -3.09375 5.09375 -3.796875 Q 5.703125 -4.5 6.203125 -4.59375 Q 6.703125 -4.703125 7.703125 -4.703125 Q 11.09375 -4.703125 13.1875 -5.34375 Q 15.296875 -6 15.9375 -6.640625 Q 16.59375 -7.296875 17.40625 -8.5 L 56.703125 -68.59375 Q 57.703125 -70.203125 58.546875 -70.640625 Q 59.40625 -71.09375 61.09375 -71.09375 Q 63 -71.09375 63.59375 -70.59375 Q 64.203125 -70.09375 64.5 -68.203125 z M 52.40625 -53.296875 L 33.59375 -24.5 L 56.796875 -24.5 L 52.40625 -53.296875 z"/>
</g> <!-- drawing style -->
</g> <!-- transform -->
<g transform="matrix(0.265322839258224, 0, 0, 0.265322839258224, 290.152784927187, 78.29291333176025)">
<g fill="#000000" fill-rule="nonzero" fill-opacity="1" stroke="none">
  <path d="M 33.796875 -25 Q 33.796875 1.703125 15.90625 19.5 Q 10.203125 24.90625 8.203125 24.90625 Q 6.40625 24.90625 6.40625 23.5 Q 6.40625 23 8 21.40625 Q 24.09375 5.203125 24.09375 -25.09375 Q 24.09375 -55 8.09375 -71.296875 Q 6.40625 -72.90625 6.40625 -73.59375 Q 6.40625 -75 8.203125 -75 Q 10.09375 -75 15.75 -69.75 Q 21.40625 -64.5 25.796875 -56.796875 Q 33.796875 -42.703125 33.796875 -25 z"/>
</g> <!-- drawing style -->
</g> <!-- transform -->
<g transform="matrix(0.265322839258224, 0, 0, 0.265322839258224, 145.70078794224065, 245.53700971227946)">
<g fill="#000000" fill-rule="nonzero" fill-opacity="1" stroke="none">
  <path d="M 78.90625 -70 L 80 -70 Q 80.796875 -70 80.796875 -69.203125 Q 80.796875 -68.90625 80.703125 -68.796875 Q 76.40625 -62.40625 76.40625 -49.5 Q 76.40625 -45.703125 76.796875 -40.640625 Q 77.203125 -35.59375 77.203125 -35 L 77.203125 -33.40625 Q 77.203125 -28 75.5 -21.703125 Q 82.796875 -33.703125 91.40625 -46 Q 97.90625 -55.203125 104.59375 -61.84375 Q 111.296875 -68.5 119.5 -71.90625 L 119.90625 -71.90625 Q 120.59375 -71.90625 120.59375 -71.203125 L 120.296875 -68.796875 Q 120.296875 -68.40625 119.796875 -68.09375 Q 106.203125 -62.5 93.796875 -45 Q 77.703125 -22.09375 66.5 0.40625 Q 66.203125 0.796875 65.703125 0.796875 L 64.59375 0.796875 Q 64.40625 0.796875 64.296875 0.703125 Q 63.796875 0.5 63.796875 -0 Q 63.796875 -0.296875 63.90625 -0.40625 Q 69 -10.09375 69 -21.40625 Q 69 -24.09375 68.703125 -28.9375 Q 68.40625 -33.796875 68.296875 -35 L 68.703125 -46.09375 L 69.09375 -48.296875 Q 69.5 -50.5 70.203125 -53.5 L 46.59375 -20.5 Q 39.703125 -11.09375 31.59375 -4.4375 Q 23.5 2.203125 16.5 2.203125 Q 10.796875 2.203125 7.046875 0.140625 Q 3.296875 -1.90625 3.296875 -5.703125 Q 3.296875 -8.59375 5.90625 -12.40625 Q 7.90625 -15.296875 11.59375 -15.296875 Q 14.90625 -15.296875 14.90625 -11.90625 Q 14.90625 -10.5 13.046875 -9.25 Q 11.203125 -8 9.203125 -8 Q 7.203125 -8 6.296875 -9.5 Q 5.40625 -7.59375 5.40625 -6.09375 Q 5.40625 -3.09375 8.546875 -1.546875 Q 11.703125 -0 16.90625 -0 Q 23.09375 -0 30.4375 -6.25 Q 37.796875 -12.5 44.203125 -21.5 L 78.203125 -69.703125 Q 78.5 -70 78.90625 -70 z"/>
</g> <!-- drawing style -->
</g> <!-- transform -->
<g transform="matrix(0.265322839258224, 0, 0, 0.265322839258224, 178.46387398014923, 245.53700971227946)">
<g fill="#000000" fill-rule="nonzero" fill-opacity="1" stroke="none">
  <path d="M 37.90625 22.5 L 38 22.796875 Q 38.203125 23.203125 38.203125 23.5 Q 38.203125 24.90625 36.40625 24.90625 Q 34.5 24.90625 28.84375 19.65625 Q 23.203125 14.40625 18.796875 6.703125 Q 10.796875 -7.40625 10.796875 -25.09375 Q 10.796875 -51.796875 28.703125 -69.59375 Q 34.40625 -75 36.40625 -75 Q 38.203125 -75 38.203125 -73.59375 Q 38.203125 -73.09375 36.59375 -71.5 Q 20.5 -55.296875 20.5 -25 Q 20.5 -10.59375 24.296875 0.90625 Q 28.5 13.796875 37.90625 22.5 z"/>
</g> <!-- drawing style -->
</g> <!-- transform -->
<g transform="matrix(0.265322839258224, 0, 0, 0.265322839258224, 190.32964140945361, 245.53700971227946)">
<g fill="#000000" fill-rule="nonzero" fill-opacity="1" stroke="none">
  <path d="M 64.5 -68.203125 L 73.90625 -6.703125 Q 74.09375 -5.40625 74.34375 -5.15625 Q 74.59375 -4.90625 75.5 -4.796875 Q 76.90625 -4.703125 79.40625 -4.703125 Q 81 -4.703125 81.640625 -4.640625 Q 82.296875 -4.59375 82.84375 -4.1875 Q 83.40625 -3.796875 83.40625 -2.90625 Q 83.40625 -1.59375 82.796875 -0.890625 Q 82.203125 -0.203125 81.75 -0.09375 Q 81.296875 -0 80.59375 -0 Q 79.40625 -0 77.09375 -0.09375 Q 74.796875 -0.203125 73.59375 -0.203125 Q 72.40625 -0.203125 70.09375 -0.25 Q 67.796875 -0.296875 66.703125 -0.296875 Q 65 -0.296875 59.203125 -0.140625 Q 53.40625 -0 51.796875 -0 Q 49.59375 -0 49.59375 -1.796875 Q 49.59375 -3.203125 50.1875 -3.84375 Q 50.796875 -4.5 51.390625 -4.59375 Q 52 -4.703125 53.296875 -4.703125 Q 57.40625 -4.703125 59.796875 -5.203125 L 57.5 -19.796875 L 30.5 -19.796875 L 21.296875 -5.796875 Q 23.5 -4.703125 27.09375 -4.703125 Q 29.703125 -4.703125 29.703125 -2.90625 Q 29.703125 -0 27 -0 Q 25.203125 -0 21.5 -0.140625 Q 17.796875 -0.296875 15.90625 -0.296875 Q 14.296875 -0.296875 11.09375 -0.140625 Q 7.90625 -0 6.40625 -0 Q 5.59375 -0 5.046875 -0.546875 Q 4.5 -1.09375 4.5 -1.796875 Q 4.5 -3.09375 5.09375 -3.796875 Q 5.703125 -4.5 6.203125 -4.59375 Q 6.703125 -4.703125 7.703125 -4.703125 Q 11.09375 -4.703125 13.1875 -5.34375 Q 15.296875 -6 15.9375 -6.640625 Q 16.59375 -7.296875 17.40625 -8.5 L 56.703125 -68.59375 Q 57.703125 -70.203125 58.546875 -70.640625 Q 59.40625 -71.09375 61.09375 -71.09375 Q 63 -71.09375 63.59375 -70.59375 Q 64.203125 -70.09375 64.5 -68.203125 z M 52.40625 -53.296875 L 33.59375 -24.5 L 56.796875 -24.5 L 52.40625 -53.296875 z"/>
</g> <!-- drawing style -->
</g> <!-- transform -->
<g transform="matrix(0.265322839258224, 0, 0, 0.265322839258224, 213.39786978766972, 245.53700971227946)">
<g fill="#000000" fill-rule="nonzero" fill-opacity="1" stroke="none">
  <path d="M 33.796875 -25 Q 33.796875 1.703125 15.90625 19.5 Q 10.203125 24.90625 8.203125 24.90625 Q 6.40625 24.90625 6.40625 23.5 Q 6.40625 23 8 21.40625 Q 24.09375 5.203125 24.09375 -25.09375 Q 24.09375 -55 8.09375 -71.296875 Q 6.40625 -72.90625 6.40625 -73.59375 Q 6.40625 -75 8.203125 -75 Q 10.09375 -75 15.75 -69.75 Q 21.40625 -64.5 25.796875 -56.796875 Q 33.796875 -42.703125 33.796875 -25 z"/>
</g> <!-- drawing style -->
</g> <!-- transform -->
<g transform="matrix(0.265322839258224, 0, 0, 0.265322839258224, 374.74013909767956, 247.25102450153037)">
<g fill="#000000" fill-rule="nonzero" fill-opacity="1" stroke="none">
  <path d="M 78.90625 -70 L 80 -70 Q 80.796875 -70 80.796875 -69.203125 Q 80.796875 -68.90625 80.703125 -68.796875 Q 76.40625 -62.40625 76.40625 -49.5 Q 76.40625 -45.703125 76.796875 -40.640625 Q 77.203125 -35.59375 77.203125 -35 L 77.203125 -33.40625 Q 77.203125 -28 75.5 -21.703125 Q 82.796875 -33.703125 91.40625 -46 Q 97.90625 -55.203125 104.59375 -61.84375 Q 111.296875 -68.5 119.5 -71.90625 L 119.90625 -71.90625 Q 120.59375 -71.90625 120.59375 -71.203125 L 120.296875 -68.796875 Q 120.296875 -68.40625 119.796875 -68.09375 Q 106.203125 -62.5 93.796875 -45 Q 77.703125 -22.09375 66.5 0.40625 Q 66.203125 0.796875 65.703125 0.796875 L 64.59375 0.796875 Q 64.40625 0.796875 64.296875 0.703125 Q 63.796875 0.5 63.796875 -0 Q 63.796875 -0.296875 63.90625 -0.40625 Q 69 -10.09375 69 -21.40625 Q 69 -24.09375 68.703125 -28.9375 Q 68.40625 -33.796875 68.296875 -35 L 68.703125 -46.09375 L 69.09375 -48.296875 Q 69.5 -50.5 70.203125 -53.5 L 46.59375 -20.5 Q 39.703125 -11.09375 31.59375 -4.4375 Q 23.5 2.203125 16.5 2.203125 Q 10.796875 2.203125 7.046875 0.140625 Q 3.296875 -1.90625 3.296875 -5.703125 Q 3.296875 -8.59375 5.90625 -12.40625 Q 7.90625 -15.296875 11.59375 -15.296875 Q 14.90625 -15.296875 14.90625 -11.90625 Q 14.90625 -10.5 13.046875 -9.25 Q 11.203125 -8 9.203125 -8 Q 7.203125 -8 6.296875 -9.5 Q 5.40625 -7.59375 5.40625 -6.09375 Q 5.40625 -3.09375 8.546875 -1.546875 Q 11.703125 -0 16.90625 -0 Q 23.09375 -0 30.4375 -6.25 Q 37.796875 -12.5 44.203125 -21.5 L 78.203125 -69.703125 Q 78.5 -70 78.90625 -70 z"/>
</g> <!-- drawing style -->
</g> <!-- transform -->
<g transform="matrix(0.265322839258224, 0, 0, 0.265322839258224, 407.50322513558814, 247.25102450153037)">
<g fill="#000000" fill-rule="nonzero" fill-opacity="1" stroke="none">
  <path d="M 37.90625 22.5 L 38 22.796875 Q 38.203125 23.203125 38.203125 23.5 Q 38.203125 24.90625 36.40625 24.90625 Q 34.5 24.90625 28.84375 19.65625 Q 23.203125 14.40625 18.796875 6.703125 Q 10.796875 -7.40625 10.796875 -25.09375 Q 10.796875 -51.796875 28.703125 -69.59375 Q 34.40625 -75 36.40625 -75 Q 38.203125 -75 38.203125 -73.59375 Q 38.203125 -73.09375 36.59375 -71.5 Q 20.5 -55.296875 20.5 -25 Q 20.5 -10.59375 24.296875 0.90625 Q 28.5 13.796875 37.90625 22.5 z"/>
</g> <!-- drawing style -->
</g> <!-- transform -->
<g transform="matrix(0.265322839258224, 0, 0, 0.265322839258224, 419.36899256489255, 247.25102450153037)">
<g fill="#000000" fill-rule="nonzero" fill-opacity="1" stroke="none">
  <path d="M 64.5 -68.203125 L 73.90625 -6.703125 Q 74.09375 -5.40625 74.34375 -5.15625 Q 74.59375 -4.90625 75.5 -4.796875 Q 76.90625 -4.703125 79.40625 -4.703125 Q 81 -4.703125 81.640625 -4.640625 Q 82.296875 -4.59375 82.84375 -4.1875 Q 83.40625 -3.796875 83.40625 -2.90625 Q 83.40625 -1.59375 82.796875 -0.890625 Q 82.203125 -0.203125 81.75 -0.09375 Q 81.296875 -0 80.59375 -0 Q 79.40625 -0 77.09375 -0.09375 Q 74.796875 -0.203125 73.59375 -0.203125 Q 72.40625 -0.203125 70.09375 -0.25 Q 67.796875 -0.296875 66.703125 -0.296875 Q 65 -0.296875 59.203125 -0.140625 Q 53.40625 -0 51.796875 -0 Q 49.59375 -0 49.59375 -1.796875 Q 49.59375 -3.203125 50.1875 -3.84375 Q 50.796875 -4.5 51.390625 -4.59375 Q 52 -4.703125 53.296875 -4.703125 Q 57.40625 -4.703125 59.796875 -5.203125 L 57.5 -19.796875 L 30.5 -19.796875 L 21.296875 -5.796875 Q 23.5 -4.703125 27.09375 -4.703125 Q 29.703125 -4.703125 29.703125 -2.90625 Q 29.703125 -0 27 -0 Q 25.203125 -0 21.5 -0.140625 Q 17.796875 -0.296875 15.90625 -0.296875 Q 14.296875 -0.296875 11.09375 -0.140625 Q 7.90625 -0 6.40625 -0 Q 5.59375 -0 5.046875 -0.546875 Q 4.5 -1.09375 4.5 -1.796875 Q 4.5 -3.09375 5.09375 -3.796875 Q 5.703125 -4.5 6.203125 -4.59375 Q 6.703125 -4.703125 7.703125 -4.703125 Q 11.09375 -4.703125 13.1875 -5.34375 Q 15.296875 -6 15.9375 -6.640625 Q 16.59375 -7.296875 17.40625 -8.5 L 56.703125 -68.59375 Q 57.703125 -70.203125 58.546875 -70.640625 Q 59.40625 -71.09375 61.09375 -71.09375 Q 63 -71.09375 63.59375 -70.59375 Q 64.203125 -70.09375 64.5 -68.203125 z M 52.40625 -53.296875 L 33.59375 -24.5 L 56.796875 -24.5 L 52.40625 -53.296875 z"/>
</g> <!-- drawing style -->
</g> <!-- transform -->
<g transform="matrix(0.18572598500974521, 0, 0, 0.18572598500974521, 442.4372209431086, 236.29605611613403)">
<g fill="#000000" fill-rule="nonzero" fill-opacity="1" stroke="none">
  <path d="M 25.203125 -39.703125 L 17.90625 -10.796875 Q 17.296875 -8.203125 17.296875 -6.5 Q 17.296875 -5.203125 17.5 -4.390625 Q 17.703125 -3.59375 18.140625 -3.25 Q 18.59375 -2.90625 18.890625 -2.84375 Q 19.203125 -2.796875 19.703125 -2.796875 Q 23 -2.796875 26.703125 -5.6875 Q 30.40625 -8.59375 33 -14.59375 Q 33.5 -15.703125 33.84375 -15.953125 Q 34.203125 -16.203125 35.5 -16.203125 Q 37.90625 -16.203125 37.90625 -14.796875 Q 37.90625 -14 36.59375 -11.59375 Q 35.296875 -9.203125 33.046875 -6.34375 Q 30.796875 -3.5 27.046875 -1.34375 Q 23.296875 0.796875 19.203125 0.796875 Q 14.09375 0.796875 10.34375 -1.796875 Q 6.59375 -4.40625 6.59375 -9 Q 6.59375 -10.59375 8.296875 -16.90625 L 14 -39.703125 L 5.90625 -39.703125 Q 4.703125 -39.703125 4.140625 -39.75 Q 3.59375 -39.796875 3.046875 -40.25 Q 2.5 -40.703125 2.5 -41.5 Q 2.5 -42.90625 3.09375 -43.546875 Q 3.703125 -44.203125 4.296875 -44.296875 Q 4.90625 -44.40625 6.203125 -44.40625 L 15.203125 -44.40625 L 17.203125 -52.59375 Q 19 -59.796875 19.5 -60.796875 Q 21.5 -64.296875 25.296875 -64.296875 Q 27.09375 -64.296875 28.546875 -63.1875 Q 30 -62.09375 30 -59.90625 Q 30 -58.90625 29.59375 -57.296875 L 26.40625 -44.40625 L 34.40625 -44.40625 Q 37.703125 -44.40625 37.703125 -42.59375 Q 37.703125 -40.796875 36.796875 -40.203125 Q 36.296875 -39.703125 34.09375 -39.703125 L 25.203125 -39.703125 z"/>
</g> <!-- drawing style -->
</g> <!-- transform -->
<g transform="matrix(0.265322839258224, 0, 0, 0.265322839258224, 450.49013452037116, 247.25102450153037)">
<g fill="#000000" fill-rule="nonzero" fill-opacity="1" stroke="none">
  <path d="M 33.796875 -25 Q 33.796875 1.703125 15.90625 19.5 Q 10.203125 24.90625 8.203125 24.90625 Q 6.40625 24.90625 6.40625 23.5 Q 6.40625 23 8 21.40625 Q 24.09375 5.203125 24.09375 -25.09375 Q 24.09375 -55 8.09375 -71.296875 Q 6.40625 -72.90625 6.40625 -73.59375 Q 6.40625 -75 8.203125 -75 Q 10.09375 -75 15.75 -69.75 Q 21.40625 -64.5 25.796875 -56.796875 Q 33.796875 -42.703125 33.796875 -25 z"/>
</g> <!-- drawing style -->
</g> <!-- transform -->
<g transform="matrix(0.265322839258224, 0, 0, 0.265322839258224, 43.65354202300548, 108.34015958891148)">
<g fill="#990000" fill-rule="nonzero" fill-opacity="1" stroke="none">
  <path d="M 33.09375 24 L 33.09375 24 Q 33.09375 25 32.09375 25 Q 30.90625 25 26.796875 20.90625 Q 20.59375 14.703125 16.5 6.203125 Q 9.90625 -7.40625 9.90625 -25 Q 9.90625 -41.90625 16.203125 -55.5 Q 21.40625 -66.59375 29.40625 -73.296875 Q 31.5 -75 32.09375 -75 Q 33.09375 -75 33.09375 -74 Q 33.09375 -73.5 31.796875 -72.296875 Q 15.703125 -55.90625 15.703125 -25 Q 15.703125 5.796875 31.40625 21.796875 Q 33.09375 23.5 33.09375 24 z"/>
</g> <!-- drawing style -->
</g> <!-- transform -->
<g transform="matrix(0.265322839258224, 0, 0, 0.265322839258224, 53.971682101723985, 108.34015958891148)">
<g fill="#990000" fill-rule="nonzero" fill-opacity="1" stroke="none">
  <path d="M 8.796875 -5.90625 L 8.796875 -5.90625 L 14.59375 -29 Q 16.203125 -35.40625 16.203125 -37.40625 Q 16.203125 -42 13.09375 -42 Q 9 -42 6.40625 -32.5 Q 6.09375 -31.40625 5.796875 -30.09375 Q 4.703125 -27.90625 4.09375 -27.796875 Q 2.90625 -27.796875 2.90625 -28.796875 Q 2.90625 -30.40625 4.703125 -35.5 Q 5.40625 -37.296875 6 -38.5 Q 8.40625 -43.40625 12 -44.09375 Q 12.703125 -44.203125 13.40625 -44.203125 Q 19 -44.203125 21.5 -39.40625 Q 22.09375 -38.296875 22.40625 -37 Q 22.5 -36.796875 22.5 -36.5 Q 28.296875 -43.703125 35.296875 -44.203125 Q 40.90625 -44.203125 42.90625 -40.296875 Q 43.59375 -39.09375 43.59375 -37.703125 Q 43.59375 -33.796875 40.296875 -32.296875 Q 39.203125 -31.796875 38.09375 -31.796875 Q 35 -31.796875 34.40625 -34.5 Q 34.296875 -34.90625 34.296875 -35.296875 Q 34.296875 -38.59375 37.703125 -40.203125 L 37.796875 -40.296875 Q 38.59375 -40.59375 39.5 -40.796875 L 37.5 -41.703125 Q 36.203125 -41.90625 35.296875 -42 Q 31.09375 -42 27.296875 -38.703125 Q 24.203125 -35.90625 22 -31.296875 Q 21.796875 -30.796875 21.703125 -30.5 L 18.5 -17.5 L 14.5 -1.703125 Q 13.59375 0.90625 10.796875 1.09375 Q 8.296875 0.59375 7.90625 -1.59375 Q 7.90625 -1.40625 8.796875 -5.90625 z"/>
</g> <!-- drawing style -->
</g> <!-- transform -->
<g transform="matrix(0.265322839258224, 0, 0, 0.265322839258224, 66.67901438948208, 108.34015958891148)">
<g fill="#990000" fill-rule="nonzero" fill-opacity="1" stroke="none">
  <path d="M 28.90625 -25 L 28.90625 -25 Q 28.90625 -8.09375 22.59375 5.5 Q 17.40625 16.59375 9.40625 23.296875 Q 7.296875 25 6.703125 25 Q 5.703125 25 5.703125 24 Q 5.703125 23.5 7 22.296875 Q 23.09375 5.90625 23.09375 -25 Q 23.09375 -55.5 8.09375 -71.203125 L 7.59375 -71.703125 Q 5.703125 -73.5 5.703125 -74 Q 5.703125 -75 6.703125 -75 Q 7.90625 -75 12 -70.90625 Q 18.203125 -64.703125 22.296875 -56.203125 Q 28.90625 -42.59375 28.90625 -25 z"/>
</g> <!-- drawing style -->
</g> <!-- transform -->
<g transform="matrix(0.265322839258224, 0, 0, 0.265322839258224, 269.29133966400883, 108.90708737110535)">
<g fill="#990000" fill-rule="nonzero" fill-opacity="1" stroke="none">
  <path d="M 33.09375 24 L 33.09375 24 Q 33.09375 25 32.09375 25 Q 30.90625 25 26.796875 20.90625 Q 20.59375 14.703125 16.5 6.203125 Q 9.90625 -7.40625 9.90625 -25 Q 9.90625 -41.90625 16.203125 -55.5 Q 21.40625 -66.59375 29.40625 -73.296875 Q 31.5 -75 32.09375 -75 Q 33.09375 -75 33.09375 -74 Q 33.09375 -73.5 31.796875 -72.296875 Q 15.703125 -55.90625 15.703125 -25 Q 15.703125 5.796875 31.40625 21.796875 Q 33.09375 23.5 33.09375 24 z"/>
</g> <!-- drawing style -->
</g> <!-- transform -->
<g transform="matrix(0.265322839258224, 0, 0, 0.265322839258224, 279.60947974272733, 108.90708737110535)">
<g fill="#990000" fill-rule="nonzero" fill-opacity="1" stroke="none">
  <path d="M 8.796875 -5.90625 L 8.796875 -5.90625 L 14.59375 -29 Q 16.203125 -35.40625 16.203125 -37.40625 Q 16.203125 -42 13.09375 -42 Q 9 -42 6.40625 -32.5 Q 6.09375 -31.40625 5.796875 -30.09375 Q 4.703125 -27.90625 4.09375 -27.796875 Q 2.90625 -27.796875 2.90625 -28.796875 Q 2.90625 -30.40625 4.703125 -35.5 Q 5.40625 -37.296875 6 -38.5 Q 8.40625 -43.40625 12 -44.09375 Q 12.703125 -44.203125 13.40625 -44.203125 Q 19 -44.203125 21.5 -39.40625 Q 22.09375 -38.296875 22.40625 -37 Q 22.5 -36.796875 22.5 -36.5 Q 28.296875 -43.703125 35.296875 -44.203125 Q 40.90625 -44.203125 42.90625 -40.296875 Q 43.59375 -39.09375 43.59375 -37.703125 Q 43.59375 -33.796875 40.296875 -32.296875 Q 39.203125 -31.796875 38.09375 -31.796875 Q 35 -31.796875 34.40625 -34.5 Q 34.296875 -34.90625 34.296875 -35.296875 Q 34.296875 -38.59375 37.703125 -40.203125 L 37.796875 -40.296875 Q 38.59375 -40.59375 39.5 -40.796875 L 37.5 -41.703125 Q 36.203125 -41.90625 35.296875 -42 Q 31.09375 -42 27.296875 -38.703125 Q 24.203125 -35.90625 22 -31.296875 Q 21.796875 -30.796875 21.703125 -30.5 L 18.5 -17.5 L 14.5 -1.703125 Q 13.59375 0.90625 10.796875 1.09375 Q 8.296875 0.59375 7.90625 -1.59375 Q 7.90625 -1.40625 8.796875 -5.90625 z"/>
</g> <!-- drawing style -->
</g> <!-- transform -->
<g transform="matrix(0.265322839258224, 0, 0, 0.265322839258224, 292.31681203048544, 108.90708737110535)">
<g fill="#990000" fill-rule="nonzero" fill-opacity="1" stroke="none">
  <path d="M 28.90625 -25 L 28.90625 -25 Q 28.90625 -8.09375 22.59375 5.5 Q 17.40625 16.59375 9.40625 23.296875 Q 7.296875 25 6.703125 25 Q 5.703125 25 5.703125 24 Q 5.703125 23.5 7 22.296875 Q 23.09375 5.90625 23.09375 -25 Q 23.09375 -55.5 8.09375 -71.203125 L 7.59375 -71.703125 Q 5.703125 -73.5 5.703125 -74 Q 5.703125 -75 6.703125 -75 Q 7.90625 -75 12 -70.90625 Q 18.203125 -64.703125 22.296875 -56.203125 Q 28.90625 -42.59375 28.90625 -25 z"/>
</g> <!-- drawing style -->
</g> <!-- transform -->
<g transform="matrix(0.265322839258224, 0, 0, 0.265322839258224, 372.472427968904, 278.4188843374179)">
<g fill="#990000" fill-rule="nonzero" fill-opacity="1" stroke="none">
  <path d="M 33.09375 24 L 33.09375 24 Q 33.09375 25 32.09375 25 Q 30.90625 25 26.796875 20.90625 Q 20.59375 14.703125 16.5 6.203125 Q 9.90625 -7.40625 9.90625 -25 Q 9.90625 -41.90625 16.203125 -55.5 Q 21.40625 -66.59375 29.40625 -73.296875 Q 31.5 -75 32.09375 -75 Q 33.09375 -75 33.09375 -74 Q 33.09375 -73.5 31.796875 -72.296875 Q 15.703125 -55.90625 15.703125 -25 Q 15.703125 5.796875 31.40625 21.796875 Q 33.09375 23.5 33.09375 24 z"/>
</g> <!-- drawing style -->
</g> <!-- transform -->
<g transform="matrix(0.265322839258224, 0, 0, 0.265322839258224, 382.7905680476225, 278.4188843374179)">
<g fill="#990000" fill-rule="nonzero" fill-opacity="1" stroke="none">
  <path d="M 92.59375 -60.59375 L 79.296875 -7.296875 Q 78.796875 -5.5 78.796875 -4.90625 Q 78.796875 -3.203125 83.5 -3.09375 L 83.59375 -3.09375 L 85.296875 -3.09375 Q 87.90625 -3.09375 88.09375 -2 Q 88.09375 -0 86.203125 -0 L 73.796875 -0.296875 L 73.703125 -0.296875 L 61.40625 -0 L 61.296875 -0 Q 59.796875 -0 59.796875 -1.203125 Q 59.796875 -2.90625 61.40625 -3.09375 L 62.59375 -3.09375 Q 69.09375 -3.09375 70.40625 -4.5 Q 71 -5.203125 71.59375 -7.296875 Q 71.59375 -7.40625 71.703125 -7.796875 L 86 -65.09375 L 85.90625 -65.09375 L 45.5 -1.796875 Q 44.296875 -0.09375 43.296875 -0 Q 42.203125 -0 41.796875 -2.296875 L 33.203125 -64.296875 L 33.09375 -64.296875 L 19.5 -9.796875 Q 19.09375 -8.296875 19.09375 -7.5 Q 19.09375 -3.796875 23.90625 -3.203125 Q 24.796875 -3.09375 25.90625 -3.09375 Q 27.703125 -3.09375 27.703125 -2 Q 27.703125 -0 25.90625 -0 L 15.90625 -0.296875 L 15.59375 -0.296875 L 5.703125 -0 L 5.59375 -0 Q 4.203125 -0 4.203125 -1.203125 Q 4.203125 -3.09375 6 -3.09375 Q 13.90625 -3.40625 16 -8.09375 Q 16.40625 -9.09375 16.796875 -10.59375 L 29.5 -61.5 Q 29.90625 -63.09375 29.90625 -63.40625 Q 29.90625 -64.59375 28.296875 -64.90625 L 28.203125 -64.90625 L 28.203125 -64.90625 Q 28 -65 27.703125 -65 Q 25.296875 -65.203125 23.40625 -65.203125 Q 20.796875 -65.203125 20.59375 -66 Q 20.5 -66.203125 20.5 -66.40625 Q 20.5 -68.09375 22.203125 -68.296875 L 22.203125 -68.296875 L 23.5 -68.296875 L 37.203125 -68.296875 Q 39.5 -68.296875 39.90625 -67.796875 L 39.90625 -67.703125 Q 40.09375 -67.296875 40.296875 -66 L 48.09375 -9.40625 L 84.59375 -66.40625 Q 85.703125 -68.09375 86.59375 -68.203125 Q 87 -68.296875 88.5 -68.296875 L 101.703125 -68.296875 Q 104.203125 -68.296875 104.40625 -67.203125 Q 104.40625 -65.5 103 -65.296875 Q 102.5 -65.203125 101.203125 -65.203125 Q 94.90625 -65.203125 93.703125 -63.59375 L 93.59375 -63.5 L 93.59375 -63.40625 Q 93.09375 -62.703125 92.59375 -60.59375 z"/>
</g> <!-- drawing style -->
</g> <!-- transform -->
<g transform="matrix(0.265322839258224, 0, 0, 0.265322839258224, 417.31941680093706, 278.4188843374179)">
<g fill="#990000" fill-rule="nonzero" fill-opacity="1" stroke="none">
  <path d="M 66.09375 -23 L 11.59375 -23 Q 8.40625 -23 8.296875 -25 Q 8.296875 -27 11.59375 -27 L 66.09375 -27 Q 69.296875 -27 69.40625 -25 Q 69.40625 -23 66.09375 -23 z"/>
</g> <!-- drawing style -->
</g> <!-- transform -->
<g transform="matrix(0.265322839258224, 0, 0, 0.265322839258224, 443.85180253243544, 278.4188843374179)">
<g fill="#990000" fill-rule="nonzero" fill-opacity="1" stroke="none">
  <path d="M 8.796875 -5.90625 L 8.796875 -5.90625 L 14.59375 -29 Q 16.203125 -35.40625 16.203125 -37.40625 Q 16.203125 -42 13.09375 -42 Q 9 -42 6.40625 -32.5 Q 6.09375 -31.40625 5.796875 -30.09375 Q 4.703125 -27.90625 4.09375 -27.796875 Q 2.90625 -27.796875 2.90625 -28.796875 Q 2.90625 -30.40625 4.703125 -35.5 Q 5.40625 -37.296875 6 -38.5 Q 8.40625 -43.40625 12 -44.09375 Q 12.703125 -44.203125 13.40625 -44.203125 Q 19 -44.203125 21.5 -39.40625 Q 22.09375 -38.296875 22.40625 -37 Q 22.5 -36.796875 22.5 -36.5 Q 28.296875 -43.703125 35.296875 -44.203125 Q 40.90625 -44.203125 42.90625 -40.296875 Q 43.59375 -39.09375 43.59375 -37.703125 Q 43.59375 -33.796875 40.296875 -32.296875 Q 39.203125 -31.796875 38.09375 -31.796875 Q 35 -31.796875 34.40625 -34.5 Q 34.296875 -34.90625 34.296875 -35.296875 Q 34.296875 -38.59375 37.703125 -40.203125 L 37.796875 -40.296875 Q 38.59375 -40.59375 39.5 -40.796875 L 37.5 -41.703125 Q 36.203125 -41.90625 35.296875 -42 Q 31.09375 -42 27.296875 -38.703125 Q 24.203125 -35.90625 22 -31.296875 Q 21.796875 -30.796875 21.703125 -30.5 L 18.5 -17.5 L 14.5 -1.703125 Q 13.59375 0.90625 10.796875 1.09375 Q 8.296875 0.59375 7.90625 -1.59375 Q 7.90625 -1.40625 8.796875 -5.90625 z"/>
</g> <!-- drawing style -->
</g> <!-- transform -->
<g transform="matrix(0.265322839258224, 0, 0, 0.265322839258224, 456.55913719236463, 278.4188843374179)">
<g fill="#990000" fill-rule="nonzero" fill-opacity="1" stroke="none">
  <path d="M 28.90625 -25 L 28.90625 -25 Q 28.90625 -8.09375 22.59375 5.5 Q 17.40625 16.59375 9.40625 23.296875 Q 7.296875 25 6.703125 25 Q 5.703125 25 5.703125 24 Q 5.703125 23.5 7 22.296875 Q 23.09375 5.90625 23.09375 -25 Q 23.09375 -55.5 8.09375 -71.203125 L 7.59375 -71.703125 Q 5.703125 -73.5 5.703125 -74 Q 5.703125 -75 6.703125 -75 Q 7.90625 -75 12 -70.90625 Q 18.203125 -64.703125 22.296875 -56.203125 Q 28.90625 -42.59375 28.90625 -25 z"/>
</g> <!-- drawing style -->
</g> <!-- transform -->
<g transform="matrix(0.265322839258224, 0, 0, 0.265322839258224, 144.000004595659, 278.985822662594)">
<g fill="#990000" fill-rule="nonzero" fill-opacity="1" stroke="none">
  <path d="M 33.09375 24 L 33.09375 24 Q 33.09375 25 32.09375 25 Q 30.90625 25 26.796875 20.90625 Q 20.59375 14.703125 16.5 6.203125 Q 9.90625 -7.40625 9.90625 -25 Q 9.90625 -41.90625 16.203125 -55.5 Q 21.40625 -66.59375 29.40625 -73.296875 Q 31.5 -75 32.09375 -75 Q 33.09375 -75 33.09375 -74 Q 33.09375 -73.5 31.796875 -72.296875 Q 15.703125 -55.90625 15.703125 -25 Q 15.703125 5.796875 31.40625 21.796875 Q 33.09375 23.5 33.09375 24 z"/>
</g> <!-- drawing style -->
</g> <!-- transform -->
<g transform="matrix(0.265322839258224, 0, 0, 0.265322839258224, 154.3181446743775, 278.985822662594)">
<g fill="#990000" fill-rule="nonzero" fill-opacity="1" stroke="none">
  <path d="M 75.59375 -57.796875 L 61.59375 -2.09375 Q 61.09375 -0.203125 60.59375 -0.09375 L 60.5 -0 L 60 -0 Q 59 -0 58.40625 -1.203125 Q 58.296875 -1.5 58.09375 -1.90625 L 33.203125 -60.796875 L 32.296875 -62.59375 L 19.09375 -9.796875 Q 18.703125 -8.296875 18.703125 -7.5 Q 18.703125 -4.09375 23 -3.296875 Q 24 -3.09375 25.296875 -3.09375 Q 27.296875 -3.09375 27.296875 -2 Q 27.296875 -0 25.5 -0 L 15.5 -0.296875 L 15.203125 -0.296875 L 5.296875 -0 L 5.203125 -0 Q 3.90625 -0 3.90625 -1.09375 Q 3.90625 -3.09375 5.59375 -3.09375 Q 13.5 -3.40625 15.59375 -8.09375 Q 16 -9.09375 16.40625 -10.59375 L 29.796875 -64.296875 Q 29.796875 -65.203125 23 -65.203125 Q 20.40625 -65.203125 20.203125 -66.296875 Q 20.203125 -68.09375 21.703125 -68.296875 L 23.09375 -68.296875 L 36.5 -68.296875 Q 38.59375 -68.296875 39.09375 -67.59375 Q 39.296875 -67.296875 39.703125 -66.40625 L 61.796875 -14.203125 L 73 -58.703125 Q 73.296875 -59.59375 73.296875 -60.796875 Q 73.296875 -65.09375 66.5 -65.203125 Q 64.703125 -65.203125 64.703125 -66.296875 Q 64.703125 -68.296875 66.5 -68.296875 L 76.59375 -68 L 76.703125 -68 L 86.703125 -68.296875 L 86.796875 -68.296875 Q 88.09375 -68.296875 88.09375 -67.203125 Q 88.09375 -65.203125 86.40625 -65.203125 Q 78.59375 -64.90625 76.40625 -60.296875 L 76.40625 -60.296875 Q 76 -59.296875 75.59375 -57.796875 z"/>
</g> <!-- drawing style -->
</g> <!-- transform -->
<g transform="matrix(0.265322839258224, 0, 0, 0.265322839258224, 184.42492492191593, 278.985822662594)">
<g fill="#990000" fill-rule="nonzero" fill-opacity="1" stroke="none">
  <path d="M 66.09375 -23 L 11.59375 -23 Q 8.40625 -23 8.296875 -25 Q 8.296875 -27 11.59375 -27 L 66.09375 -27 Q 69.296875 -27 69.40625 -25 Q 69.40625 -23 66.09375 -23 z"/>
</g> <!-- drawing style -->
</g> <!-- transform -->
<g transform="matrix(0.265322839258224, 0, 0, 0.265322839258224, 210.9573106534143, 278.985822662594)">
<g fill="#990000" fill-rule="nonzero" fill-opacity="1" stroke="none">
  <path d="M 8.796875 -5.90625 L 8.796875 -5.90625 L 14.59375 -29 Q 16.203125 -35.40625 16.203125 -37.40625 Q 16.203125 -42 13.09375 -42 Q 9 -42 6.40625 -32.5 Q 6.09375 -31.40625 5.796875 -30.09375 Q 4.703125 -27.90625 4.09375 -27.796875 Q 2.90625 -27.796875 2.90625 -28.796875 Q 2.90625 -30.40625 4.703125 -35.5 Q 5.40625 -37.296875 6 -38.5 Q 8.40625 -43.40625 12 -44.09375 Q 12.703125 -44.203125 13.40625 -44.203125 Q 19 -44.203125 21.5 -39.40625 Q 22.09375 -38.296875 22.40625 -37 Q 22.5 -36.796875 22.5 -36.5 Q 28.296875 -43.703125 35.296875 -44.203125 Q 40.90625 -44.203125 42.90625 -40.296875 Q 43.59375 -39.09375 43.59375 -37.703125 Q 43.59375 -33.796875 40.296875 -32.296875 Q 39.203125 -31.796875 38.09375 -31.796875 Q 35 -31.796875 34.40625 -34.5 Q 34.296875 -34.90625 34.296875 -35.296875 Q 34.296875 -38.59375 37.703125 -40.203125 L 37.796875 -40.296875 Q 38.59375 -40.59375 39.5 -40.796875 L 37.5 -41.703125 Q 36.203125 -41.90625 35.296875 -42 Q 31.09375 -42 27.296875 -38.703125 Q 24.203125 -35.90625 22 -31.296875 Q 21.796875 -30.796875 21.703125 -30.5 L 18.5 -17.5 L 14.5 -1.703125 Q 13.59375 0.90625 10.796875 1.09375 Q 8.296875 0.59375 7.90625 -1.59375 Q 7.90625 -1.40625 8.796875 -5.90625 z"/>
</g> <!-- drawing style -->
</g> <!-- transform -->
<g transform="matrix(0.265322839258224, 0, 0, 0.265322839258224, 223.6646453133435, 278.985822662594)">
<g fill="#990000" fill-rule="nonzero" fill-opacity="1" stroke="none">
  <path d="M 28.90625 -25 L 28.90625 -25 Q 28.90625 -8.09375 22.59375 5.5 Q 17.40625 16.59375 9.40625 23.296875 Q 7.296875 25 6.703125 25 Q 5.703125 25 5.703125 24 Q 5.703125 23.5 7 22.296875 Q 23.09375 5.90625 23.09375 -25 Q 23.09375 -55.5 8.09375 -71.203125 L 7.59375 -71.703125 Q 5.703125 -73.5 5.703125 -74 Q 5.703125 -75 6.703125 -75 Q 7.90625 -75 12 -70.90625 Q 18.203125 -64.703125 22.296875 -56.203125 Q 28.90625 -42.59375 28.90625 -25 z"/>
</g> <!-- drawing style -->
</g> <!-- transform -->
</g><!-- layer0 -->
</g> <!-- default stroke -->
</svg> <!-- bounding box -->
