<?xml version="1.0" encoding="UTF-8" standalone="no"?>
<svg
   xmlns:dc="http://purl.org/dc/elements/1.1/"
   xmlns:cc="http://creativecommons.org/ns#"
   xmlns:rdf="http://www.w3.org/1999/02/22-rdf-syntax-ns#"
   xmlns:svg="http://www.w3.org/2000/svg"
   xmlns="http://www.w3.org/2000/svg"
   xmlns:xlink="http://www.w3.org/1999/xlink"
   id="svg1213"
   version="1.1"
   viewBox="0 0 219.95331 260.58154"
   height="260.58154pt"
   width="219.95331pt">
  <metadata
     id="metadata1217">
    <rdf:RDF>
      <cc:Work
         rdf:about="">
        <dc:format>image/svg+xml</dc:format>
        <dc:type
           rdf:resource="http://purl.org/dc/dcmitype/StillImage" />
      </cc:Work>
    </rdf:RDF>
  </metadata>
  <defs
     id="defs58">
    <g
       id="g56">
      <symbol
         style="overflow:visible"
         id="glyph0-0"
         overflow="visible">
        <path
           id="path2"
           d=""
           style="stroke:none" />
      </symbol>
      <symbol
         style="overflow:visible"
         id="glyph0-1"
         overflow="visible">
        <path
           id="path5"
           d="m 2.9375,-6.375 c 0,-0.25 0,-0.265625 -0.234375,-0.265625 C 2.078125,-6 1.203125,-6 0.890625,-6 v 0.3125 c 0.203125,0 0.78125,0 1.296875,-0.265625 v 5.171875 c 0,0.359375 -0.03125,0.46875 -0.921875,0.46875 h -0.3125 V 0 c 0.34375,-0.03125 1.203125,-0.03125 1.609375,-0.03125 0.390625,0 1.265625,0 1.609375,0.03125 v -0.3125 h -0.3125 c -0.90625,0 -0.921875,-0.109375 -0.921875,-0.46875 z m 0,0"
           style="stroke:none" />
      </symbol>
      <symbol
         style="overflow:visible"
         id="glyph0-2"
         overflow="visible">
        <path
           id="path8"
           d="m 1.265625,-0.765625 1.0625,-1.03125 c 1.546875,-1.375 2.140625,-1.90625 2.140625,-2.90625 0,-1.140625 -0.890625,-1.9375 -2.109375,-1.9375 -1.125,0 -1.859375,0.921875 -1.859375,1.8125 0,0.546875 0.5,0.546875 0.53125,0.546875 0.171875,0 0.515625,-0.109375 0.515625,-0.53125 0,-0.25 -0.1875,-0.515625 -0.53125,-0.515625 -0.078125,0 -0.09375,0 -0.125,0.015625 0.21875,-0.65625 0.765625,-1.015625 1.34375,-1.015625 0.90625,0 1.328125,0.8125 1.328125,1.625 C 3.5625,-3.90625 3.078125,-3.125 2.515625,-2.5 l -1.90625,2.125 C 0.5,-0.265625 0.5,-0.234375 0.5,0 H 4.203125 L 4.46875,-1.734375 H 4.234375 C 4.171875,-1.4375 4.109375,-1 4,-0.84375 3.9375,-0.765625 3.28125,-0.765625 3.0625,-0.765625 Z m 0,0"
           style="stroke:none" />
      </symbol>
      <symbol
         style="overflow:visible"
         id="glyph0-3"
         overflow="visible">
        <path
           id="path11"
           d="m 4.578125,-3.1875 c 0,-0.796875 -0.046875,-1.59375 -0.390625,-2.328125 -0.453125,-0.96875 -1.28125,-1.125 -1.6875,-1.125 -0.609375,0 -1.328125,0.265625 -1.75,1.1875 -0.3125,0.6875 -0.359375,1.46875 -0.359375,2.265625 0,0.75 0.03125,1.640625 0.453125,2.40625 0.421875,0.796875 1.15625,1 1.640625,1 0.53125,0 1.296875,-0.203125 1.734375,-1.15625 0.3125,-0.6875 0.359375,-1.46875 0.359375,-2.25 z M 2.484375,0 C 2.09375,0 1.5,-0.25 1.328125,-1.203125 1.21875,-1.796875 1.21875,-2.71875 1.21875,-3.3125 c 0,-0.640625 0,-1.296875 0.078125,-1.828125 0.1875,-1.1875 0.9375,-1.28125 1.1875,-1.28125 0.328125,0 0.984375,0.1875 1.171875,1.171875 0.109375,0.5625 0.109375,1.3125 0.109375,1.9375 0,0.75 0,1.421875 -0.109375,2.0625 C 3.5,-0.296875 2.9375,0 2.484375,0 Z m 0,0"
           style="stroke:none" />
      </symbol>
      <symbol
         style="overflow:visible"
         id="glyph0-4"
         overflow="visible">
        <path
           id="path14"
           d="m 2.890625,-3.515625 c 0.8125,-0.265625 1.390625,-0.953125 1.390625,-1.75 0,-0.8125 -0.875,-1.375 -1.828125,-1.375 -1,0 -1.765625,0.59375 -1.765625,1.359375 0,0.328125 0.21875,0.515625 0.515625,0.515625 0.296875,0 0.5,-0.21875 0.5,-0.515625 0,-0.484375 -0.46875,-0.484375 -0.609375,-0.484375 0.296875,-0.5 0.953125,-0.625 1.3125,-0.625 0.421875,0 0.96875,0.21875 0.96875,1.109375 0,0.125 -0.03125,0.703125 -0.28125,1.140625 C 2.796875,-3.65625 2.453125,-3.625 2.203125,-3.625 2.125,-3.609375 1.890625,-3.59375 1.8125,-3.59375 c -0.078125,0.015625 -0.140625,0.03125 -0.140625,0.125 0,0.109375 0.0625,0.109375 0.234375,0.109375 h 0.4375 c 0.8125,0 1.1875,0.671875 1.1875,1.65625 0,1.359375 -0.6875,1.640625 -1.125,1.640625 -0.4375,0 -1.1875,-0.171875 -1.53125,-0.75 0.34375,0.046875 0.65625,-0.171875 0.65625,-0.546875 0,-0.359375 -0.265625,-0.5625 -0.546875,-0.5625 -0.25,0 -0.5625,0.140625 -0.5625,0.578125 0,0.90625 0.921875,1.5625 2.015625,1.5625 1.21875,0 2.125,-0.90625 2.125,-1.921875 0,-0.8125 -0.640625,-1.59375 -1.671875,-1.8125 z m 0,0"
           style="stroke:none" />
      </symbol>
      <symbol
         style="overflow:visible"
         id="glyph0-5"
         overflow="visible">
        <path
           id="path17"
           d="m 4.46875,-2 c 0,-1.1875 -0.8125,-2.1875 -1.890625,-2.1875 -0.46875,0 -0.90625,0.15625 -1.265625,0.515625 V -5.625 c 0.203125,0.0625 0.53125,0.125 0.84375,0.125 1.234375,0 1.9375,-0.90625 1.9375,-1.03125 0,-0.0625 -0.03125,-0.109375 -0.109375,-0.109375 0,0 -0.03125,0 -0.078125,0.03125 C 3.703125,-6.515625 3.21875,-6.3125 2.546875,-6.3125 2.15625,-6.3125 1.6875,-6.390625 1.21875,-6.59375 1.140625,-6.625 1.125,-6.625 1.109375,-6.625 1,-6.625 1,-6.546875 1,-6.390625 V -3.4375 c 0,0.171875 0,0.25 0.140625,0.25 0.078125,0 0.09375,-0.015625 0.140625,-0.078125 C 1.390625,-3.421875 1.75,-3.96875 2.5625,-3.96875 c 0.515625,0 0.765625,0.453125 0.84375,0.640625 0.15625,0.375 0.1875,0.75 0.1875,1.25 0,0.359375 0,0.953125 -0.25,1.375 C 3.109375,-0.3125 2.734375,-0.0625 2.28125,-0.0625 c -0.71875,0 -1.296875,-0.53125 -1.46875,-1.109375 0.03125,0 0.0625,0.015625 0.171875,0.015625 0.328125,0 0.5,-0.25 0.5,-0.484375 0,-0.25 -0.171875,-0.5 -0.5,-0.5 C 0.84375,-2.140625 0.5,-2.0625 0.5,-1.609375 0.5,-0.75 1.1875,0.21875 2.296875,0.21875 3.453125,0.21875 4.46875,-0.734375 4.46875,-2 Z m 0,0"
           style="stroke:none" />
      </symbol>
      <symbol
         style="overflow:visible"
         id="glyph0-6"
         overflow="visible">
        <path
           id="path20"
           d="m 3.65625,-3.171875 v 0.328125 c 0,2.328125 -1.03125,2.78125 -1.609375,2.78125 -0.171875,0 -0.71875,-0.015625 -0.984375,-0.359375 0.4375,0 0.515625,-0.28125 0.515625,-0.453125 0,-0.3125 -0.234375,-0.453125 -0.453125,-0.453125 -0.15625,0 -0.453125,0.078125 -0.453125,0.46875 0,0.671875 0.53125,1.078125 1.375,1.078125 1.296875,0 2.515625,-1.359375 2.515625,-3.5 0,-2.6875 -1.15625,-3.359375 -2.046875,-3.359375 -0.546875,0 -1.03125,0.1875 -1.453125,0.625 -0.421875,0.453125 -0.640625,0.875 -0.640625,1.625 0,1.234375 0.875,2.21875 1.984375,2.21875 0.609375,0 1.015625,-0.421875 1.25,-1 z M 2.421875,-2.40625 c -0.15625,0 -0.625,0 -0.921875,-0.625 -0.1875,-0.375 -0.1875,-0.859375 -0.1875,-1.359375 0,-0.53125 0,-1 0.21875,-1.375 0.265625,-0.5 0.640625,-0.625 0.984375,-0.625 0.46875,0 0.796875,0.34375 0.96875,0.78125 0.109375,0.328125 0.15625,0.953125 0.15625,1.40625 0,0.828125 -0.34375,1.796875 -1.21875,1.796875 z m 0,0"
           style="stroke:none" />
      </symbol>
      <symbol
         style="overflow:visible"
         id="glyph0-7"
         overflow="visible">
        <path
           id="path23"
           d="m 2.9375,-1.640625 v 0.859375 c 0,0.359375 -0.03125,0.46875 -0.765625,0.46875 H 1.96875 V 0 C 2.375,-0.03125 2.890625,-0.03125 3.3125,-0.03125 c 0.421875,0 0.9375,0 1.359375,0.03125 v -0.3125 h -0.21875 c -0.734375,0 -0.75,-0.109375 -0.75,-0.46875 V -1.640625 H 4.6875 v -0.3125 H 3.703125 v -4.53125 c 0,-0.203125 0,-0.265625 -0.171875,-0.265625 -0.078125,0 -0.109375,0 -0.1875,0.125 l -3.0625,4.671875 v 0.3125 z m 0.046875,-0.3125 H 0.5625 l 2.421875,-3.71875 z m 0,0"
           style="stroke:none" />
      </symbol>
      <symbol
         style="overflow:visible"
         id="glyph0-8"
         overflow="visible">
        <path
           id="path26"
           d="m 1.625,-4.5625 c -0.453125,-0.296875 -0.5,-0.625 -0.5,-0.796875 0,-0.609375 0.65625,-1.03125 1.359375,-1.03125 0.71875,0 1.359375,0.515625 1.359375,1.234375 0,0.578125 -0.390625,1.046875 -0.984375,1.390625 z m 1.453125,0.953125 C 3.796875,-3.984375 4.28125,-4.5 4.28125,-5.15625 c 0,-0.921875 -0.875,-1.484375 -1.78125,-1.484375 -1,0 -1.8125,0.734375 -1.8125,1.671875 0,0.171875 0.015625,0.625 0.4375,1.09375 0.109375,0.109375 0.484375,0.359375 0.734375,0.53125 C 1.28125,-3.046875 0.421875,-2.5 0.421875,-1.5 c 0,1.046875 1.015625,1.71875 2.0625,1.71875 1.125,0 2.078125,-0.828125 2.078125,-1.890625 0,-0.359375 -0.109375,-0.8125 -0.5,-1.234375 C 3.875,-3.109375 3.71875,-3.203125 3.078125,-3.609375 Z m -1,0.421875 1.234375,0.78125 c 0.28125,0.1875 0.75,0.484375 0.75,1.09375 0,0.734375 -0.75,1.25 -1.5625,1.25 -0.859375,0 -1.578125,-0.609375 -1.578125,-1.4375 0,-0.578125 0.3125,-1.21875 1.15625,-1.6875 z m 0,0"
           style="stroke:none" />
      </symbol>
      <symbol
         style="overflow:visible"
         id="glyph1-0"
         overflow="visible">
        <path
           id="path29"
           d=""
           style="stroke:none" />
      </symbol>
      <symbol
         style="overflow:visible"
         id="glyph1-1"
         overflow="visible">
        <path
           id="path32"
           d="m 6.5625,-2.296875 c 0.171875,0 0.359375,0 0.359375,-0.203125 0,-0.1875 -0.1875,-0.1875 -0.359375,-0.1875 H 1.171875 c -0.171875,0 -0.34375,0 -0.34375,0.1875 0,0.203125 0.171875,0.203125 0.34375,0.203125 z m 0,0"
           style="stroke:none" />
      </symbol>
      <symbol
         style="overflow:visible"
         id="glyph2-0"
         overflow="visible">
        <path
           id="path35"
           d=""
           style="stroke:none" />
      </symbol>
      <symbol
         style="overflow:visible"
         id="glyph2-1"
         overflow="visible">
        <path
           id="path38"
           d="M 3.734375,17.640625 C 3.953125,17.640625 4,17.640625 4,17.5 4.03125,10.515625 4.828125,4.71875 8.328125,-0.15625 c 0.0625,-0.09375 0.0625,-0.109375 0.0625,-0.140625 0,-0.09375 -0.0625,-0.09375 -0.21875,-0.09375 -0.171875,0 -0.1875,0 -0.203125,0.015625 -0.046875,0.03125 -1.3125,1.484375 -2.3125,3.5 -1.3125,2.625 -2.140625,5.640625 -2.515625,9.28125 -0.03125,0.296875 -0.234375,2.375 -0.234375,4.734375 v 0.390625 c 0,0.109375 0.0625,0.109375 0.28125,0.109375 z m 0,0"
           style="stroke:none" />
      </symbol>
      <symbol
         style="overflow:visible"
         id="glyph2-2"
         overflow="visible">
        <path
           id="path41"
           d="M 4,0.171875 C 4,-0.09375 4,-0.09375 3.734375,-0.09375 H 3.1875 c -0.28125,0 -0.28125,0 -0.28125,0.265625 V 5.8125 c 0,0.265625 0,0.265625 0.28125,0.265625 H 3.734375 C 4,6.078125 4,6.078125 4,5.8125 Z m 0,0"
           style="stroke:none" />
      </symbol>
      <symbol
         style="overflow:visible"
         id="glyph2-3"
         overflow="visible">
        <path
           id="path44"
           d="m 3.1875,-0.5 c -0.21875,0 -0.28125,0 -0.28125,0.109375 V 0 c 0,6.09375 1.078125,9.65625 1.390625,10.671875 C 4.96875,12.875 6.078125,15.21875 7.75,17.265625 7.890625,17.453125 7.9375,17.5 7.96875,17.515625 8,17.53125 8,17.53125 8.171875,17.53125 c 0.15625,0 0.21875,0 0.21875,-0.09375 0,-0.01563 0,-0.04687 -0.0625,-0.125 C 5.015625,12.703125 4.015625,7.15625 4,-0.359375 4,-0.5 3.953125,-0.5 3.734375,-0.5 Z m 0,0"
           style="stroke:none" />
      </symbol>
      <symbol
         style="overflow:visible"
         id="glyph2-4"
         overflow="visible">
        <path
           id="path47"
           d="M 5.8125,17.140625 C 5.8125,11.0625 4.71875,7.484375 4.421875,6.484375 3.734375,4.265625 2.625,1.9375 0.96875,-0.125 0.8125,-0.296875 0.78125,-0.34375 0.734375,-0.375 c -0.015625,0 -0.03125,-0.015625 -0.1875,-0.015625 -0.140625,0 -0.234375,0 -0.234375,0.09375 0,0.03125 0,0.046875 0.140625,0.234375 3.46875,4.84375 4.234375,10.8125 4.25,17.5625 0,0.140625 0.0625,0.140625 0.28125,0.140625 H 5.53125 c 0.203125,0 0.265625,0 0.28125,-0.109375 z m 0,0"
           style="stroke:none" />
      </symbol>
      <symbol
         style="overflow:visible"
         id="glyph2-5"
         overflow="visible">
        <path
           id="path50"
           d="M 5.8125,0.171875 C 5.8125,-0.09375 5.796875,-0.09375 5.53125,-0.09375 H 4.984375 c -0.265625,0 -0.28125,0 -0.28125,0.265625 V 5.8125 c 0,0.265625 0.015625,0.265625 0.28125,0.265625 H 5.53125 c 0.265625,0 0.28125,0 0.28125,-0.265625 z m 0,0"
           style="stroke:none" />
      </symbol>
      <symbol
         style="overflow:visible"
         id="glyph2-6"
         overflow="visible">
        <path
           id="path53"
           d="M 5.8125,-0.390625 C 5.796875,-0.5 5.734375,-0.5 5.53125,-0.5 H 4.984375 c -0.21875,0 -0.28125,0 -0.28125,0.140625 0,1.03125 -0.015625,3.40625 -0.265625,5.875 C 3.890625,10.671875 2.578125,14.25 0.390625,17.3125 0.3125,17.390625 0.3125,17.421875 0.3125,17.4375 c 0,0.09375 0.09375,0.09375 0.234375,0.09375 0.15625,0 0.1875,0 0.203125,-0.01563 C 0.78125,17.484375 2.046875,16.03125 3.0625,14.03125 4.375,11.390625 5.203125,8.375 5.578125,4.75 5.609375,4.4375 5.8125,2.359375 5.8125,0 Z m 0,0"
           style="stroke:none" />
      </symbol>
    </g>
  </defs>
  <g
     transform="translate(-138.52325,-123.03122)"
     id="surface1">
    <g
       id="g62"
       style="fill:#000000;fill-opacity:1">
      <use
         height="100%"
         width="100%"
         id="use60"
         y="133.17101"
         x="252.763"
         xlink:href="#glyph0-1" />
    </g>
    <g
       id="g66"
       style="fill:#000000;fill-opacity:1">
      <use
         height="100%"
         width="100%"
         id="use64"
         y="133.17101"
         x="275.45599"
         xlink:href="#glyph0-1" />
    </g>
    <g
       id="g70"
       style="fill:#000000;fill-opacity:1">
      <use
         height="100%"
         width="100%"
         id="use68"
         y="133.17101"
         x="290.39999"
         xlink:href="#glyph1-1" />
    </g>
    <g
       id="g74"
       style="fill:#000000;fill-opacity:1">
      <use
         height="100%"
         width="100%"
         id="use72"
         y="133.17101"
         x="298.14899"
         xlink:href="#glyph0-1" />
    </g>
    <g
       id="g78"
       style="fill:#000000;fill-opacity:1">
      <use
         height="100%"
         width="100%"
         id="use76"
         y="133.17101"
         x="313.09201"
         xlink:href="#glyph0-2" />
    </g>
    <g
       id="g82"
       style="fill:#000000;fill-opacity:1">
      <use
         height="100%"
         width="100%"
         id="use80"
         y="133.17101"
         x="328.03601"
         xlink:href="#glyph0-3" />
    </g>
    <g
       id="g86"
       style="fill:#000000;fill-opacity:1">
      <use
         height="100%"
         width="100%"
         id="use84"
         y="145.12601"
         x="252.763"
         xlink:href="#glyph0-1" />
    </g>
    <g
       id="g90"
       style="fill:#000000;fill-opacity:1">
      <use
         height="100%"
         width="100%"
         id="use88"
         y="145.12601"
         x="275.45599"
         xlink:href="#glyph0-2" />
    </g>
    <g
       id="g94"
       style="fill:#000000;fill-opacity:1">
      <use
         height="100%"
         width="100%"
         id="use92"
         y="145.12601"
         x="298.14899"
         xlink:href="#glyph0-3" />
    </g>
    <g
       id="g98"
       style="fill:#000000;fill-opacity:1">
      <use
         height="100%"
         width="100%"
         id="use96"
         y="145.12601"
         x="313.09201"
         xlink:href="#glyph0-4" />
    </g>
    <g
       id="g102"
       style="fill:#000000;fill-opacity:1">
      <use
         height="100%"
         width="100%"
         id="use100"
         y="145.12601"
         x="328.03601"
         xlink:href="#glyph0-1" />
    </g>
    <g
       id="g106"
       style="fill:#000000;fill-opacity:1">
      <use
         height="100%"
         width="100%"
         id="use104"
         y="157.08099"
         x="245.015"
         xlink:href="#glyph1-1" />
    </g>
    <g
       id="g110"
       style="fill:#000000;fill-opacity:1">
      <use
         height="100%"
         width="100%"
         id="use108"
         y="157.08099"
         x="252.763"
         xlink:href="#glyph0-1" />
    </g>
    <g
       id="g114"
       style="fill:#000000;fill-opacity:1">
      <use
         height="100%"
         width="100%"
         id="use112"
         y="157.08099"
         x="275.45599"
         xlink:href="#glyph0-3" />
    </g>
    <g
       id="g118"
       style="fill:#000000;fill-opacity:1">
      <use
         height="100%"
         width="100%"
         id="use116"
         y="157.08099"
         x="298.14899"
         xlink:href="#glyph0-2" />
    </g>
    <g
       id="g122"
       style="fill:#000000;fill-opacity:1">
      <use
         height="100%"
         width="100%"
         id="use120"
         y="157.08099"
         x="313.09201"
         xlink:href="#glyph0-4" />
    </g>
    <g
       id="g126"
       style="fill:#000000;fill-opacity:1">
      <use
         height="100%"
         width="100%"
         id="use124"
         y="157.08099"
         x="328.03601"
         xlink:href="#glyph0-2" />
    </g>
    <g
       id="g130"
       style="fill:#000000;fill-opacity:1">
      <use
         height="100%"
         width="100%"
         id="use128"
         y="169.036"
         x="245.015"
         xlink:href="#glyph1-1" />
    </g>
    <g
       id="g134"
       style="fill:#000000;fill-opacity:1">
      <use
         height="100%"
         width="100%"
         id="use132"
         y="169.036"
         x="252.763"
         xlink:href="#glyph0-2" />
    </g>
    <g
       id="g138"
       style="fill:#000000;fill-opacity:1">
      <use
         height="100%"
         width="100%"
         id="use136"
         y="169.036"
         x="267.707"
         xlink:href="#glyph1-1" />
    </g>
    <g
       id="g142"
       style="fill:#000000;fill-opacity:1">
      <use
         height="100%"
         width="100%"
         id="use140"
         y="169.036"
         x="275.45599"
         xlink:href="#glyph0-1" />
    </g>
    <g
       id="g146"
       style="fill:#000000;fill-opacity:1">
      <use
         height="100%"
         width="100%"
         id="use144"
         y="169.036"
         x="298.14899"
         xlink:href="#glyph0-4" />
    </g>
    <g
       id="g150"
       style="fill:#000000;fill-opacity:1">
      <use
         height="100%"
         width="100%"
         id="use148"
         y="169.036"
         x="313.09201"
         xlink:href="#glyph0-5" />
    </g>
    <g
       id="g154"
       style="fill:#000000;fill-opacity:1">
      <use
         height="100%"
         width="100%"
         id="use152"
         y="169.036"
         x="328.03601"
         xlink:href="#glyph0-4" />
    </g>
    <g
       id="g158"
       style="fill:#ff0000;fill-opacity:1">
      <use
         height="100%"
         width="100%"
         id="use156"
         y="186.661"
         x="156.461"
         xlink:href="#glyph0-1" />
    </g>
    <g
       id="g162"
       style="fill:#000000;fill-opacity:1">
      <use
         height="100%"
         width="100%"
         id="use160"
         y="186.661"
         x="179.153"
         xlink:href="#glyph0-3" />
    </g>
    <g
       id="g166"
       style="fill:#000000;fill-opacity:1">
      <use
         height="100%"
         width="100%"
         id="use164"
         y="186.661"
         x="201.84599"
         xlink:href="#glyph0-3" />
    </g>
    <g
       id="g170"
       style="fill:#000000;fill-opacity:1">
      <use
         height="100%"
         width="100%"
         id="use168"
         y="186.661"
         x="216.78999"
         xlink:href="#glyph0-3" />
    </g>
    <g
       id="g174"
       style="fill:#000000;fill-opacity:1">
      <use
         height="100%"
         width="100%"
         id="use172"
         y="186.661"
         x="252.763"
         xlink:href="#glyph0-1" />
    </g>
    <g
       id="g178"
       style="fill:#000000;fill-opacity:1">
      <use
         height="100%"
         width="100%"
         id="use176"
         y="186.661"
         x="275.45599"
         xlink:href="#glyph0-1" />
    </g>
    <g
       id="g182"
       style="fill:#000000;fill-opacity:1">
      <use
         height="100%"
         width="100%"
         id="use180"
         y="186.661"
         x="290.39999"
         xlink:href="#glyph1-1" />
    </g>
    <g
       id="g186"
       style="fill:#000000;fill-opacity:1">
      <use
         height="100%"
         width="100%"
         id="use184"
         y="186.661"
         x="298.14899"
         xlink:href="#glyph0-1" />
    </g>
    <g
       id="g190"
       style="fill:#000000;fill-opacity:1">
      <use
         height="100%"
         width="100%"
         id="use188"
         y="186.661"
         x="313.09201"
         xlink:href="#glyph0-2" />
    </g>
    <g
       id="g194"
       style="fill:#000000;fill-opacity:1">
      <use
         height="100%"
         width="100%"
         id="use192"
         y="186.661"
         x="328.03601"
         xlink:href="#glyph0-3" />
    </g>
    <g
       id="g198"
       style="fill:#ff0000;fill-opacity:1">
      <use
         height="100%"
         width="100%"
         id="use196"
         y="198.616"
         x="148.71201"
         xlink:href="#glyph1-1" />
    </g>
    <g
       id="g202"
       style="fill:#ff0000;fill-opacity:1">
      <use
         height="100%"
         width="100%"
         id="use200"
         y="198.616"
         x="156.461"
         xlink:href="#glyph0-1" />
    </g>
    <g
       id="g206"
       style="fill:#000000;fill-opacity:1">
      <use
         height="100%"
         width="100%"
         id="use204"
         y="198.616"
         x="179.153"
         xlink:href="#glyph0-1" />
    </g>
    <g
       id="g210"
       style="fill:#000000;fill-opacity:1">
      <use
         height="100%"
         width="100%"
         id="use208"
         y="198.616"
         x="201.84599"
         xlink:href="#glyph0-3" />
    </g>
    <g
       id="g214"
       style="fill:#000000;fill-opacity:1">
      <use
         height="100%"
         width="100%"
         id="use212"
         y="198.616"
         x="216.78999"
         xlink:href="#glyph0-3" />
    </g>
    <g
       id="g218"
       style="fill:#000000;fill-opacity:1">
      <use
         height="100%"
         width="100%"
         id="use216"
         y="198.616"
         x="252.763"
         xlink:href="#glyph0-3" />
    </g>
    <g
       id="g222"
       style="fill:#000000;fill-opacity:1">
      <use
         height="100%"
         width="100%"
         id="use220"
         y="198.616"
         x="275.45599"
         xlink:href="#glyph0-1" />
    </g>
    <g
       id="g226"
       style="fill:#000000;fill-opacity:1">
      <use
         height="100%"
         width="100%"
         id="use224"
         y="198.616"
         x="298.14899"
         xlink:href="#glyph0-1" />
    </g>
    <g
       id="g230"
       style="fill:#000000;fill-opacity:1">
      <use
         height="100%"
         width="100%"
         id="use228"
         y="198.616"
         x="313.09201"
         xlink:href="#glyph0-1" />
    </g>
    <g
       id="g234"
       style="fill:#000000;fill-opacity:1">
      <use
         height="100%"
         width="100%"
         id="use232"
         y="198.616"
         x="328.03601"
         xlink:href="#glyph0-1" />
    </g>
    <g
       id="g238"
       style="fill:#ff0000;fill-opacity:1">
      <use
         height="100%"
         width="100%"
         id="use236"
         y="210.571"
         x="156.461"
         xlink:href="#glyph0-1" />
    </g>
    <g
       id="g242"
       style="fill:#000000;fill-opacity:1">
      <use
         height="100%"
         width="100%"
         id="use240"
         y="210.571"
         x="179.153"
         xlink:href="#glyph0-3" />
    </g>
    <g
       id="g246"
       style="fill:#000000;fill-opacity:1">
      <use
         height="100%"
         width="100%"
         id="use244"
         y="210.571"
         x="201.84599"
         xlink:href="#glyph0-1" />
    </g>
    <g
       id="g250"
       style="fill:#000000;fill-opacity:1">
      <use
         height="100%"
         width="100%"
         id="use248"
         y="210.571"
         x="216.78999"
         xlink:href="#glyph0-3" />
    </g>
    <g
       id="g254"
       style="fill:#000000;fill-opacity:1">
      <use
         height="100%"
         width="100%"
         id="use252"
         y="210.571"
         x="252.763"
         xlink:href="#glyph0-3" />
    </g>
    <g
       id="g258"
       style="fill:#000000;fill-opacity:1">
      <use
         height="100%"
         width="100%"
         id="use256"
         y="210.571"
         x="275.45599"
         xlink:href="#glyph0-1" />
    </g>
    <g
       id="g262"
       style="fill:#000000;fill-opacity:1">
      <use
         height="100%"
         width="100%"
         id="use260"
         y="210.571"
         x="298.14899"
         xlink:href="#glyph0-1" />
    </g>
    <g
       id="g266"
       style="fill:#000000;fill-opacity:1">
      <use
         height="100%"
         width="100%"
         id="use264"
         y="210.571"
         x="313.09201"
         xlink:href="#glyph0-5" />
    </g>
    <g
       id="g270"
       style="fill:#000000;fill-opacity:1">
      <use
         height="100%"
         width="100%"
         id="use268"
         y="210.571"
         x="328.03601"
         xlink:href="#glyph0-2" />
    </g>
    <g
       id="g274"
       style="fill:#ff0000;fill-opacity:1">
      <use
         height="100%"
         width="100%"
         id="use272"
         y="222.526"
         x="156.461"
         xlink:href="#glyph0-2" />
    </g>
    <g
       id="g278"
       style="fill:#000000;fill-opacity:1">
      <use
         height="100%"
         width="100%"
         id="use276"
         y="222.526"
         x="179.153"
         xlink:href="#glyph0-3" />
    </g>
    <g
       id="g282"
       style="fill:#000000;fill-opacity:1">
      <use
         height="100%"
         width="100%"
         id="use280"
         y="222.526"
         x="201.84599"
         xlink:href="#glyph0-3" />
    </g>
    <g
       id="g286"
       style="fill:#000000;fill-opacity:1">
      <use
         height="100%"
         width="100%"
         id="use284"
         y="222.526"
         x="216.78999"
         xlink:href="#glyph0-1" />
    </g>
    <g
       id="g290"
       style="fill:#000000;fill-opacity:1">
      <use
         height="100%"
         width="100%"
         id="use288"
         y="222.526"
         x="252.763"
         xlink:href="#glyph0-3" />
    </g>
    <g
       id="g294"
       style="fill:#000000;fill-opacity:1">
      <use
         height="100%"
         width="100%"
         id="use292"
         y="222.526"
         x="275.45599"
         xlink:href="#glyph0-1" />
    </g>
    <g
       id="g298"
       style="fill:#000000;fill-opacity:1">
      <use
         height="100%"
         width="100%"
         id="use296"
         y="222.526"
         x="298.14899"
         xlink:href="#glyph0-1" />
    </g>
    <g
       id="g302"
       style="fill:#000000;fill-opacity:1">
      <use
         height="100%"
         width="100%"
         id="use300"
         y="222.526"
         x="313.09201"
         xlink:href="#glyph0-6" />
    </g>
    <g
       id="g306"
       style="fill:#000000;fill-opacity:1">
      <use
         height="100%"
         width="100%"
         id="use304"
         y="222.526"
         x="328.03601"
         xlink:href="#glyph0-4" />
    </g>
    <g
       id="g310"
       style="fill:#000000;fill-opacity:1">
      <use
         height="100%"
         width="100%"
         id="use308"
         y="240.14999"
         x="156.461"
         xlink:href="#glyph0-1" />
    </g>
    <g
       id="g314"
       style="fill:#ff0000;fill-opacity:1">
      <use
         height="100%"
         width="100%"
         id="use312"
         y="240.14999"
         x="179.153"
         xlink:href="#glyph0-3" />
    </g>
    <g
       id="g318"
       style="fill:#000000;fill-opacity:1">
      <use
         height="100%"
         width="100%"
         id="use316"
         y="240.14999"
         x="201.84599"
         xlink:href="#glyph0-3" />
    </g>
    <g
       id="g322"
       style="fill:#000000;fill-opacity:1">
      <use
         height="100%"
         width="100%"
         id="use320"
         y="240.14999"
         x="216.78999"
         xlink:href="#glyph0-3" />
    </g>
    <g
       id="g326"
       style="fill:#000000;fill-opacity:1">
      <use
         height="100%"
         width="100%"
         id="use324"
         y="240.14999"
         x="252.763"
         xlink:href="#glyph0-1" />
    </g>
    <g
       id="g330"
       style="fill:#000000;fill-opacity:1">
      <use
         height="100%"
         width="100%"
         id="use328"
         y="240.14999"
         x="275.45599"
         xlink:href="#glyph0-1" />
    </g>
    <g
       id="g334"
       style="fill:#000000;fill-opacity:1">
      <use
         height="100%"
         width="100%"
         id="use332"
         y="240.14999"
         x="290.39999"
         xlink:href="#glyph1-1" />
    </g>
    <g
       id="g338"
       style="fill:#000000;fill-opacity:1">
      <use
         height="100%"
         width="100%"
         id="use336"
         y="240.14999"
         x="298.14899"
         xlink:href="#glyph0-1" />
    </g>
    <g
       id="g342"
       style="fill:#000000;fill-opacity:1">
      <use
         height="100%"
         width="100%"
         id="use340"
         y="240.14999"
         x="313.09201"
         xlink:href="#glyph0-2" />
    </g>
    <g
       id="g346"
       style="fill:#000000;fill-opacity:1">
      <use
         height="100%"
         width="100%"
         id="use344"
         y="240.14999"
         x="328.03601"
         xlink:href="#glyph0-3" />
    </g>
    <g
       id="g350"
       style="fill:#000000;fill-opacity:1">
      <use
         height="100%"
         width="100%"
         id="use348"
         y="252.106"
         x="156.461"
         xlink:href="#glyph0-3" />
    </g>
    <g
       id="g354"
       style="fill:#ff0000;fill-opacity:1">
      <use
         height="100%"
         width="100%"
         id="use352"
         y="252.106"
         x="179.153"
         xlink:href="#glyph0-1" />
    </g>
    <g
       id="g358"
       style="fill:#000000;fill-opacity:1">
      <use
         height="100%"
         width="100%"
         id="use356"
         y="252.106"
         x="201.84599"
         xlink:href="#glyph0-3" />
    </g>
    <g
       id="g362"
       style="fill:#000000;fill-opacity:1">
      <use
         height="100%"
         width="100%"
         id="use360"
         y="252.106"
         x="216.78999"
         xlink:href="#glyph0-3" />
    </g>
    <g
       id="g366"
       style="fill:#000000;fill-opacity:1">
      <use
         height="100%"
         width="100%"
         id="use364"
         y="252.106"
         x="252.763"
         xlink:href="#glyph0-3" />
    </g>
    <g
       id="g370"
       style="fill:#000000;fill-opacity:1">
      <use
         height="100%"
         width="100%"
         id="use368"
         y="252.106"
         x="275.45599"
         xlink:href="#glyph0-1" />
    </g>
    <g
       id="g374"
       style="fill:#000000;fill-opacity:1">
      <use
         height="100%"
         width="100%"
         id="use372"
         y="252.106"
         x="298.14899"
         xlink:href="#glyph0-1" />
    </g>
    <g
       id="g378"
       style="fill:#000000;fill-opacity:1">
      <use
         height="100%"
         width="100%"
         id="use376"
         y="252.106"
         x="313.09201"
         xlink:href="#glyph0-1" />
    </g>
    <g
       id="g382"
       style="fill:#000000;fill-opacity:1">
      <use
         height="100%"
         width="100%"
         id="use380"
         y="252.106"
         x="328.03601"
         xlink:href="#glyph0-1" />
    </g>
    <g
       id="g386"
       style="fill:#000000;fill-opacity:1">
      <use
         height="100%"
         width="100%"
         id="use384"
         y="264.061"
         x="156.461"
         xlink:href="#glyph0-3" />
    </g>
    <g
       id="g390"
       style="fill:#ff0000;fill-opacity:1">
      <use
         height="100%"
         width="100%"
         id="use388"
         y="264.061"
         x="171.405"
         xlink:href="#glyph1-1" />
    </g>
    <g
       id="g394"
       style="fill:#ff0000;fill-opacity:1">
      <use
         height="100%"
         width="100%"
         id="use392"
         y="264.061"
         x="179.15401"
         xlink:href="#glyph0-1" />
    </g>
    <g
       id="g398"
       style="fill:#000000;fill-opacity:1">
      <use
         height="100%"
         width="100%"
         id="use396"
         y="264.061"
         x="201.84599"
         xlink:href="#glyph0-1" />
    </g>
    <g
       id="g402"
       style="fill:#000000;fill-opacity:1">
      <use
         height="100%"
         width="100%"
         id="use400"
         y="264.061"
         x="216.78999"
         xlink:href="#glyph0-3" />
    </g>
    <g
       id="g406"
       style="fill:#000000;fill-opacity:1">
      <use
         height="100%"
         width="100%"
         id="use404"
         y="264.061"
         x="252.763"
         xlink:href="#glyph0-3" />
    </g>
    <g
       id="g410"
       style="fill:#000000;fill-opacity:1">
      <use
         height="100%"
         width="100%"
         id="use408"
         y="264.061"
         x="275.45599"
         xlink:href="#glyph0-3" />
    </g>
    <g
       id="g414"
       style="fill:#000000;fill-opacity:1">
      <use
         height="100%"
         width="100%"
         id="use412"
         y="264.061"
         x="298.14899"
         xlink:href="#glyph0-3" />
    </g>
    <g
       id="g418"
       style="fill:#000000;fill-opacity:1">
      <use
         height="100%"
         width="100%"
         id="use416"
         y="264.061"
         x="313.09201"
         xlink:href="#glyph0-7" />
    </g>
    <g
       id="g422"
       style="fill:#000000;fill-opacity:1">
      <use
         height="100%"
         width="100%"
         id="use420"
         y="264.061"
         x="328.03601"
         xlink:href="#glyph0-1" />
    </g>
    <g
       id="g426"
       style="fill:#000000;fill-opacity:1">
      <use
         height="100%"
         width="100%"
         id="use424"
         y="276.01599"
         x="156.461"
         xlink:href="#glyph0-3" />
    </g>
    <g
       id="g430"
       style="fill:#ff0000;fill-opacity:1">
      <use
         height="100%"
         width="100%"
         id="use428"
         y="276.01599"
         x="171.405"
         xlink:href="#glyph1-1" />
    </g>
    <g
       id="g434"
       style="fill:#ff0000;fill-opacity:1">
      <use
         height="100%"
         width="100%"
         id="use432"
         y="276.01599"
         x="179.15401"
         xlink:href="#glyph0-1" />
    </g>
    <g
       id="g438"
       style="fill:#000000;fill-opacity:1">
      <use
         height="100%"
         width="100%"
         id="use436"
         y="276.01599"
         x="201.84599"
         xlink:href="#glyph0-3" />
    </g>
    <g
       id="g442"
       style="fill:#000000;fill-opacity:1">
      <use
         height="100%"
         width="100%"
         id="use440"
         y="276.01599"
         x="216.78999"
         xlink:href="#glyph0-1" />
    </g>
    <g
       id="g446"
       style="fill:#000000;fill-opacity:1">
      <use
         height="100%"
         width="100%"
         id="use444"
         y="276.01599"
         x="252.763"
         xlink:href="#glyph0-3" />
    </g>
    <g
       id="g450"
       style="fill:#000000;fill-opacity:1">
      <use
         height="100%"
         width="100%"
         id="use448"
         y="276.01599"
         x="275.45599"
         xlink:href="#glyph0-3" />
    </g>
    <g
       id="g454"
       style="fill:#000000;fill-opacity:1">
      <use
         height="100%"
         width="100%"
         id="use452"
         y="276.01599"
         x="298.14899"
         xlink:href="#glyph0-3" />
    </g>
    <g
       id="g458"
       style="fill:#000000;fill-opacity:1">
      <use
         height="100%"
         width="100%"
         id="use456"
         y="276.01599"
         x="313.09201"
         xlink:href="#glyph0-8" />
    </g>
    <g
       id="g462"
       style="fill:#000000;fill-opacity:1">
      <use
         height="100%"
         width="100%"
         id="use460"
         y="276.01599"
         x="328.03601"
         xlink:href="#glyph0-2" />
    </g>
    <g
       id="g466"
       style="fill:#000000;fill-opacity:1">
      <use
         height="100%"
         width="100%"
         id="use464"
         y="293.64001"
         x="156.461"
         xlink:href="#glyph0-1" />
    </g>
    <g
       id="g470"
       style="fill:#000000;fill-opacity:1">
      <use
         height="100%"
         width="100%"
         id="use468"
         y="293.64001"
         x="179.153"
         xlink:href="#glyph0-3" />
    </g>
    <g
       id="g474"
       style="fill:#ff0000;fill-opacity:1">
      <use
         height="100%"
         width="100%"
         id="use472"
         y="293.64001"
         x="201.84599"
         xlink:href="#glyph0-3" />
    </g>
    <g
       id="g478"
       style="fill:#000000;fill-opacity:1">
      <use
         height="100%"
         width="100%"
         id="use476"
         y="293.64001"
         x="216.78999"
         xlink:href="#glyph0-3" />
    </g>
    <g
       id="g482"
       style="fill:#000000;fill-opacity:1">
      <use
         height="100%"
         width="100%"
         id="use480"
         y="293.64001"
         x="252.763"
         xlink:href="#glyph0-1" />
    </g>
    <g
       id="g486"
       style="fill:#000000;fill-opacity:1">
      <use
         height="100%"
         width="100%"
         id="use484"
         y="293.64001"
         x="275.45599"
         xlink:href="#glyph0-1" />
    </g>
    <g
       id="g490"
       style="fill:#000000;fill-opacity:1">
      <use
         height="100%"
         width="100%"
         id="use488"
         y="293.64001"
         x="290.39999"
         xlink:href="#glyph1-1" />
    </g>
    <g
       id="g494"
       style="fill:#000000;fill-opacity:1">
      <use
         height="100%"
         width="100%"
         id="use492"
         y="293.64001"
         x="298.14899"
         xlink:href="#glyph0-1" />
    </g>
    <g
       id="g498"
       style="fill:#000000;fill-opacity:1">
      <use
         height="100%"
         width="100%"
         id="use496"
         y="293.64001"
         x="313.09201"
         xlink:href="#glyph0-2" />
    </g>
    <g
       id="g502"
       style="fill:#000000;fill-opacity:1">
      <use
         height="100%"
         width="100%"
         id="use500"
         y="293.64001"
         x="328.03601"
         xlink:href="#glyph0-3" />
    </g>
    <g
       id="g506"
       style="fill:#000000;fill-opacity:1">
      <use
         height="100%"
         width="100%"
         id="use504"
         y="305.59601"
         x="156.461"
         xlink:href="#glyph0-3" />
    </g>
    <g
       id="g510"
       style="fill:#000000;fill-opacity:1">
      <use
         height="100%"
         width="100%"
         id="use508"
         y="305.59601"
         x="179.153"
         xlink:href="#glyph0-1" />
    </g>
    <g
       id="g514"
       style="fill:#ff0000;fill-opacity:1">
      <use
         height="100%"
         width="100%"
         id="use512"
         y="305.59601"
         x="201.84599"
         xlink:href="#glyph0-3" />
    </g>
    <g
       id="g518"
       style="fill:#000000;fill-opacity:1">
      <use
         height="100%"
         width="100%"
         id="use516"
         y="305.59601"
         x="216.78999"
         xlink:href="#glyph0-3" />
    </g>
    <g
       id="g522"
       style="fill:#000000;fill-opacity:1">
      <use
         height="100%"
         width="100%"
         id="use520"
         y="305.59601"
         x="252.763"
         xlink:href="#glyph0-3" />
    </g>
    <g
       id="g526"
       style="fill:#000000;fill-opacity:1">
      <use
         height="100%"
         width="100%"
         id="use524"
         y="305.59601"
         x="275.45599"
         xlink:href="#glyph0-1" />
    </g>
    <g
       id="g530"
       style="fill:#000000;fill-opacity:1">
      <use
         height="100%"
         width="100%"
         id="use528"
         y="305.59601"
         x="298.14899"
         xlink:href="#glyph0-1" />
    </g>
    <g
       id="g534"
       style="fill:#000000;fill-opacity:1">
      <use
         height="100%"
         width="100%"
         id="use532"
         y="305.59601"
         x="313.09201"
         xlink:href="#glyph0-1" />
    </g>
    <g
       id="g538"
       style="fill:#000000;fill-opacity:1">
      <use
         height="100%"
         width="100%"
         id="use536"
         y="305.59601"
         x="328.03601"
         xlink:href="#glyph0-1" />
    </g>
    <g
       id="g542"
       style="fill:#000000;fill-opacity:1">
      <use
         height="100%"
         width="100%"
         id="use540"
         y="317.55099"
         x="156.461"
         xlink:href="#glyph0-3" />
    </g>
    <g
       id="g546"
       style="fill:#000000;fill-opacity:1">
      <use
         height="100%"
         width="100%"
         id="use544"
         y="317.55099"
         x="179.153"
         xlink:href="#glyph0-3" />
    </g>
    <g
       id="g550"
       style="fill:#ff0000;fill-opacity:1">
      <use
         height="100%"
         width="100%"
         id="use548"
         y="317.55099"
         x="201.84599"
         xlink:href="#glyph0-1" />
    </g>
    <g
       id="g554"
       style="fill:#000000;fill-opacity:1">
      <use
         height="100%"
         width="100%"
         id="use552"
         y="317.55099"
         x="216.78999"
         xlink:href="#glyph0-3" />
    </g>
    <g
       id="g558"
       style="fill:#000000;fill-opacity:1">
      <use
         height="100%"
         width="100%"
         id="use556"
         y="317.55099"
         x="252.763"
         xlink:href="#glyph0-3" />
    </g>
    <g
       id="g562"
       style="fill:#000000;fill-opacity:1">
      <use
         height="100%"
         width="100%"
         id="use560"
         y="317.55099"
         x="275.45599"
         xlink:href="#glyph0-3" />
    </g>
    <g
       id="g566"
       style="fill:#000000;fill-opacity:1">
      <use
         height="100%"
         width="100%"
         id="use564"
         y="317.55099"
         x="298.14899"
         xlink:href="#glyph0-3" />
    </g>
    <g
       id="g570"
       style="fill:#000000;fill-opacity:1">
      <use
         height="100%"
         width="100%"
         id="use568"
         y="317.55099"
         x="313.09201"
         xlink:href="#glyph0-7" />
    </g>
    <g
       id="g574"
       style="fill:#000000;fill-opacity:1">
      <use
         height="100%"
         width="100%"
         id="use572"
         y="317.55099"
         x="328.03601"
         xlink:href="#glyph0-1" />
    </g>
    <g
       id="g578"
       style="fill:#000000;fill-opacity:1">
      <use
         height="100%"
         width="100%"
         id="use576"
         y="329.50601"
         x="156.461"
         xlink:href="#glyph0-3" />
    </g>
    <g
       id="g582"
       style="fill:#000000;fill-opacity:1">
      <use
         height="100%"
         width="100%"
         id="use580"
         y="329.50601"
         x="179.153"
         xlink:href="#glyph0-3" />
    </g>
    <g
       id="g586"
       style="fill:#ff0000;fill-opacity:1">
      <use
         height="100%"
         width="100%"
         id="use584"
         y="329.50601"
         x="194.09801"
         xlink:href="#glyph1-1" />
    </g>
    <g
       id="g590"
       style="fill:#ff0000;fill-opacity:1">
      <use
         height="100%"
         width="100%"
         id="use588"
         y="329.50601"
         x="201.847"
         xlink:href="#glyph0-2" />
    </g>
    <g
       id="g594"
       style="fill:#000000;fill-opacity:1">
      <use
         height="100%"
         width="100%"
         id="use592"
         y="329.50601"
         x="216.78999"
         xlink:href="#glyph0-1" />
    </g>
    <g
       id="g598"
       style="fill:#000000;fill-opacity:1">
      <use
         height="100%"
         width="100%"
         id="use596"
         y="329.50601"
         x="252.763"
         xlink:href="#glyph0-3" />
    </g>
    <g
       id="g602"
       style="fill:#000000;fill-opacity:1">
      <use
         height="100%"
         width="100%"
         id="use600"
         y="329.50601"
         x="275.45599"
         xlink:href="#glyph0-3" />
    </g>
    <g
       id="g606"
       style="fill:#000000;fill-opacity:1">
      <use
         height="100%"
         width="100%"
         id="use604"
         y="329.50601"
         x="298.14899"
         xlink:href="#glyph0-3" />
    </g>
    <g
       id="g610"
       style="fill:#000000;fill-opacity:1">
      <use
         height="100%"
         width="100%"
         id="use608"
         y="329.50601"
         x="313.09201"
         xlink:href="#glyph0-3" />
    </g>
    <g
       id="g614"
       style="fill:#000000;fill-opacity:1">
      <use
         height="100%"
         width="100%"
         id="use612"
         y="329.50601"
         x="328.03601"
         xlink:href="#glyph0-3" />
    </g>
    <path
       id="path616"
       transform="matrix(1,0,0,-1,72,72)"
       d="M 76.710938,-264.125 H 286.47656"
       style="fill:none;stroke:#000000;stroke-width:0.3985;stroke-linecap:butt;stroke-linejoin:miter;stroke-miterlimit:10;stroke-opacity:1" />
    <g
       id="g620"
       style="fill:#ff0000;fill-opacity:1">
      <use
         height="100%"
         width="100%"
         id="use618"
         y="347.52899"
         x="156.461"
         xlink:href="#glyph0-1" />
    </g>
    <g
       id="g624"
       style="fill:#ff0000;fill-opacity:1">
      <use
         height="100%"
         width="100%"
         id="use622"
         y="347.52899"
         x="179.153"
         xlink:href="#glyph0-3" />
    </g>
    <g
       id="g628"
       style="fill:#ff0000;fill-opacity:1">
      <use
         height="100%"
         width="100%"
         id="use626"
         y="347.52899"
         x="201.84599"
         xlink:href="#glyph0-3" />
    </g>
    <g
       id="g632"
       style="fill:#000000;fill-opacity:1">
      <use
         height="100%"
         width="100%"
         id="use630"
         y="347.52899"
         x="216.78999"
         xlink:href="#glyph0-3" />
    </g>
    <g
       id="g636"
       style="fill:#bf003f;fill-opacity:1">
      <use
         height="100%"
         width="100%"
         id="use634"
         y="347.52899"
         x="252.763"
         xlink:href="#glyph0-1" />
    </g>
    <g
       id="g640"
       style="fill:#bf003f;fill-opacity:1">
      <use
         height="100%"
         width="100%"
         id="use638"
         y="347.52899"
         x="275.45599"
         xlink:href="#glyph0-1" />
    </g>
    <g
       id="g644"
       style="fill:#bf003f;fill-opacity:1">
      <use
         height="100%"
         width="100%"
         id="use642"
         y="347.52899"
         x="290.39999"
         xlink:href="#glyph1-1" />
    </g>
    <g
       id="g648"
       style="fill:#bf003f;fill-opacity:1">
      <use
         height="100%"
         width="100%"
         id="use646"
         y="347.52899"
         x="298.14899"
         xlink:href="#glyph0-1" />
    </g>
    <g
       id="g652"
       style="fill:#bf003f;fill-opacity:1">
      <use
         height="100%"
         width="100%"
         id="use650"
         y="347.52899"
         x="313.09201"
         xlink:href="#glyph0-2" />
    </g>
    <g
       id="g656"
       style="fill:#bf003f;fill-opacity:1">
      <use
         height="100%"
         width="100%"
         id="use654"
         y="347.52899"
         x="328.03601"
         xlink:href="#glyph0-3" />
    </g>
    <g
       id="g660"
       style="fill:#ff0000;fill-opacity:1">
      <use
         height="100%"
         width="100%"
         id="use658"
         y="359.48401"
         x="156.461"
         xlink:href="#glyph0-1" />
    </g>
    <g
       id="g664"
       style="fill:#ff0000;fill-opacity:1">
      <use
         height="100%"
         width="100%"
         id="use662"
         y="359.48401"
         x="179.153"
         xlink:href="#glyph0-1" />
    </g>
    <g
       id="g668"
       style="fill:#ff0000;fill-opacity:1">
      <use
         height="100%"
         width="100%"
         id="use666"
         y="359.48401"
         x="201.84599"
         xlink:href="#glyph0-3" />
    </g>
    <g
       id="g672"
       style="fill:#000000;fill-opacity:1">
      <use
         height="100%"
         width="100%"
         id="use670"
         y="359.48401"
         x="216.78999"
         xlink:href="#glyph0-3" />
    </g>
    <g
       id="g676"
       style="fill:#bf003f;fill-opacity:1">
      <use
         height="100%"
         width="100%"
         id="use674"
         y="359.48401"
         x="252.763"
         xlink:href="#glyph0-1" />
    </g>
    <g
       id="g680"
       style="fill:#bf003f;fill-opacity:1">
      <use
         height="100%"
         width="100%"
         id="use678"
         y="359.48401"
         x="275.45599"
         xlink:href="#glyph0-2" />
    </g>
    <g
       id="g684"
       style="fill:#bf003f;fill-opacity:1">
      <use
         height="100%"
         width="100%"
         id="use682"
         y="359.48401"
         x="298.14899"
         xlink:href="#glyph0-3" />
    </g>
    <g
       id="g688"
       style="fill:#bf003f;fill-opacity:1">
      <use
         height="100%"
         width="100%"
         id="use686"
         y="359.48401"
         x="313.09201"
         xlink:href="#glyph0-4" />
    </g>
    <g
       id="g692"
       style="fill:#bf003f;fill-opacity:1">
      <use
         height="100%"
         width="100%"
         id="use690"
         y="359.48401"
         x="328.03601"
         xlink:href="#glyph0-1" />
    </g>
    <g
       id="g696"
       style="fill:#ff0000;fill-opacity:1">
      <use
         height="100%"
         width="100%"
         id="use694"
         y="371.439"
         x="148.71201"
         xlink:href="#glyph1-1" />
    </g>
    <g
       id="g700"
       style="fill:#ff0000;fill-opacity:1">
      <use
         height="100%"
         width="100%"
         id="use698"
         y="371.439"
         x="156.461"
         xlink:href="#glyph0-1" />
    </g>
    <g
       id="g704"
       style="fill:#ff0000;fill-opacity:1">
      <use
         height="100%"
         width="100%"
         id="use702"
         y="371.439"
         x="179.153"
         xlink:href="#glyph0-1" />
    </g>
    <g
       id="g708"
       style="fill:#ff0000;fill-opacity:1">
      <use
         height="100%"
         width="100%"
         id="use706"
         y="371.439"
         x="201.84599"
         xlink:href="#glyph0-1" />
    </g>
    <g
       id="g712"
       style="fill:#000000;fill-opacity:1">
      <use
         height="100%"
         width="100%"
         id="use710"
         y="371.439"
         x="216.78999"
         xlink:href="#glyph0-3" />
    </g>
    <g
       id="g716"
       style="fill:#bf003f;fill-opacity:1">
      <use
         height="100%"
         width="100%"
         id="use714"
         y="371.439"
         x="245.015"
         xlink:href="#glyph1-1" />
    </g>
    <g
       id="g720"
       style="fill:#bf003f;fill-opacity:1">
      <use
         height="100%"
         width="100%"
         id="use718"
         y="371.439"
         x="252.763"
         xlink:href="#glyph0-1" />
    </g>
    <g
       id="g724"
       style="fill:#bf003f;fill-opacity:1">
      <use
         height="100%"
         width="100%"
         id="use722"
         y="371.439"
         x="275.45599"
         xlink:href="#glyph0-3" />
    </g>
    <g
       id="g728"
       style="fill:#bf003f;fill-opacity:1">
      <use
         height="100%"
         width="100%"
         id="use726"
         y="371.439"
         x="298.14899"
         xlink:href="#glyph0-2" />
    </g>
    <g
       id="g732"
       style="fill:#bf003f;fill-opacity:1">
      <use
         height="100%"
         width="100%"
         id="use730"
         y="371.439"
         x="313.09201"
         xlink:href="#glyph0-4" />
    </g>
    <g
       id="g736"
       style="fill:#bf003f;fill-opacity:1">
      <use
         height="100%"
         width="100%"
         id="use734"
         y="371.439"
         x="328.03601"
         xlink:href="#glyph0-2" />
    </g>
    <g
       id="g740"
       style="fill:#ff0000;fill-opacity:1">
      <use
         height="100%"
         width="100%"
         id="use738"
         y="383.39401"
         x="148.71201"
         xlink:href="#glyph1-1" />
    </g>
    <g
       id="g744"
       style="fill:#ff0000;fill-opacity:1">
      <use
         height="100%"
         width="100%"
         id="use742"
         y="383.39401"
         x="156.461"
         xlink:href="#glyph0-2" />
    </g>
    <g
       id="g748"
       style="fill:#ff0000;fill-opacity:1">
      <use
         height="100%"
         width="100%"
         id="use746"
         y="383.39401"
         x="179.153"
         xlink:href="#glyph0-1" />
    </g>
    <g
       id="g752"
       style="fill:#ff0000;fill-opacity:1">
      <use
         height="100%"
         width="100%"
         id="use750"
         y="383.39401"
         x="201.84599"
         xlink:href="#glyph0-2" />
    </g>
    <g
       id="g756"
       style="fill:#000000;fill-opacity:1">
      <use
         height="100%"
         width="100%"
         id="use754"
         y="383.39401"
         x="216.78999"
         xlink:href="#glyph0-1" />
    </g>
    <g
       id="g760"
       style="fill:#bf003f;fill-opacity:1">
      <use
         height="100%"
         width="100%"
         id="use758"
         y="383.39401"
         x="245.015"
         xlink:href="#glyph1-1" />
    </g>
    <g
       id="g764"
       style="fill:#bf003f;fill-opacity:1">
      <use
         height="100%"
         width="100%"
         id="use762"
         y="383.39401"
         x="252.763"
         xlink:href="#glyph0-2" />
    </g>
    <g
       id="g768"
       style="fill:#bf003f;fill-opacity:1">
      <use
         height="100%"
         width="100%"
         id="use766"
         y="383.39401"
         x="267.707"
         xlink:href="#glyph1-1" />
    </g>
    <g
       id="g772"
       style="fill:#bf003f;fill-opacity:1">
      <use
         height="100%"
         width="100%"
         id="use770"
         y="383.39401"
         x="275.45599"
         xlink:href="#glyph0-1" />
    </g>
    <g
       id="g776"
       style="fill:#bf003f;fill-opacity:1">
      <use
         height="100%"
         width="100%"
         id="use774"
         y="383.39401"
         x="298.14899"
         xlink:href="#glyph0-4" />
    </g>
    <g
       id="g780"
       style="fill:#bf003f;fill-opacity:1">
      <use
         height="100%"
         width="100%"
         id="use778"
         y="383.39401"
         x="313.09201"
         xlink:href="#glyph0-5" />
    </g>
    <g
       id="g784"
       style="fill:#bf003f;fill-opacity:1">
      <use
         height="100%"
         width="100%"
         id="use782"
         y="383.39401"
         x="328.03601"
         xlink:href="#glyph0-4" />
    </g>
    <g
       id="g788"
       style="fill:#000000;fill-opacity:1">
      <use
         height="100%"
         width="100%"
         id="use786"
         y="180.85899"
         x="135.617"
         xlink:href="#glyph2-1" />
    </g>
    <g
       id="g792"
       style="fill:#000000;fill-opacity:1">
      <use
         height="100%"
         width="100%"
         id="use790"
         y="198.394"
         x="135.617"
         xlink:href="#glyph2-2" />
    </g>
    <g
       id="g796"
       style="fill:#000000;fill-opacity:1">
      <use
         height="100%"
         width="100%"
         id="use794"
         y="204.77"
         x="135.617"
         xlink:href="#glyph2-3" />
    </g>
    <g
       id="g800"
       style="fill:#000000;fill-opacity:1">
      <use
         height="100%"
         width="100%"
         id="use798"
         y="180.85899"
         x="226.145"
         xlink:href="#glyph2-4" />
    </g>
    <g
       id="g804"
       style="fill:#000000;fill-opacity:1">
      <use
         height="100%"
         width="100%"
         id="use802"
         y="198.394"
         x="226.145"
         xlink:href="#glyph2-5" />
    </g>
    <g
       id="g808"
       style="fill:#000000;fill-opacity:1">
      <use
         height="100%"
         width="100%"
         id="use806"
         y="204.77"
         x="226.145"
         xlink:href="#glyph2-6" />
    </g>
    <g
       id="g812"
       style="fill:#000000;fill-opacity:1">
      <use
         height="100%"
         width="100%"
         id="use810"
         y="234.765"
         x="135.617"
         xlink:href="#glyph2-1" />
    </g>
    <g
       id="g816"
       style="fill:#000000;fill-opacity:1">
      <use
         height="100%"
         width="100%"
         id="use814"
         y="252.3"
         x="135.617"
         xlink:href="#glyph2-2" />
    </g>
    <g
       id="g820"
       style="fill:#000000;fill-opacity:1">
      <use
         height="100%"
         width="100%"
         id="use818"
         y="258.67599"
         x="135.617"
         xlink:href="#glyph2-3" />
    </g>
    <g
       id="g824"
       style="fill:#000000;fill-opacity:1">
      <use
         height="100%"
         width="100%"
         id="use822"
         y="234.765"
         x="226.145"
         xlink:href="#glyph2-4" />
    </g>
    <g
       id="g828"
       style="fill:#000000;fill-opacity:1">
      <use
         height="100%"
         width="100%"
         id="use826"
         y="252.3"
         x="226.145"
         xlink:href="#glyph2-5" />
    </g>
    <g
       id="g832"
       style="fill:#000000;fill-opacity:1">
      <use
         height="100%"
         width="100%"
         id="use830"
         y="258.67599"
         x="226.145"
         xlink:href="#glyph2-6" />
    </g>
    <g
       id="g836"
       style="fill:#000000;fill-opacity:1">
      <use
         height="100%"
         width="100%"
         id="use834"
         y="288.255"
         x="135.617"
         xlink:href="#glyph2-1" />
    </g>
    <g
       id="g840"
       style="fill:#000000;fill-opacity:1">
      <use
         height="100%"
         width="100%"
         id="use838"
         y="305.79001"
         x="135.617"
         xlink:href="#glyph2-2" />
    </g>
    <g
       id="g844"
       style="fill:#000000;fill-opacity:1">
      <use
         height="100%"
         width="100%"
         id="use842"
         y="312.16599"
         x="135.617"
         xlink:href="#glyph2-3" />
    </g>
    <g
       id="g848"
       style="fill:#000000;fill-opacity:1">
      <use
         height="100%"
         width="100%"
         id="use846"
         y="288.255"
         x="226.145"
         xlink:href="#glyph2-4" />
    </g>
    <g
       id="g852"
       style="fill:#000000;fill-opacity:1">
      <use
         height="100%"
         width="100%"
         id="use850"
         y="305.79001"
         x="226.145"
         xlink:href="#glyph2-5" />
    </g>
    <g
       id="g856"
       style="fill:#000000;fill-opacity:1">
      <use
         height="100%"
         width="100%"
         id="use854"
         y="312.16599"
         x="226.145"
         xlink:href="#glyph2-6" />
    </g>
    <g
       id="g860"
       style="fill:#000000;fill-opacity:1">
      <use
         height="100%"
         width="100%"
         id="use858"
         y="342.14401"
         x="135.617"
         xlink:href="#glyph2-1" />
    </g>
    <g
       id="g864"
       style="fill:#000000;fill-opacity:1">
      <use
         height="100%"
         width="100%"
         id="use862"
         y="359.67899"
         x="135.617"
         xlink:href="#glyph2-2" />
    </g>
    <g
       id="g868"
       style="fill:#000000;fill-opacity:1">
      <use
         height="100%"
         width="100%"
         id="use866"
         y="366.05499"
         x="135.617"
         xlink:href="#glyph2-3" />
    </g>
    <g
       id="g872"
       style="fill:#000000;fill-opacity:1">
      <use
         height="100%"
         width="100%"
         id="use870"
         y="342.14401"
         x="226.145"
         xlink:href="#glyph2-4" />
    </g>
    <g
       id="g876"
       style="fill:#000000;fill-opacity:1">
      <use
         height="100%"
         width="100%"
         id="use874"
         y="359.67899"
         x="226.145"
         xlink:href="#glyph2-5" />
    </g>
    <g
       id="g880"
       style="fill:#000000;fill-opacity:1">
      <use
         height="100%"
         width="100%"
         id="use878"
         y="366.05499"
         x="226.145"
         xlink:href="#glyph2-6" />
    </g>
    <g
       id="g884"
       style="fill:#000000;fill-opacity:1">
      <use
         height="100%"
         width="100%"
         id="use882"
         y="127.783"
         x="231.92101"
         xlink:href="#glyph2-1" />
    </g>
    <g
       id="g888"
       style="fill:#000000;fill-opacity:1">
      <use
         height="100%"
         width="100%"
         id="use886"
         y="145.31799"
         x="231.92101"
         xlink:href="#glyph2-2" />
    </g>
    <g
       id="g892"
       style="fill:#000000;fill-opacity:1">
      <use
         height="100%"
         width="100%"
         id="use890"
         y="151.694"
         x="231.92101"
         xlink:href="#glyph2-3" />
    </g>
    <g
       id="g896"
       style="fill:#000000;fill-opacity:1">
      <use
         height="100%"
         width="100%"
         id="use894"
         y="127.783"
         x="337.39301"
         xlink:href="#glyph2-4" />
    </g>
    <g
       id="g900"
       style="fill:#000000;fill-opacity:1">
      <use
         height="100%"
         width="100%"
         id="use898"
         y="145.31799"
         x="337.39301"
         xlink:href="#glyph2-5" />
    </g>
    <g
       id="g904"
       style="fill:#000000;fill-opacity:1">
      <use
         height="100%"
         width="100%"
         id="use902"
         y="151.694"
         x="337.39301"
         xlink:href="#glyph2-6" />
    </g>
    <g
       id="g908"
       style="fill:#000000;fill-opacity:1">
      <use
         height="100%"
         width="100%"
         id="use906"
         y="180.85899"
         x="231.92101"
         xlink:href="#glyph2-1" />
    </g>
    <g
       id="g912"
       style="fill:#000000;fill-opacity:1">
      <use
         height="100%"
         width="100%"
         id="use910"
         y="198.394"
         x="231.92101"
         xlink:href="#glyph2-2" />
    </g>
    <g
       id="g916"
       style="fill:#000000;fill-opacity:1">
      <use
         height="100%"
         width="100%"
         id="use914"
         y="204.77"
         x="231.92101"
         xlink:href="#glyph2-3" />
    </g>
    <g
       id="g920"
       style="fill:#000000;fill-opacity:1">
      <use
         height="100%"
         width="100%"
         id="use918"
         y="180.85899"
         x="337.39301"
         xlink:href="#glyph2-4" />
    </g>
    <g
       id="g924"
       style="fill:#000000;fill-opacity:1">
      <use
         height="100%"
         width="100%"
         id="use922"
         y="198.394"
         x="337.39301"
         xlink:href="#glyph2-5" />
    </g>
    <g
       id="g928"
       style="fill:#000000;fill-opacity:1">
      <use
         height="100%"
         width="100%"
         id="use926"
         y="204.77"
         x="337.39301"
         xlink:href="#glyph2-6" />
    </g>
    <g
       id="g932"
       style="fill:#000000;fill-opacity:1">
      <use
         height="100%"
         width="100%"
         id="use930"
         y="234.765"
         x="231.92101"
         xlink:href="#glyph2-1" />
    </g>
    <g
       id="g936"
       style="fill:#000000;fill-opacity:1">
      <use
         height="100%"
         width="100%"
         id="use934"
         y="252.3"
         x="231.92101"
         xlink:href="#glyph2-2" />
    </g>
    <g
       id="g940"
       style="fill:#000000;fill-opacity:1">
      <use
         height="100%"
         width="100%"
         id="use938"
         y="258.67599"
         x="231.92101"
         xlink:href="#glyph2-3" />
    </g>
    <g
       id="g944"
       style="fill:#000000;fill-opacity:1">
      <use
         height="100%"
         width="100%"
         id="use942"
         y="234.765"
         x="337.39301"
         xlink:href="#glyph2-4" />
    </g>
    <g
       id="g948"
       style="fill:#000000;fill-opacity:1">
      <use
         height="100%"
         width="100%"
         id="use946"
         y="252.3"
         x="337.39301"
         xlink:href="#glyph2-5" />
    </g>
    <g
       id="g952"
       style="fill:#000000;fill-opacity:1">
      <use
         height="100%"
         width="100%"
         id="use950"
         y="258.67599"
         x="337.39301"
         xlink:href="#glyph2-6" />
    </g>
    <g
       id="g956"
       style="fill:#000000;fill-opacity:1">
      <use
         height="100%"
         width="100%"
         id="use954"
         y="288.255"
         x="231.92101"
         xlink:href="#glyph2-1" />
    </g>
    <g
       id="g960"
       style="fill:#000000;fill-opacity:1">
      <use
         height="100%"
         width="100%"
         id="use958"
         y="305.79001"
         x="231.92101"
         xlink:href="#glyph2-2" />
    </g>
    <g
       id="g964"
       style="fill:#000000;fill-opacity:1">
      <use
         height="100%"
         width="100%"
         id="use962"
         y="312.16599"
         x="231.92101"
         xlink:href="#glyph2-3" />
    </g>
    <g
       id="g968"
       style="fill:#000000;fill-opacity:1">
      <use
         height="100%"
         width="100%"
         id="use966"
         y="288.255"
         x="337.39301"
         xlink:href="#glyph2-4" />
    </g>
    <g
       id="g972"
       style="fill:#000000;fill-opacity:1">
      <use
         height="100%"
         width="100%"
         id="use970"
         y="305.79001"
         x="337.39301"
         xlink:href="#glyph2-5" />
    </g>
    <g
       id="g976"
       style="fill:#000000;fill-opacity:1">
      <use
         height="100%"
         width="100%"
         id="use974"
         y="312.16599"
         x="337.39301"
         xlink:href="#glyph2-6" />
    </g>
    <g
       id="g980"
       style="fill:#000000;fill-opacity:1">
      <use
         height="100%"
         width="100%"
         id="use978"
         y="127.783"
         x="231.92101"
         xlink:href="#glyph2-1" />
    </g>
    <g
       id="g984"
       style="fill:#000000;fill-opacity:1">
      <use
         height="100%"
         width="100%"
         id="use982"
         y="145.31799"
         x="231.92101"
         xlink:href="#glyph2-2" />
    </g>
    <g
       id="g988"
       style="fill:#000000;fill-opacity:1">
      <use
         height="100%"
         width="100%"
         id="use986"
         y="151.694"
         x="231.92101"
         xlink:href="#glyph2-3" />
    </g>
    <g
       id="g992"
       style="fill:#000000;fill-opacity:1">
      <use
         height="100%"
         width="100%"
         id="use990"
         y="127.783"
         x="337.39301"
         xlink:href="#glyph2-4" />
    </g>
    <g
       id="g996"
       style="fill:#000000;fill-opacity:1">
      <use
         height="100%"
         width="100%"
         id="use994"
         y="145.31799"
         x="337.39301"
         xlink:href="#glyph2-5" />
    </g>
    <g
       id="g1000"
       style="fill:#000000;fill-opacity:1">
      <use
         height="100%"
         width="100%"
         id="use998"
         y="151.694"
         x="337.39301"
         xlink:href="#glyph2-6" />
    </g>
    <g
       id="g1004"
       style="fill:#000000;fill-opacity:1">
      <use
         height="100%"
         width="100%"
         id="use1002"
         y="180.85899"
         x="231.92101"
         xlink:href="#glyph2-1" />
    </g>
    <g
       id="g1008"
       style="fill:#000000;fill-opacity:1">
      <use
         height="100%"
         width="100%"
         id="use1006"
         y="198.394"
         x="231.92101"
         xlink:href="#glyph2-2" />
    </g>
    <g
       id="g1012"
       style="fill:#000000;fill-opacity:1">
      <use
         height="100%"
         width="100%"
         id="use1010"
         y="204.77"
         x="231.92101"
         xlink:href="#glyph2-3" />
    </g>
    <g
       id="g1016"
       style="fill:#000000;fill-opacity:1">
      <use
         height="100%"
         width="100%"
         id="use1014"
         y="180.85899"
         x="337.39301"
         xlink:href="#glyph2-4" />
    </g>
    <g
       id="g1020"
       style="fill:#000000;fill-opacity:1">
      <use
         height="100%"
         width="100%"
         id="use1018"
         y="198.394"
         x="337.39301"
         xlink:href="#glyph2-5" />
    </g>
    <g
       id="g1024"
       style="fill:#000000;fill-opacity:1">
      <use
         height="100%"
         width="100%"
         id="use1022"
         y="204.77"
         x="337.39301"
         xlink:href="#glyph2-6" />
    </g>
    <g
       id="g1028"
       style="fill:#000000;fill-opacity:1">
      <use
         height="100%"
         width="100%"
         id="use1026"
         y="234.765"
         x="231.92101"
         xlink:href="#glyph2-1" />
    </g>
    <g
       id="g1032"
       style="fill:#000000;fill-opacity:1">
      <use
         height="100%"
         width="100%"
         id="use1030"
         y="252.3"
         x="231.92101"
         xlink:href="#glyph2-2" />
    </g>
    <g
       id="g1036"
       style="fill:#000000;fill-opacity:1">
      <use
         height="100%"
         width="100%"
         id="use1034"
         y="258.67599"
         x="231.92101"
         xlink:href="#glyph2-3" />
    </g>
    <g
       id="g1040"
       style="fill:#000000;fill-opacity:1">
      <use
         height="100%"
         width="100%"
         id="use1038"
         y="234.765"
         x="337.39301"
         xlink:href="#glyph2-4" />
    </g>
    <g
       id="g1044"
       style="fill:#000000;fill-opacity:1">
      <use
         height="100%"
         width="100%"
         id="use1042"
         y="252.3"
         x="337.39301"
         xlink:href="#glyph2-5" />
    </g>
    <g
       id="g1048"
       style="fill:#000000;fill-opacity:1">
      <use
         height="100%"
         width="100%"
         id="use1046"
         y="258.67599"
         x="337.39301"
         xlink:href="#glyph2-6" />
    </g>
    <g
       id="g1052"
       style="fill:#000000;fill-opacity:1">
      <use
         height="100%"
         width="100%"
         id="use1050"
         y="288.255"
         x="231.92101"
         xlink:href="#glyph2-1" />
    </g>
    <g
       id="g1056"
       style="fill:#000000;fill-opacity:1">
      <use
         height="100%"
         width="100%"
         id="use1054"
         y="305.79001"
         x="231.92101"
         xlink:href="#glyph2-2" />
    </g>
    <g
       id="g1060"
       style="fill:#000000;fill-opacity:1">
      <use
         height="100%"
         width="100%"
         id="use1058"
         y="312.16599"
         x="231.92101"
         xlink:href="#glyph2-3" />
    </g>
    <g
       id="g1064"
       style="fill:#000000;fill-opacity:1">
      <use
         height="100%"
         width="100%"
         id="use1062"
         y="288.255"
         x="337.39301"
         xlink:href="#glyph2-4" />
    </g>
    <g
       id="g1068"
       style="fill:#000000;fill-opacity:1">
      <use
         height="100%"
         width="100%"
         id="use1066"
         y="305.79001"
         x="337.39301"
         xlink:href="#glyph2-5" />
    </g>
    <g
       id="g1072"
       style="fill:#000000;fill-opacity:1">
      <use
         height="100%"
         width="100%"
         id="use1070"
         y="312.16599"
         x="337.39301"
         xlink:href="#glyph2-6" />
    </g>
    <g
       id="g1076"
       style="fill:#000000;fill-opacity:1">
      <use
         height="100%"
         width="100%"
         id="use1074"
         y="127.783"
         x="231.92101"
         xlink:href="#glyph2-1" />
    </g>
    <g
       id="g1080"
       style="fill:#000000;fill-opacity:1">
      <use
         height="100%"
         width="100%"
         id="use1078"
         y="145.31799"
         x="231.92101"
         xlink:href="#glyph2-2" />
    </g>
    <g
       id="g1084"
       style="fill:#000000;fill-opacity:1">
      <use
         height="100%"
         width="100%"
         id="use1082"
         y="151.694"
         x="231.92101"
         xlink:href="#glyph2-3" />
    </g>
    <g
       id="g1088"
       style="fill:#000000;fill-opacity:1">
      <use
         height="100%"
         width="100%"
         id="use1086"
         y="127.783"
         x="337.39301"
         xlink:href="#glyph2-4" />
    </g>
    <g
       id="g1092"
       style="fill:#000000;fill-opacity:1">
      <use
         height="100%"
         width="100%"
         id="use1090"
         y="145.31799"
         x="337.39301"
         xlink:href="#glyph2-5" />
    </g>
    <g
       id="g1096"
       style="fill:#000000;fill-opacity:1">
      <use
         height="100%"
         width="100%"
         id="use1094"
         y="151.694"
         x="337.39301"
         xlink:href="#glyph2-6" />
    </g>
    <g
       id="g1100"
       style="fill:#000000;fill-opacity:1">
      <use
         height="100%"
         width="100%"
         id="use1098"
         y="180.85899"
         x="231.92101"
         xlink:href="#glyph2-1" />
    </g>
    <g
       id="g1104"
       style="fill:#000000;fill-opacity:1">
      <use
         height="100%"
         width="100%"
         id="use1102"
         y="198.394"
         x="231.92101"
         xlink:href="#glyph2-2" />
    </g>
    <g
       id="g1108"
       style="fill:#000000;fill-opacity:1">
      <use
         height="100%"
         width="100%"
         id="use1106"
         y="204.77"
         x="231.92101"
         xlink:href="#glyph2-3" />
    </g>
    <g
       id="g1112"
       style="fill:#000000;fill-opacity:1">
      <use
         height="100%"
         width="100%"
         id="use1110"
         y="180.85899"
         x="337.39301"
         xlink:href="#glyph2-4" />
    </g>
    <g
       id="g1116"
       style="fill:#000000;fill-opacity:1">
      <use
         height="100%"
         width="100%"
         id="use1114"
         y="198.394"
         x="337.39301"
         xlink:href="#glyph2-5" />
    </g>
    <g
       id="g1120"
       style="fill:#000000;fill-opacity:1">
      <use
         height="100%"
         width="100%"
         id="use1118"
         y="204.77"
         x="337.39301"
         xlink:href="#glyph2-6" />
    </g>
    <g
       id="g1124"
       style="fill:#000000;fill-opacity:1">
      <use
         height="100%"
         width="100%"
         id="use1122"
         y="234.765"
         x="231.92101"
         xlink:href="#glyph2-1" />
    </g>
    <g
       id="g1128"
       style="fill:#000000;fill-opacity:1">
      <use
         height="100%"
         width="100%"
         id="use1126"
         y="252.3"
         x="231.92101"
         xlink:href="#glyph2-2" />
    </g>
    <g
       id="g1132"
       style="fill:#000000;fill-opacity:1">
      <use
         height="100%"
         width="100%"
         id="use1130"
         y="258.67599"
         x="231.92101"
         xlink:href="#glyph2-3" />
    </g>
    <g
       id="g1136"
       style="fill:#000000;fill-opacity:1">
      <use
         height="100%"
         width="100%"
         id="use1134"
         y="234.765"
         x="337.39301"
         xlink:href="#glyph2-4" />
    </g>
    <g
       id="g1140"
       style="fill:#000000;fill-opacity:1">
      <use
         height="100%"
         width="100%"
         id="use1138"
         y="252.3"
         x="337.39301"
         xlink:href="#glyph2-5" />
    </g>
    <g
       id="g1144"
       style="fill:#000000;fill-opacity:1">
      <use
         height="100%"
         width="100%"
         id="use1142"
         y="258.67599"
         x="337.39301"
         xlink:href="#glyph2-6" />
    </g>
    <g
       id="g1148"
       style="fill:#000000;fill-opacity:1">
      <use
         height="100%"
         width="100%"
         id="use1146"
         y="288.255"
         x="231.92101"
         xlink:href="#glyph2-1" />
    </g>
    <g
       id="g1152"
       style="fill:#000000;fill-opacity:1">
      <use
         height="100%"
         width="100%"
         id="use1150"
         y="305.79001"
         x="231.92101"
         xlink:href="#glyph2-2" />
    </g>
    <g
       id="g1156"
       style="fill:#000000;fill-opacity:1">
      <use
         height="100%"
         width="100%"
         id="use1154"
         y="312.16599"
         x="231.92101"
         xlink:href="#glyph2-3" />
    </g>
    <g
       id="g1160"
       style="fill:#000000;fill-opacity:1">
      <use
         height="100%"
         width="100%"
         id="use1158"
         y="288.255"
         x="337.39301"
         xlink:href="#glyph2-4" />
    </g>
    <g
       id="g1164"
       style="fill:#000000;fill-opacity:1">
      <use
         height="100%"
         width="100%"
         id="use1162"
         y="305.79001"
         x="337.39301"
         xlink:href="#glyph2-5" />
    </g>
    <g
       id="g1168"
       style="fill:#000000;fill-opacity:1">
      <use
         height="100%"
         width="100%"
         id="use1166"
         y="312.16599"
         x="337.39301"
         xlink:href="#glyph2-6" />
    </g>
    <g
       id="g1172"
       style="fill:#000000;fill-opacity:1">
      <use
         height="100%"
         width="100%"
         id="use1170"
         y="342.14401"
         x="231.92101"
         xlink:href="#glyph2-1" />
    </g>
    <g
       id="g1176"
       style="fill:#000000;fill-opacity:1">
      <use
         height="100%"
         width="100%"
         id="use1174"
         y="359.67899"
         x="231.92101"
         xlink:href="#glyph2-2" />
    </g>
    <g
       id="g1180"
       style="fill:#000000;fill-opacity:1">
      <use
         height="100%"
         width="100%"
         id="use1178"
         y="366.05499"
         x="231.92101"
         xlink:href="#glyph2-3" />
    </g>
    <g
       id="g1184"
       style="fill:#000000;fill-opacity:1">
      <use
         height="100%"
         width="100%"
         id="use1182"
         y="342.14401"
         x="337.39301"
         xlink:href="#glyph2-4" />
    </g>
    <g
       id="g1188"
       style="fill:#000000;fill-opacity:1">
      <use
         height="100%"
         width="100%"
         id="use1186"
         y="359.67899"
         x="337.39301"
         xlink:href="#glyph2-5" />
    </g>
    <g
       id="g1192"
       style="fill:#000000;fill-opacity:1">
      <use
         height="100%"
         width="100%"
         id="use1190"
         y="366.05499"
         x="337.39301"
         xlink:href="#glyph2-6" />
    </g>
    <path
       id="path1194"
       transform="matrix(1,0,0,-1,358.477,258.382)"
       d="m -109.23481,121.6945 h 12.023435 v 13.45703 h -12.023435 z m 0,0"
       style="fill:none;stroke:#ff0000;stroke-width:0.3985;stroke-linecap:butt;stroke-linejoin:miter;stroke-miterlimit:10;stroke-opacity:1" />
    <path
       id="path1196"
       transform="matrix(1,0,0,-1,358.477,258.382)"
       d="m -109.23481,68.202313 h 12.023435 V 81.66325 h -12.023435 z m 0,0"
       style="fill:none;stroke:#0000ff;stroke-width:0.3985;stroke-linecap:butt;stroke-linejoin:miter;stroke-miterlimit:10;stroke-opacity:1" />
    <path
       id="path1198"
       transform="matrix(1,0,0,-1,358.477,258.382)"
       d="m -109.23481,14.710125 h 12.023435 v 13.460938 h -12.023435 z m 0,0"
       style="fill:none;stroke:#0000ff;stroke-width:0.3985;stroke-linecap:butt;stroke-linejoin:miter;stroke-miterlimit:10;stroke-opacity:1" />
    <path
       id="path1200"
       transform="matrix(1,0,0,-1,358.477,258.382)"
       d="m -109.23481,-38.778156 h 12.023435 v 13.460937 h -12.023435 z m 0,0"
       style="fill:none;stroke:#0000ff;stroke-width:0.3985;stroke-linecap:butt;stroke-linejoin:miter;stroke-miterlimit:10;stroke-opacity:1" />
    <path
       id="path1202"
       transform="matrix(1,0,0,-1,358.477,258.382)"
       d="m -86.5395,56.249188 h 12.019531 V 69.706219 H -86.5395 Z m 0,0"
       style="fill:none;stroke:#ff0000;stroke-width:0.3985;stroke-linecap:butt;stroke-linejoin:miter;stroke-miterlimit:10;stroke-opacity:1" />
    <path
       id="path1204"
       transform="matrix(1,0,0,-1,358.477,258.382)"
       d="m -86.5395,2.757 h 12.019531 V 16.217938 H -86.5395 Z m 0,0"
       style="fill:none;stroke:#0000ff;stroke-width:0.3985;stroke-linecap:butt;stroke-linejoin:miter;stroke-miterlimit:10;stroke-opacity:1" />
    <path
       id="path1206"
       transform="matrix(1,0,0,-1,358.477,258.382)"
       d="m -86.5395,-50.735187 h 12.019531 V -37.27425 H -86.5395 Z m 0,0"
       style="fill:none;stroke:#0000ff;stroke-width:0.3985;stroke-linecap:butt;stroke-linejoin:miter;stroke-miterlimit:10;stroke-opacity:1" />
    <path
       id="path1208"
       transform="matrix(1,0,0,-1,358.477,258.382)"
       d="M -48.902781,-9.200031 H -36.88325 V 4.260906 h -12.019531 z m 0,0"
       style="fill:none;stroke:#ff0000;stroke-width:0.3985;stroke-linecap:butt;stroke-linejoin:miter;stroke-miterlimit:10;stroke-opacity:1" />
    <path
       id="path1210"
       transform="matrix(1,0,0,-1,358.477,258.382)"
       d="m -48.902781,-62.688312 h 12.019531 v 13.460937 h -12.019531 z m 0,0"
       style="fill:none;stroke:#0000ff;stroke-width:0.3985;stroke-linecap:butt;stroke-linejoin:miter;stroke-miterlimit:10;stroke-opacity:1" />
  </g>
</svg>
