<?xml version="1.0" encoding="UTF-8" standalone="no"?>
<svg
   xmlns:dc="http://purl.org/dc/elements/1.1/"
   xmlns:cc="http://creativecommons.org/ns#"
   xmlns:rdf="http://www.w3.org/1999/02/22-rdf-syntax-ns#"
   xmlns:svg="http://www.w3.org/2000/svg"
   xmlns="http://www.w3.org/2000/svg"
   xmlns:xlink="http://www.w3.org/1999/xlink"
   width="116.41888pt"
   height="76.026627pt"
   viewBox="0 0 116.41888 76.026627"
   version="1.1"
   id="svg193">
  <metadata
     id="metadata197">
    <rdf:RDF>
      <cc:Work
         rdf:about="">
        <dc:format>image/svg+xml</dc:format>
        <dc:type
           rdf:resource="http://purl.org/dc/dcmitype/StillImage" />
      </cc:Work>
    </rdf:RDF>
  </metadata>
  <defs
     id="defs46">
    <g
       id="g44">
      <symbol
         overflow="visible"
         id="glyph0-0">
        <path
           style="stroke:none"
           d=""
           id="path2" />
      </symbol>
      <symbol
         overflow="visible"
         id="glyph0-1">
        <path
           style="stroke:none"
           d="m 4.578125,-3.1875 c 0,-0.796875 -0.046875,-1.59375 -0.390625,-2.328125 -0.453125,-0.96875 -1.28125,-1.125 -1.6875,-1.125 -0.609375,0 -1.328125,0.265625 -1.75,1.1875 -0.3125,0.6875 -0.359375,1.46875 -0.359375,2.265625 0,0.75 0.03125,1.640625 0.453125,2.40625 0.421875,0.796875 1.15625,1 1.640625,1 0.53125,0 1.296875,-0.203125 1.734375,-1.15625 0.3125,-0.6875 0.359375,-1.46875 0.359375,-2.25 z M 2.484375,0 C 2.09375,0 1.5,-0.25 1.328125,-1.203125 1.21875,-1.796875 1.21875,-2.71875 1.21875,-3.3125 c 0,-0.640625 0,-1.296875 0.078125,-1.828125 0.1875,-1.1875 0.9375,-1.28125 1.1875,-1.28125 0.328125,0 0.984375,0.1875 1.171875,1.171875 0.109375,0.5625 0.109375,1.3125 0.109375,1.9375 0,0.75 0,1.421875 -0.109375,2.0625 C 3.5,-0.296875 2.9375,0 2.484375,0 Z m 0,0"
           id="path5" />
      </symbol>
      <symbol
         overflow="visible"
         id="glyph0-2">
        <path
           style="stroke:none"
           d="m 2.9375,-6.375 c 0,-0.25 0,-0.265625 -0.234375,-0.265625 C 2.078125,-6 1.203125,-6 0.890625,-6 v 0.3125 c 0.203125,0 0.78125,0 1.296875,-0.265625 v 5.171875 c 0,0.359375 -0.03125,0.46875 -0.921875,0.46875 h -0.3125 V 0 c 0.34375,-0.03125 1.203125,-0.03125 1.609375,-0.03125 0.390625,0 1.265625,0 1.609375,0.03125 v -0.3125 h -0.3125 c -0.90625,0 -0.921875,-0.109375 -0.921875,-0.46875 z m 0,0"
           id="path8" />
      </symbol>
      <symbol
         overflow="visible"
         id="glyph0-3">
        <path
           style="stroke:none"
           d="m 1.265625,-0.765625 1.0625,-1.03125 c 1.546875,-1.375 2.140625,-1.90625 2.140625,-2.90625 0,-1.140625 -0.890625,-1.9375 -2.109375,-1.9375 -1.125,0 -1.859375,0.921875 -1.859375,1.8125 0,0.546875 0.5,0.546875 0.53125,0.546875 0.171875,0 0.515625,-0.109375 0.515625,-0.53125 0,-0.25 -0.1875,-0.515625 -0.53125,-0.515625 -0.078125,0 -0.09375,0 -0.125,0.015625 0.21875,-0.65625 0.765625,-1.015625 1.34375,-1.015625 0.90625,0 1.328125,0.8125 1.328125,1.625 C 3.5625,-3.90625 3.078125,-3.125 2.515625,-2.5 l -1.90625,2.125 C 0.5,-0.265625 0.5,-0.234375 0.5,0 H 4.203125 L 4.46875,-1.734375 H 4.234375 C 4.171875,-1.4375 4.109375,-1 4,-0.84375 3.9375,-0.765625 3.28125,-0.765625 3.0625,-0.765625 Z m 0,0"
           id="path11" />
      </symbol>
      <symbol
         overflow="visible"
         id="glyph0-4">
        <path
           style="stroke:none"
           d="m 2.890625,-3.515625 c 0.8125,-0.265625 1.390625,-0.953125 1.390625,-1.75 0,-0.8125 -0.875,-1.375 -1.828125,-1.375 -1,0 -1.765625,0.59375 -1.765625,1.359375 0,0.328125 0.21875,0.515625 0.515625,0.515625 0.296875,0 0.5,-0.21875 0.5,-0.515625 0,-0.484375 -0.46875,-0.484375 -0.609375,-0.484375 0.296875,-0.5 0.953125,-0.625 1.3125,-0.625 0.421875,0 0.96875,0.21875 0.96875,1.109375 0,0.125 -0.03125,0.703125 -0.28125,1.140625 C 2.796875,-3.65625 2.453125,-3.625 2.203125,-3.625 2.125,-3.609375 1.890625,-3.59375 1.8125,-3.59375 c -0.078125,0.015625 -0.140625,0.03125 -0.140625,0.125 0,0.109375 0.0625,0.109375 0.234375,0.109375 h 0.4375 c 0.8125,0 1.1875,0.671875 1.1875,1.65625 0,1.359375 -0.6875,1.640625 -1.125,1.640625 -0.4375,0 -1.1875,-0.171875 -1.53125,-0.75 0.34375,0.046875 0.65625,-0.171875 0.65625,-0.546875 0,-0.359375 -0.265625,-0.5625 -0.546875,-0.5625 -0.25,0 -0.5625,0.140625 -0.5625,0.578125 0,0.90625 0.921875,1.5625 2.015625,1.5625 1.21875,0 2.125,-0.90625 2.125,-1.921875 0,-0.8125 -0.640625,-1.59375 -1.671875,-1.8125 z m 0,0"
           id="path14" />
      </symbol>
      <symbol
         overflow="visible"
         id="glyph1-0">
        <path
           style="stroke:none"
           d=""
           id="path17" />
      </symbol>
      <symbol
         overflow="visible"
         id="glyph1-1">
        <path
           style="stroke:none"
           d="M 3.734375,17.640625 C 3.953125,17.640625 4,17.640625 4,17.5 4.03125,10.515625 4.828125,4.71875 8.328125,-0.15625 c 0.0625,-0.09375 0.0625,-0.109375 0.0625,-0.140625 0,-0.09375 -0.0625,-0.09375 -0.21875,-0.09375 -0.171875,0 -0.1875,0 -0.203125,0.015625 -0.046875,0.03125 -1.3125,1.484375 -2.3125,3.5 -1.3125,2.625 -2.140625,5.640625 -2.515625,9.28125 -0.03125,0.296875 -0.234375,2.375 -0.234375,4.734375 v 0.390625 c 0,0.109375 0.0625,0.109375 0.28125,0.109375 z m 0,0"
           id="path20" />
      </symbol>
      <symbol
         overflow="visible"
         id="glyph1-2">
        <path
           style="stroke:none"
           d="M 4,0.171875 C 4,-0.09375 4,-0.09375 3.734375,-0.09375 H 3.1875 c -0.28125,0 -0.28125,0 -0.28125,0.265625 V 5.8125 c 0,0.265625 0,0.265625 0.28125,0.265625 H 3.734375 C 4,6.078125 4,6.078125 4,5.8125 Z m 0,0"
           id="path23" />
      </symbol>
      <symbol
         overflow="visible"
         id="glyph1-3">
        <path
           style="stroke:none"
           d="m 3.1875,-0.5 c -0.21875,0 -0.28125,0 -0.28125,0.109375 V 0 c 0,6.09375 1.078125,9.65625 1.390625,10.671875 C 4.96875,12.875 6.078125,15.21875 7.75,17.265625 7.890625,17.453125 7.9375,17.5 7.96875,17.515625 8,17.53125 8,17.53125 8.171875,17.53125 c 0.15625,0 0.21875,0 0.21875,-0.09375 0,-0.01563 0,-0.04687 -0.0625,-0.125 C 5.015625,12.703125 4.015625,7.15625 4,-0.359375 4,-0.5 3.953125,-0.5 3.734375,-0.5 Z m 0,0"
           id="path26" />
      </symbol>
      <symbol
         overflow="visible"
         id="glyph1-4">
        <path
           style="stroke:none"
           d="M 5.8125,17.140625 C 5.8125,11.0625 4.71875,7.484375 4.421875,6.484375 3.734375,4.265625 2.625,1.9375 0.96875,-0.125 0.8125,-0.296875 0.78125,-0.34375 0.734375,-0.375 c -0.015625,0 -0.03125,-0.015625 -0.1875,-0.015625 -0.140625,0 -0.234375,0 -0.234375,0.09375 0,0.03125 0,0.046875 0.140625,0.234375 3.46875,4.84375 4.234375,10.8125 4.25,17.5625 0,0.140625 0.0625,0.140625 0.28125,0.140625 H 5.53125 c 0.203125,0 0.265625,0 0.28125,-0.109375 z m 0,0"
           id="path29" />
      </symbol>
      <symbol
         overflow="visible"
         id="glyph1-5">
        <path
           style="stroke:none"
           d="M 5.8125,0.171875 C 5.8125,-0.09375 5.796875,-0.09375 5.53125,-0.09375 H 4.984375 c -0.265625,0 -0.28125,0 -0.28125,0.265625 V 5.8125 c 0,0.265625 0.015625,0.265625 0.28125,0.265625 H 5.53125 c 0.265625,0 0.28125,0 0.28125,-0.265625 z m 0,0"
           id="path32" />
      </symbol>
      <symbol
         overflow="visible"
         id="glyph1-6">
        <path
           style="stroke:none"
           d="M 5.8125,-0.390625 C 5.796875,-0.5 5.734375,-0.5 5.53125,-0.5 H 4.984375 c -0.21875,0 -0.28125,0 -0.28125,0.140625 0,1.03125 -0.015625,3.40625 -0.265625,5.875 C 3.890625,10.671875 2.578125,14.25 0.390625,17.3125 0.3125,17.390625 0.3125,17.421875 0.3125,17.4375 c 0,0.09375 0.09375,0.09375 0.234375,0.09375 0.15625,0 0.1875,0 0.203125,-0.01563 C 0.78125,17.484375 2.046875,16.03125 3.0625,14.03125 4.375,11.390625 5.203125,8.375 5.578125,4.75 5.609375,4.4375 5.8125,2.359375 5.8125,0 Z m 0,0"
           id="path35" />
      </symbol>
      <symbol
         overflow="visible"
         id="glyph1-7">
        <path
           style="stroke:none"
           d="m 7.546875,29.390625 c 0,-0.01563 0,-0.04687 -0.0625,-0.109375 C 6.53125,28.125 5.734375,26.84375 5.140625,25.453125 3.84375,22.40625 3.3125,18.84375 3.3125,14.546875 3.3125,10.3125 3.8125,6.578125 5.28125,3.3125 5.859375,2.046875 6.625,0.875 7.5,-0.203125 c 0.03125,-0.03125 0.046875,-0.0625 0.046875,-0.09375 0,-0.109375 -0.0625,-0.109375 -0.21875,-0.109375 -0.15625,0 -0.171875,0 -0.1875,0.03125 -0.015625,0 -0.625,0.609375 -1.40625,1.703125 C 4,3.78125 3.125,6.703125 2.671875,9.671875 c -0.234375,1.609375 -0.3125,3.25 -0.3125,4.875 0,3.71875 0.46875,7.53125 2.0625,10.9375 C 5.125,27 6.078125,28.375 7.0625,29.40625 7.140625,29.484375 7.15625,29.5 7.328125,29.5 c 0.15625,0 0.21875,0 0.21875,-0.109375 z m 0,0"
           id="path38" />
      </symbol>
      <symbol
         overflow="visible"
         id="glyph1-8">
        <path
           style="stroke:none"
           d="m 5.53125,14.546875 c 0,-3.71875 -0.46875,-7.53125 -2.0625,-10.9375 C 2.765625,2.09375 1.8125,0.734375 0.828125,-0.3125 0.734375,-0.390625 0.734375,-0.40625 0.5625,-0.40625 c -0.140625,0 -0.21875,0 -0.21875,0.109375 0,0.03125 0.03125,0.09375 0.0625,0.125 0.953125,1.15625 1.75,2.421875 2.328125,3.8125 1.3125,3.046875 1.828125,6.625 1.828125,10.90625 0,4.25 -0.484375,7.96875 -1.953125,11.25 C 2.03125,27.0625 1.265625,28.234375 0.375,29.3125 c 0,0.01563 -0.03125,0.0625 -0.03125,0.07813 C 0.34375,29.5 0.421875,29.5 0.5625,29.5 c 0.140625,0 0.171875,0 0.1875,-0.01563 0,-0.01563 0.625,-0.609375 1.40625,-1.71875 1.734375,-2.4375 2.609375,-5.375 3.0625,-8.34375 0.234375,-1.609375 0.3125,-3.25 0.3125,-4.875 z m 0,0"
           id="path41" />
      </symbol>
    </g>
  </defs>
  <g
     id="surface1"
     transform="translate(-137.39337,-122.08337)">
    <g
       style="fill:#000000;fill-opacity:1"
       id="g50">
      <use
         xlink:href="#glyph0-1"
         x="206.82401"
         y="134.211"
         id="use48"
         width="100%"
         height="100%" />
    </g>
    <path
       style="fill:none;stroke:#000000;stroke-width:0.3985;stroke-linecap:butt;stroke-linejoin:miter;stroke-miterlimit:10;stroke-opacity:1"
       d="m 144.98437,-65.796875 v 12.996094"
       transform="matrix(1,0,0,-1,72,72)"
       id="path52" />
    <g
       style="fill:#000000;fill-opacity:1"
       id="g56">
      <use
         xlink:href="#glyph0-1"
         x="222.16701"
         y="134.211"
         id="use54"
         width="100%"
         height="100%" />
    </g>
    <path
       style="fill:none;stroke:#000000;stroke-width:0.3985;stroke-linecap:butt;stroke-linejoin:miter;stroke-miterlimit:10;stroke-opacity:1"
       d="m 160.32812,-65.796875 v 12.996094"
       transform="matrix(1,0,0,-1,72,72)"
       id="path58" />
    <g
       style="fill:#000000;fill-opacity:1"
       id="g62">
      <use
         xlink:href="#glyph0-2"
         x="237.509"
         y="134.211"
         id="use60"
         width="100%"
         height="100%" />
    </g>
    <g
       style="fill:#000000;fill-opacity:1"
       id="g66">
      <use
         xlink:href="#glyph0-1"
         x="206.82401"
         y="147.207"
         id="use64"
         width="100%"
         height="100%" />
    </g>
    <path
       style="fill:none;stroke:#000000;stroke-width:0.3985;stroke-linecap:butt;stroke-linejoin:miter;stroke-miterlimit:10;stroke-opacity:1"
       d="m 144.98437,-78.792969 v 12.996094"
       transform="matrix(1,0,0,-1,72,72)"
       id="path68" />
    <g
       style="fill:#000000;fill-opacity:1"
       id="g72">
      <use
         xlink:href="#glyph0-2"
         x="222.16701"
         y="147.207"
         id="use70"
         width="100%"
         height="100%" />
    </g>
    <path
       style="fill:none;stroke:#000000;stroke-width:0.3985;stroke-linecap:butt;stroke-linejoin:miter;stroke-miterlimit:10;stroke-opacity:1"
       d="m 160.32812,-78.792969 v 12.996094"
       transform="matrix(1,0,0,-1,72,72)"
       id="path74" />
    <g
       style="fill:#000000;fill-opacity:1"
       id="g78">
      <use
         xlink:href="#glyph0-1"
         x="237.509"
         y="147.207"
         id="use76"
         width="100%"
         height="100%" />
    </g>
    <g
       style="fill:#000000;fill-opacity:1"
       id="g82">
      <use
         xlink:href="#glyph0-2"
         x="206.82401"
         y="160.203"
         id="use80"
         width="100%"
         height="100%" />
    </g>
    <path
       style="fill:none;stroke:#000000;stroke-width:0.3985;stroke-linecap:butt;stroke-linejoin:miter;stroke-miterlimit:10;stroke-opacity:1"
       d="m 144.98437,-91.789062 v 12.996093"
       transform="matrix(1,0,0,-1,72,72)"
       id="path84" />
    <g
       style="fill:#000000;fill-opacity:1"
       id="g88">
      <use
         xlink:href="#glyph0-1"
         x="222.16701"
         y="160.203"
         id="use86"
         width="100%"
         height="100%" />
    </g>
    <path
       style="fill:none;stroke:#000000;stroke-width:0.3985;stroke-linecap:butt;stroke-linejoin:miter;stroke-miterlimit:10;stroke-opacity:1"
       d="m 160.32812,-91.789062 v 12.996093"
       transform="matrix(1,0,0,-1,72,72)"
       id="path90" />
    <g
       style="fill:#000000;fill-opacity:1"
       id="g94">
      <use
         xlink:href="#glyph0-1"
         x="237.509"
         y="160.203"
         id="use92"
         width="100%"
         height="100%" />
    </g>
    <g
       style="fill:#000000;fill-opacity:1"
       id="g98">
      <use
         xlink:href="#glyph0-2"
         x="148.71201"
         y="178.868"
         id="use96"
         width="100%"
         height="100%" />
    </g>
    <g
       style="fill:#000000;fill-opacity:1"
       id="g102">
      <use
         xlink:href="#glyph0-3"
         x="163.65601"
         y="178.868"
         id="use100"
         width="100%"
         height="100%" />
    </g>
    <g
       style="fill:#000000;fill-opacity:1"
       id="g106">
      <use
         xlink:href="#glyph0-4"
         x="178.60001"
         y="178.868"
         id="use104"
         width="100%"
         height="100%" />
    </g>
    <g
       style="fill:#000000;fill-opacity:1"
       id="g110">
      <use
         xlink:href="#glyph0-4"
         x="206.82401"
         y="178.868"
         id="use108"
         width="100%"
         height="100%" />
    </g>
    <path
       style="fill:none;stroke:#000000;stroke-width:0.3985;stroke-linecap:butt;stroke-linejoin:miter;stroke-miterlimit:10;stroke-opacity:1"
       d="m 144.98437,-110.45313 v 12.996099"
       transform="matrix(1,0,0,-1,72,72)"
       id="path112" />
    <g
       style="fill:#000000;fill-opacity:1"
       id="g116">
      <use
         xlink:href="#glyph0-3"
         x="222.16701"
         y="178.868"
         id="use114"
         width="100%"
         height="100%" />
    </g>
    <path
       style="fill:none;stroke:#000000;stroke-width:0.3985;stroke-linecap:butt;stroke-linejoin:miter;stroke-miterlimit:10;stroke-opacity:1"
       d="m 160.32812,-110.45313 v 12.996099"
       transform="matrix(1,0,0,-1,72,72)"
       id="path118" />
    <g
       style="fill:#000000;fill-opacity:1"
       id="g122">
      <use
         xlink:href="#glyph0-2"
         x="237.509"
         y="178.868"
         id="use120"
         width="100%"
         height="100%" />
    </g>
    <g
       style="fill:#000000;fill-opacity:1"
       id="g126">
      <use
         xlink:href="#glyph0-2"
         x="148.71201"
         y="191.86301"
         id="use124"
         width="100%"
         height="100%" />
    </g>
    <g
       style="fill:#000000;fill-opacity:1"
       id="g130">
      <use
         xlink:href="#glyph0-3"
         x="163.65601"
         y="191.86301"
         id="use128"
         width="100%"
         height="100%" />
    </g>
    <g
       style="fill:#000000;fill-opacity:1"
       id="g134">
      <use
         xlink:href="#glyph0-4"
         x="178.60001"
         y="191.86301"
         id="use132"
         width="100%"
         height="100%" />
    </g>
    <g
       style="fill:#000000;fill-opacity:1"
       id="g138">
      <use
         xlink:href="#glyph0-4"
         x="206.82401"
         y="191.86301"
         id="use136"
         width="100%"
         height="100%" />
    </g>
    <path
       style="fill:none;stroke:#000000;stroke-width:0.3985;stroke-linecap:butt;stroke-linejoin:miter;stroke-miterlimit:10;stroke-opacity:1"
       d="m 144.98437,-123.44922 v 12.99609"
       transform="matrix(1,0,0,-1,72,72)"
       id="path140" />
    <g
       style="fill:#000000;fill-opacity:1"
       id="g144">
      <use
         xlink:href="#glyph0-3"
         x="222.16701"
         y="191.86301"
         id="use142"
         width="100%"
         height="100%" />
    </g>
    <path
       style="fill:none;stroke:#000000;stroke-width:0.3985;stroke-linecap:butt;stroke-linejoin:miter;stroke-miterlimit:10;stroke-opacity:1"
       d="m 160.32812,-123.44922 v 12.99609"
       transform="matrix(1,0,0,-1,72,72)"
       id="path146" />
    <g
       style="fill:#000000;fill-opacity:1"
       id="g150">
      <use
         xlink:href="#glyph0-2"
         x="237.509"
         y="191.86301"
         id="use148"
         width="100%"
         height="100%" />
    </g>
    <g
       style="fill:#000000;fill-opacity:1"
       id="g154">
      <use
         xlink:href="#glyph1-1"
         x="193.731"
         y="123.474"
         id="use152"
         width="100%"
         height="100%" />
    </g>
    <g
       style="fill:#000000;fill-opacity:1"
       id="g158">
      <use
         xlink:href="#glyph1-2"
         x="193.731"
         y="141.008"
         id="use156"
         width="100%"
         height="100%" />
    </g>
    <g
       style="fill:#000000;fill-opacity:1"
       id="g162">
      <use
         xlink:href="#glyph1-3"
         x="193.731"
         y="147.384"
         id="use160"
         width="100%"
         height="100%" />
    </g>
    <g
       style="fill:#000000;fill-opacity:1"
       id="g166">
      <use
         xlink:href="#glyph1-4"
         x="246.866"
         y="123.474"
         id="use164"
         width="100%"
         height="100%" />
    </g>
    <g
       style="fill:#000000;fill-opacity:1"
       id="g170">
      <use
         xlink:href="#glyph1-5"
         x="246.866"
         y="141.008"
         id="use168"
         width="100%"
         height="100%" />
    </g>
    <g
       style="fill:#000000;fill-opacity:1"
       id="g174">
      <use
         xlink:href="#glyph1-6"
         x="246.866"
         y="147.384"
         id="use172"
         width="100%"
         height="100%" />
    </g>
    <g
       style="fill:#000000;fill-opacity:1"
       id="g178">
      <use
         xlink:href="#glyph1-7"
         x="136.034"
         y="167.61"
         id="use176"
         width="100%"
         height="100%" />
    </g>
    <g
       style="fill:#000000;fill-opacity:1"
       id="g182">
      <use
         xlink:href="#glyph1-8"
         x="188.371"
         y="167.61"
         id="use180"
         width="100%"
         height="100%" />
    </g>
    <g
       style="fill:#000000;fill-opacity:1"
       id="g186">
      <use
         xlink:href="#glyph1-7"
         x="194.147"
         y="167.61"
         id="use184"
         width="100%"
         height="100%" />
    </g>
    <g
       style="fill:#000000;fill-opacity:1"
       id="g190">
      <use
         xlink:href="#glyph1-8"
         x="247.28101"
         y="167.61"
         id="use188"
         width="100%"
         height="100%" />
    </g>
  </g>
</svg>
